﻿<?xml version="1.0"?>
<!-- Generator: Adobe Illustrator 10.0, SVG Export Plug-In . SVG Version: 3.0.0 Build 77)  -->
<!DOCTYPE svg PUBLIC "-//W3C//DTD SVG 1.0//EN" "http://www.w3.org/TR/2001/REC-SVG-20010904/DTD/svg10.dtd"[
	<!ENTITY ns_flows "http://ns.adobe.com/Flows/1.0/">
	<!ENTITY ns_svg "http://www.w3.org/2000/svg">
	<!ENTITY ns_xlink "http://www.w3.org/1999/xlink">
	<!ENTITY st0 "fill:none;stroke:#000000;stroke-linecap:round;stroke-linejoin:round;">
	<!ENTITY st1 "fill:none;stroke:#000000;">
	<!ENTITY st2 "font-size:8px;">
	<!ENTITY st3 "font-family:'Arial';">
	<!ATTLIST svg
		ewd:ver CDATA #IMPLIED
		xmlns:ewd CDATA #FIXED "http://shcl.co.jp/ewd"
		xmlns:a CDATA #FIXED "http://ns.adobe.com/AdobeSVGViewerExtensions/3.0/">
	<!ATTLIST g
		ewd:pinNo CDATA #IMPLIED>
]>
<svg width="32.18" height="36.098" viewBox="0 0 32.18 36.098" style="overflow:visible;enable-background:new 0 0 32.18 36.098" xml:space="preserve" onload="call_execInitLoadProc_svg('connector')" ewd:ver="L2.1.2.9" xmlns="&ns_svg;" xmlns:ewd="http://shcl.co.jp/ewd" xmlns:a="http://ns.adobe.com/AdobeSVGViewerExtensions/3.0/" xmlns:xlink="&ns_xlink;">
<script type="text/javascript" xlink:href="../../../../../system/js/ewd/fig/svgfig.js"/>
<g id="レイヤー_1">
	<g>
		<path style="&st0;" d="M21.971,4.426h-5.89h-5.888V0.5h5.888h5.89V4.426z"/>
		<path style="&st1;" d="M16.09,20.007H0.5V4.416h15.59V20.007z"/>
		<path style="&st1;" d="M31.68,20.007H16.09V4.416h15.59V20.007z"/>
		<path style="&st1;" d="M16.09,35.598H0.5V20.007h15.59V35.598z"/>
		<path style="&st1;" d="M31.68,35.598H16.09V20.007h15.59V35.598z"/>
		<g ewd:pinNo="3">
			<text transform="matrix(1 0 0 1 6.0767 30.5039)"><tspan x="0" y="0" style="&st3; &st2;">3</tspan></text>
		</g>
		<g ewd:pinNo="4">
			<text transform="matrix(1 0 0 1 21.6606 30.5039)"><tspan x="0" y="0" style="&st3; &st2;">4</tspan></text>
		</g>
		<g ewd:pinNo="1">
			<text transform="matrix(1 0 0 1 6.0669 14.918)"><tspan x="0" y="0" style="&st3; &st2;">1</tspan></text>
		</g>
		<g ewd:pinNo="2">
			<text transform="matrix(1 0 0 1 21.6626 14.918)"><tspan x="0" y="0" style="&st3; &st2;">2</tspan></text>
		</g>
	</g>
</g>
</svg>