﻿<?xml version="1.0"?>
<!-- Generator: Adobe Illustrator 10.0, SVG Export Plug-In . SVG Version: 3.0.0 Build 77)  -->
<!DOCTYPE svg PUBLIC "-//W3C//DTD SVG 1.0//EN" "http://www.w3.org/TR/2001/REC-SVG-20010904/DTD/svg10.dtd"[
	<!ENTITY ns_flows "http://ns.adobe.com/Flows/1.0/">
	<!ENTITY ns_svg "http://www.w3.org/2000/svg">
	<!ENTITY ns_xlink "http://www.w3.org/1999/xlink">
	<!ENTITY st0 "fill:none;stroke:#000000;stroke-linecap:round;stroke-linejoin:round;">
	<!ENTITY st1 "font-size:8px;">
	<!ENTITY st2 "font-family:'Arial';">
	<!ATTLIST svg
		ewd:ver CDATA #IMPLIED
		xmlns:ewd CDATA #FIXED "http://shcl.co.jp/ewd"
		xmlns:a CDATA #FIXED "http://ns.adobe.com/AdobeSVGViewerExtensions/3.0/">
	<!ATTLIST g
		ewd:pinNo CDATA #IMPLIED>
]>
<svg width="57.197" height="58.926" viewBox="0 0 57.197 58.926" style="overflow:visible;enable-background:new 0 0 57.197 58.926" xml:space="preserve" onload="call_execInitLoadProc_svg('connector')" ewd:ver="L2.1.2.9" xmlns="&ns_svg;" xmlns:ewd="http://shcl.co.jp/ewd" xmlns:a="http://ns.adobe.com/AdobeSVGViewerExtensions/3.0/" xmlns:xlink="&ns_xlink;">
<script type="text/javascript" xlink:href="../../../../../system/js/ewd/fig/svgfig.js"/>
<g id="レイヤー_1">
	<path style="&st0;" d="M36.393,45.171V29.582h-15.59v15.589H36.393z"/>
	<path style="&st0;" d="M28.598,29.582V13.993H13.009v15.589H28.598z"/>
	<path style="&st0;" d="M44.188,29.582V13.993h-15.59v15.589H44.188z"/>
	<path style="&st0;" d="M45.3,50.764h11.396V11.975c0-6.327-5.148-11.475-11.476-11.475H11.975C5.648,0.5,0.5,5.647,0.5,11.975    v38.789h11.31"/>
	<path style="&st0;" d="M40.509,3.317"/>
	<path style="&st0;" d="M6.392,16.206c0-5.481,4.46-9.942,9.944-9.942h24.526c5.481,0,9.942,4.461,9.942,9.942    c0,0,0,17.568,0,18.284c-0.343,0.635-10.567,19.514-10.567,19.514c-0.469,0.926-1.364,1.477-2.357,1.477H19.317    c-0.994,0-1.889-0.551-2.337-1.438c0,0-10.244-18.915-10.588-19.552C6.392,33.774,6.392,16.206,6.392,16.206z"/>
	<path style="&st0;" d="M56.697,29.655H53.75c0,3.661,0,3.701,0,5.583L42.847,55.369c-0.953,1.885-2.856,3.057-4.968,3.057H19.317    c-2.112,0-4.015-1.172-4.948-3.019L3.446,35.238c0-1.84,0-1.834,0-5.583H0.5"/>
	<path style="&st0;" d="M0.5,23.156h2.946c0-6.703,0-11.182,0-11.182c0-4.702,3.827-8.529,8.529-8.529h33.246    c4.703,0,8.529,3.827,8.529,8.529c0,0,0,4.427,0,11.182h2.946"/>
	<g ewd:pinNo="3">
		<text transform="matrix(1 0 0 1 26.3735 40.2012)"><tspan x="0" y="0" style="&st2; &st1;">3</tspan></text>
	</g>
	<g ewd:pinNo="1">
		<text transform="matrix(1 0 0 1 18.5791 24.6113)"><tspan x="0" y="0" style="&st2; &st1;">1</tspan></text>
	</g>
	<g ewd:pinNo="2">
		<text transform="matrix(1 0 0 1 34.1685 24.6113)"><tspan x="0" y="0" style="&st2; &st1;">2</tspan></text>
	</g>
</g>
</svg>