﻿<?xml version="1.0"?>
<!-- Generator: Adobe Illustrator 10.0, SVG Export Plug-In . SVG Version: 3.0.0 Build 77)  -->
<!DOCTYPE svg PUBLIC "-//W3C//DTD SVG 1.0//EN" "http://www.w3.org/TR/2001/REC-SVG-20010904/DTD/svg10.dtd"[
	<!ENTITY ns_flows "http://ns.adobe.com/Flows/1.0/">
	<!ENTITY ns_svg "http://www.w3.org/2000/svg">
	<!ENTITY ns_xlink "http://www.w3.org/1999/xlink">
	<!ENTITY st0 "fill:none;stroke:#000000;">
	<!ENTITY st1 "font-size:8px;">
	<!ENTITY st2 "font-family:'Arial';">
	<!ATTLIST svg
		ewd:ver CDATA #IMPLIED
		xmlns:ewd CDATA #FIXED "http://shcl.co.jp/ewd"
		xmlns:a CDATA #FIXED "http://ns.adobe.com/AdobeSVGViewerExtensions/3.0/">
	<!ATTLIST g
		ewd:pinNo CDATA #IMPLIED>
]>
<svg width="42.027" height="26.708" viewBox="0 0 42.027 26.708" style="overflow:visible;enable-background:new 0 0 42.027 26.708" xml:space="preserve" onload="call_execInitLoadProc_svg('connector')" ewd:ver="L2.1.2.9" xmlns="&ns_svg;" xmlns:ewd="http://shcl.co.jp/ewd" xmlns:a="http://ns.adobe.com/AdobeSVGViewerExtensions/3.0/" xmlns:xlink="&ns_xlink;">
<script type="text/javascript" xlink:href="../../../../../system/js/ewd/fig/svgfig.js"/>
<g id="レイヤー_2">
	<g>
		<path style="&st0;" d="M20.966,21.854H5.375V6.263h15.59V21.854z"/>
		<g ewd:pinNo="2">
			<text transform="matrix(1 0 0 1 10.9463 16.7598)"><tspan x="0" y="0" style="&st2; &st1;">2</tspan></text>
		</g>
		<path style="&st0;" d="M36.556,21.854h-15.59V6.263h15.59V21.854z"/>
		<g ewd:pinNo="1">
			<text transform="matrix(1 0 0 1 26.5361 16.7598)"><tspan x="0" y="0" style="&st2; &st1;">1</tspan></text>
		</g>
		<path style="&st0;" d="M25.28,6.263h-8.628V2.741h8.628V6.263z"/>
		<path style="&st0;" d="M39.374,17.227h-2.818v-6.339h2.818V17.227z"/>
		<path style="&st0;" d="M41.527,26.208H0.5V0.5h41.027V26.208z"/>
	</g>
</g>
</svg>