﻿<?xml version="1.0" encoding="utf-8"?>
<!DOCTYPE svg PUBLIC "-//W3C//DTD SVG 1.0//EN" "http://www.w3.org/TR/2001/REC-SVG-20010904/DTD/svg10.dtd"[
	<!ENTITY ns_flows "http://ns.adobe.com/Flows/1.0/">
	<!ENTITY ns_svg "http://www.w3.org/2000/svg">
	<!ENTITY ns_xlink "http://www.w3.org/1999/xlink">
	<!ENTITY st0 "font-size:7px;font-family:'MS-PGothic';adobe-font-script:japanese;">
	<!ENTITY st1 "font-size:6px;font-family:'ArialMT';">
	<!-- White fill  -->
	<!ENTITY st2 "fill:#FFFFFF;stroke:#000000; stroke-width:1.41;stroke-linecap:round;stroke-linejoin:round;">
	<!-- Yellow fill  -->
	<!ENTITY st3 "fill:#FFFFCC;stroke:#FFFFCC; stroke-width:0.1;stroke-linecap:round;stroke-linejoin:round;">
	<!-- Gray fill  -->
	<!ENTITY st4 "fill:#CCCCCC;stroke:#CCCCCC; stroke-width:0.1;stroke-linecap:round;stroke-linejoin:round;">
	<!-- Light-blue fill -->
	<!ENTITY st5 "fill:#CCECF4;stroke:#000000; stroke-width:1.133;stroke-linecap:round;stroke-linejoin:round;">
	<!ENTITY st6 "fill:none;stroke-linecap:butt; stroke-linejoin:round;">
	<!ENTITY st7 "fill:none;stroke:#000000;stroke-linecap:round;stroke-linejoin:round;">
	<!ENTITY st8 "enable-background:new    ;">
	<!-- Black fill -->
	<!ENTITY st9 "fill:#000000;stroke:#000000; stroke-linecap:round;stroke-linejoin:round;">
	<!-- SRS note   -->
	<!ENTITY st10 "font-size:9px;font-family:'ArialMT';">
	<!ENTITY st11 "font-size:9px;font-family:'Svg Symbol';">
	<!ENTITY st12 "font-size:6px;font-family:'Svg Symbol';">
	<!ENTITY st13 "fill:none;stroke:#ff0000;stroke-linecap:round;stroke-linejoin:round;">
	<!-- Yellow fill  -->
	<!ENTITY st14 "fill:#FFFF00;stroke:#FFFF00; stroke-width:0.1;stroke-linecap:round;stroke-linejoin:round;">
	<!ENTITY st15 "font-size:6px;font-family:'MS-PGothic';adobe-font-script:japanese;">
	<!ENTITY st16 "1.00 0.00 0.00 1.00">
	<!ENTITY st17 "0.00 -1.00 1.00 0.00">
	<!ENTITY st18 "font-size:6px;font-family:'Arial';">
	<!ENTITY st19 "font-size:9px;font-family:'Arial';">
	<!ENTITY st20 "font-size:6px;font-family:'MS-PGothic','MS PGothic';adobe-font-script:japanese;">
	<!ENTITY st21 "font-size:7px;font-family:'MS-PGothic','MS PGothic';adobe-font-script:japanese;">
	<!ATTLIST svg
		xmlns:ewd CDATA #FIXED "http://shcl.co.jp/ewd"
		xmlns:a CDATA #FIXED "http://ns.adobe.com/AdobeSVGViewerExtensions/3.0/"
		ewd:ver CDATA #IMPLIED
	>
	<!ATTLIST a
		ewd:lineID CDATA #IMPLIED
		ewd:groupID CDATA #IMPLIED
		ewd:figtype CDATA #IMPLIED
		ewd:code CDATA #IMPLIED
		ewd:figID CDATA #IMPLIED
		ewd:pinNo CDATA #IMPLIED
		ewd:comment CDATA #IMPLIED >
	<!ATTLIST g
		ewd:lineID CDATA #IMPLIED
		ewd:groupID CDATA #IMPLIED
		ewd:figtype CDATA #IMPLIED
		ewd:code CDATA #IMPLIED
		ewd:figID CDATA #IMPLIED
		ewd:pinNo CDATA #IMPLIED
		ewd:comment CDATA #IMPLIED >
	<!ATTLIST text
		ewd:textID CDATA #IMPLIED >
	<!ATTLIST title
		ewd:textID CDATA #IMPLIED >
]>
<!-- Generator: Shintec Hozumi YS   -->
<svg onload="call_execInitLoadProc_svg('system')" style="overflow:visible;  enable-background:new 0 0 6077.010 710.000" viewBox="0 0 6077.010 710.000" height="710.000" width="6077.010" xml:space="preserve" ewd:ver="L2.1.2.9" xmlns="&ns_svg;" xmlns:a="http://ns.adobe.com/AdobeSVGViewerExtensions/3.0/" xmlns:ewd="http://shcl.co.jp/ewd" xmlns:xlink="&ns_xlink;">
<path d=" M  2617.56,   350.23  L  2626.06,   350.23  " style="stroke-width: 1.42 ;&st7;  " /><path d=" M  2668.55,   350.23  L  2677.05,   350.23  " style="stroke-width: 1.42 ;&st7;  " /><path d=" M  2672.80,   341.16  L  2677.05,   345.41  L  2681.30,   341.16  " style="stroke-width: 1.42 ;&st7;  " /><path d=" M  2681.30,   344.56  L  2677.05,   348.81  L  2672.80,   344.56  " style="stroke-width: 1.42 ;&st7;  " /><path d=" M  2621.81,   341.16  L  2626.06,   345.41  L  2630.31,   341.16  " style="stroke-width: 1.42 ;&st7;  " /><path d=" M  2630.31,   344.56  L  2626.06,   348.81  L  2621.81,   344.56  " style="stroke-width: 1.42 ;&st7;  " /><path d=" M  2973.31,   264.24  L  2973.04,   264.71  L  2972.94,   265.24  L  2973.04,   265.77  L  2973.31,   266.24  L  2973.72,   266.59  L  2974.23,   266.78  L  2974.77,   266.78  L  2975.28,   266.59  L  2975.69,   266.24  L  2975.97,   265.77  L  2976.06,   265.24  L  2975.97,   264.71  L  2975.69,   264.24  L  2975.28,   263.89  L  2974.77,   263.71  L  2974.23,   263.71  L  2973.72,   263.89  L  2973.31,   264.24  L  2973.70,   264.95  L  2973.70,   265.53  L  2974.08,   265.98  L  2974.65,   266.08  L  2975.15,   265.79  L  2975.35,   265.24  L  2975.15,   264.69  L  2974.65,   264.41  L  2974.08,   264.50  L  2974.50,   265.24  " style="stroke-width: 0.85 ;&st7;  " /><path d=" M  2922.32,   247.24  L  2922.05,   247.71  L  2921.95,   248.24  L  2922.05,   248.78  L  2922.32,   249.25  L  2922.73,   249.59  L  2923.24,   249.78  L  2923.78,   249.78  L  2924.29,   249.59  L  2924.70,   249.25  L  2924.97,   248.78  L  2925.07,   248.24  L  2924.97,   247.71  L  2924.70,   247.24  L  2924.29,   246.90  L  2923.78,   246.71  L  2923.24,   246.71  L  2922.73,   246.90  L  2922.32,   247.24  L  2922.71,   247.95  L  2922.71,   248.54  L  2923.09,   248.98  L  2923.66,   249.08  L  2924.16,   248.79  L  2924.36,   248.24  L  2924.16,   247.70  L  2923.66,   247.41  L  2923.09,   247.51  L  2923.51,   248.24  " style="stroke-width: 0.85 ;&st7;  " /><path d=" M  2638.50,   362.97  L  2656.12,   362.97  " style="stroke-width: 0.85 ;&st7; stroke-dasharray:3, 1.5;" /><path d=" M  2974.50,   231.25  L  2974.50,   282.24  " style="stroke-width: 0.85 ;&st7;  " /><path d=" M  2923.51,   231.25  L  2923.51,   282.24  " style="stroke-width: 0.85 ;&st7;  " /><path d=" M  2638.50,   354.48  L  2656.12,   354.48  " style="stroke-width: 0.85 ;&st7; stroke-dasharray:3, 1.5;" /><path d=" M  2821.53,   282.24  L  2821.53,   248.24  L  2923.51,   248.24  " style="stroke-width: 0.85 ;&st7;  " /><path d=" M  2872.52,   282.24  L  2872.52,   265.24  L  2974.50,   265.24  " style="stroke-width: 0.85 ;&st7;  " /><path d=" M  2804.53,   231.25  L  2804.53,   282.24  L  2991.50,   282.24  L  2991.50,   231.25  L  2804.53,   231.25  " style="stroke-width: 1.42 ;&st7;  " /><path d=" M  2524.08,   231.25  L  2524.08,   282.24  " style="stroke-width: 0.85 ;&st7;  " /><path d=" M  2522.88,   247.24  L  2522.61,   247.71  L  2522.52,   248.24  L  2522.61,   248.78  L  2522.88,   249.25  L  2523.30,   249.59  L  2523.81,   249.78  L  2524.35,   249.78  L  2524.86,   249.59  L  2525.27,   249.25  L  2525.54,   248.78  L  2525.64,   248.24  L  2525.54,   247.71  L  2525.27,   247.24  L  2524.86,   246.90  L  2524.35,   246.71  L  2523.81,   246.71  L  2523.30,   246.90  L  2522.88,   247.24  L  2523.28,   247.95  L  2523.28,   248.54  L  2523.65,   248.98  L  2524.22,   249.08  L  2524.73,   248.79  L  2524.93,   248.24  L  2524.73,   247.70  L  2524.22,   247.41  L  2523.65,   247.51  L  2524.08,   248.24  " style="stroke-width: 0.85 ;&st7;  " /><text style="&st18;" transform="matrix(&st16;  2917.33  290.43 )">5</text><text style="&st18;" transform="matrix(&st16;  2965.22  290.43 )">16</text><text style="&st18;" transform="matrix(&st16;  2603.04  652.48 )">W-B(LHD)</text><text style="&st18;" transform="matrix(&st16;  2603.9  618.48 )">R-Y(LHD)</text><text style="&st18;" transform="matrix(&st17;  2880.16  392.08 )">(RHD)</text><text style="&st18;" transform="matrix(&st16;  2686.08  356.45 )">(LHD)</text><text style="&st18;" transform="matrix(&st16;  2661.32  364.94 )">39</text><text style="&st18;" transform="matrix(&st16;  2661.32  356.45 )">39</text><text style="&st18;" transform="matrix(&st17;  2982.14  391.38 )">(A/T)</text><text style="&st18;" transform="matrix(&st17;  2931.15  391.38 )">(A/T)</text><text style="&st18;" transform="matrix(&st17;  2970.81  385.79 )">L</text><text style="&st18;" transform="matrix(&st17;  2919.82  390.18 )">B-W</text><text style="&st18;" transform="matrix(&st16;  2667.77  290.43 )">20</text><text style="&st18;" transform="matrix(&st16;  2917.33  227.56 )">6</text><text style="&st18;" transform="matrix(&st16;  2965.22  227.56 )">17</text><text style="&st18;" transform="matrix(&st16;  2619.88  290.43 )">9</text><text style="&st18;" transform="matrix(&st17;  2673.36  321.22 )">B-P</text><text style="&st18;" transform="matrix(&st17;  2622.37  318.35 )">O</text><text style="&st18;" transform="matrix(&st16;  2514.79  227.56 )">16</text><text style="&st18;" transform="matrix(&st16;  2514.79  120.46 )">14</text><text style="&st18;" transform="matrix(&st17;  2520.38  175.54 )">LG</text><text style="&st18;" transform="matrix(&st17;  2520.38  320.02 )">LG</text><text style="&st18;" transform="matrix(&st16;  2514.79  290.43 )">14</text><text style="&st18;" transform="matrix(&st17;  2829.17  392.08 )">(RHD)</text><text style="&st18;" transform="matrix(&st16;  2815.34  290.43 )">7</text><text style="&st18;" transform="matrix(&st16;  2863.23  290.43 )">18</text><text style="&st18;" transform="matrix(&st17;  2817.83  386.34 )">O</text><text style="&st18;" transform="matrix(&st17;  2868.82  389.21 )">B-P</text><text ewd:textID="17" style="&st18;" transform="matrix(&st16;  2605.66  227.55 )">Junction Connector</text><text style="&st18;" transform="matrix(&st16;  2605.65  220.44 )">D43</text><text style="&st18;" transform="matrix(&st16;  2610.33  364.94 )">21</text><text style="&st18;" transform="matrix(&st16;  2610.33  356.45 )">21</text><text style="&st18;" transform="matrix(&st16;  2686.08  364.94 )">(RHD)</text><text style="&st18;" transform="matrix(&st16;  2552.91  618.48 )">R-Y(LHD)</text><text style="&st18;" transform="matrix(&st16;  2552.05  652.48 )">W-B(LHD)</text><text style="&st18;" transform="matrix(&st16;  2562.29  584.49 )">LG</text><text style="&st18;" transform="matrix(&st16;  2564.58  601.49 )">P</text><text style="&st18;" transform="matrix(&st16;  2613.28  584.49 )">LG</text><text style="&st18;" transform="matrix(&st16;  2615.57  601.49 )">P</text><text style="&st18;" transform="matrix(&st17;  2622.37  445.83 )">O</text><text style="&st18;" transform="matrix(&st17;  2633.7  451.53 )">(LHD)</text><text style="&st18;" transform="matrix(&st17;  2673.36  448.7 )">B-P</text><text style="&st18;" transform="matrix(&st17;  2684.69  451.53 )">(LHD)</text><text style="&st18;" transform="matrix(&st17;  2724.35  261.84 )">R-Y</text><text style="&st18;" transform="matrix(&st17;  2735.68  264.6 )">(RHD)</text><text style="&st18;" transform="matrix(&st17;  2758.34  262.7 )">W-B</text><text style="&st18;" transform="matrix(&st17;  2769.68  264.6 )">(RHD)</text><text style="&st18;" transform="matrix(&st17;  2792.34  390.18 )">W-B</text><text style="&st18;" transform="matrix(&st17;  2803.67  392.04 )">(LHD)</text><text style="&st18;" transform="matrix(&st17;  2843.33  389.32 )">R-Y</text><text style="&st18;" transform="matrix(&st17;  2854.66  392.04 )">(LHD)</text><text style="&st18;" transform="matrix(&st16;  2515.72  108.57 )">CANL</text><text style="&st18;" transform="matrix(&st16;  2603.9  635.48 )">B-R(LHD)</text><text style="&st18;" transform="matrix(&st16;  2605.45  669.48 )">BR(LHD)</text><text style="&st18;" transform="matrix(&st16;  2554.46  669.48 )">BR(LHD)</text><text style="&st18;" transform="matrix(&st16;  2552.91  635.48 )">B-R(LHD)</text><text ewd:textID="17" style="&st18;" transform="matrix(&st16;  2809.62  227.55 )">Junction Connector</text><text style="&st18;" transform="matrix(&st16;  2809.62  220.44 )">A17</text></svg>