﻿<?xml version="1.0" encoding="utf-8"?>
<!DOCTYPE svg PUBLIC "-//W3C//DTD SVG 1.0//EN" "http://www.w3.org/TR/2001/REC-SVG-20010904/DTD/svg10.dtd"[
	<!ENTITY ns_flows "http://ns.adobe.com/Flows/1.0/">
	<!ENTITY ns_svg "http://www.w3.org/2000/svg">
	<!ENTITY ns_xlink "http://www.w3.org/1999/xlink">
	<!ENTITY st0 "font-size:7px;font-family:'MS-PGothic';adobe-font-script:japanese;">
	<!ENTITY st1 "font-size:6px;font-family:'ArialMT';">
	<!-- White fill  -->
	<!ENTITY st2 "fill:#FFFFFF;stroke:#000000; stroke-width:1.41;stroke-linecap:round;stroke-linejoin:round;">
	<!-- Yellow fill  -->
	<!ENTITY st3 "fill:#FFFFCC;stroke:#FFFFCC; stroke-width:0.1;stroke-linecap:round;stroke-linejoin:round;">
	<!-- Gray fill  -->
	<!ENTITY st4 "fill:#CCCCCC;stroke:#CCCCCC; stroke-width:0.1;stroke-linecap:round;stroke-linejoin:round;">
	<!-- Light-blue fill -->
	<!ENTITY st5 "fill:#CCECF4;stroke:#000000; stroke-width:1.133;stroke-linecap:round;stroke-linejoin:round;">
	<!ENTITY st6 "fill:none;stroke-linecap:butt; stroke-linejoin:round;">
	<!ENTITY st7 "fill:none;stroke:#000000;stroke-linecap:round;stroke-linejoin:round;">
	<!ENTITY st8 "enable-background:new    ;">
	<!-- Black fill -->
	<!ENTITY st9 "fill:#000000;stroke:#000000; stroke-linecap:round;stroke-linejoin:round;">
	<!-- SRS note   -->
	<!ENTITY st10 "font-size:9px;font-family:'ArialMT';">
	<!ENTITY st11 "font-size:9px;font-family:'Svg Symbol';">
	<!ENTITY st12 "font-size:6px;font-family:'Svg Symbol';">
	<!ENTITY st13 "fill:none;stroke:#ff0000;stroke-linecap:round;stroke-linejoin:round;">
	<!-- Yellow fill  -->
	<!ENTITY st14 "fill:#FFFF00;stroke:#FFFF00; stroke-width:0.1;stroke-linecap:round;stroke-linejoin:round;">
	<!ENTITY st15 "font-size:6px;font-family:'MS-PGothic';adobe-font-script:japanese;">
	<!ENTITY st16 "1.00 0.00 0.00 1.00">
	<!ENTITY st17 "0.00 -1.00 1.00 0.00">
	<!ENTITY st18 "font-size:6px;font-family:'Arial';">
	<!ENTITY st19 "font-size:9px;font-family:'Arial';">
	<!ENTITY st20 "font-size:6px;font-family:'MS-PGothic','MS PGothic';adobe-font-script:japanese;">
	<!ENTITY st21 "font-size:7px;font-family:'MS-PGothic','MS PGothic';adobe-font-script:japanese;">
	<!ATTLIST svg
		xmlns:ewd CDATA #FIXED "http://shcl.co.jp/ewd"
		xmlns:a CDATA #FIXED "http://ns.adobe.com/AdobeSVGViewerExtensions/3.0/"
		ewd:ver CDATA #IMPLIED
	>
	<!ATTLIST a
		ewd:lineID CDATA #IMPLIED
		ewd:groupID CDATA #IMPLIED
		ewd:figtype CDATA #IMPLIED
		ewd:code CDATA #IMPLIED
		ewd:figID CDATA #IMPLIED
		ewd:pinNo CDATA #IMPLIED
		ewd:comment CDATA #IMPLIED >
	<!ATTLIST g
		ewd:lineID CDATA #IMPLIED
		ewd:groupID CDATA #IMPLIED
		ewd:figtype CDATA #IMPLIED
		ewd:code CDATA #IMPLIED
		ewd:figID CDATA #IMPLIED
		ewd:pinNo CDATA #IMPLIED
		ewd:comment CDATA #IMPLIED >
	<!ATTLIST text
		ewd:textID CDATA #IMPLIED >
	<!ATTLIST title
		ewd:textID CDATA #IMPLIED >
]>
<!-- Generator: Shintec Hozumi YS   -->
<svg onload="call_execInitLoadProc_svg('system')" style="overflow:visible;  enable-background:new 0 0 6727.789 710.000" viewBox="0 0 6727.789 710.000" height="710.000" width="6727.789" xml:space="preserve" ewd:ver="L2.1.2.9" xmlns="&ns_svg;" xmlns:a="http://ns.adobe.com/AdobeSVGViewerExtensions/3.0/" xmlns:ewd="http://shcl.co.jp/ewd" xmlns:xlink="&ns_xlink;">
<path d=" M   449.30,   331.28  L   456.66,   327.03  " style="stroke-width: 0.85 ;&st7;  " /><path d=" M   450.42,   528.70  L   458.92,   528.70  " style="stroke-width: 1.42 ;&st7;  " /><path d=" M   399.43,   528.70  L   407.93,   528.70  " style="stroke-width: 1.42 ;&st7;  " /><path d=" M    55.22,   323.57  L    47.86,   327.82  " style="stroke-width: 0.85 ;&st7;  " /><path d=" M    46.74,   333.23  L    38.24,   333.23  " style="stroke-width: 0.85 ;&st7;  " /><path d=" M   454.66,   323.57  L   447.30,   327.82  " style="stroke-width: 0.85 ;&st7;  " /><path d=" M   446.18,   333.23  L   437.68,   333.23  " style="stroke-width: 0.85 ;&st7;  " /><path d=" M    46.74,   205.75  L    38.24,   205.75  " style="stroke-width: 0.85 ;&st7;  " /><path d=" M    89.24,   205.75  L    80.74,   205.75  " style="stroke-width: 0.85 ;&st7;  " /><path d=" M   167.42,   326.15  L   175.64,   324.73  " style="stroke-width: 0.85 ;&st7;  " /><path d=" M   167.42,   323.31  L   175.64,   324.73  " style="stroke-width: 0.85 ;&st7;  " /><path d=" M   133.43,   326.15  L   141.64,   324.73  " style="stroke-width: 0.85 ;&st7;  " /><path d=" M   133.43,   323.31  L   141.64,   324.73  " style="stroke-width: 0.85 ;&st7;  " /><path d=" M   235.41,   326.15  L   243.63,   324.73  " style="stroke-width: 0.85 ;&st7;  " /><path d=" M   235.41,   323.31  L   243.63,   324.73  " style="stroke-width: 0.85 ;&st7;  " /><path d=" M   201.42,   326.15  L   209.63,   324.73  " style="stroke-width: 0.85 ;&st7;  " /><path d=" M   201.42,   323.31  L   209.63,   324.73  " style="stroke-width: 0.85 ;&st7;  " /><path d=" M    49.87,   331.28  L    57.23,   327.03  " style="stroke-width: 0.85 ;&st7;  " /><path d=" M    89.24,   333.23  L    80.74,   333.23  " style="stroke-width: 0.85 ;&st7;  " /><path d=" M    97.72,   323.57  L    90.36,   327.82  " style="stroke-width: 0.85 ;&st7;  " /><path d=" M    92.36,   331.28  L    99.72,   327.03  " style="stroke-width: 0.85 ;&st7;  " /><path d=" M    42.49,   129.26  L    37.43,   117.90  " style="stroke-width: 1.42 ;&st7;  " /><path d=" M    42.49,   129.26  L    47.55,   117.90  " style="stroke-width: 1.42 ;&st7;  " /><path d=" M    84.99,   129.26  L    79.93,   117.90  " style="stroke-width: 1.42 ;&st7;  " /><path d=" M    84.99,   129.26  L    90.05,   117.90  " style="stroke-width: 1.42 ;&st7;  " /><path d=" M   135.98,   567.66  L   131.01,   562.69  " style="stroke-width: 1.42 ;&st7;  " /><path d=" M   118.98,   574.72  L   123.95,   579.69  " style="stroke-width: 1.42 ;&st7;  " /><path d=" M   131.01,   579.69  L   135.98,   574.72  " style="stroke-width: 1.42 ;&st7;  " /><path d=" M   123.95,   562.69  L   118.98,   567.66  " style="stroke-width: 1.42 ;&st7;  " /><path d=" M    89.24,   108.02  L    84.99,   103.77  L    65.86,   103.77  L    63.74,    99.52  L    61.61,   103.77  L    42.49,   103.77  L    38.24,   108.02  " style="stroke-width: 0.85 ;&st7;  " /><path d=" M    42.49,   392.72  L    42.49,   324.73  " style="stroke-width: 0.85 ;&st7;  " /><path d=" M    33.99,   392.72  L    50.99,   392.72  " style="stroke-width: 0.85 ;&st7;  " /><path d=" M    38.24,   395.55  L    46.74,   395.55  " style="stroke-width: 0.85 ;&st7;  " /><path d=" M    41.08,   401.22  L    43.91,   401.22  " style="stroke-width: 0.85 ;&st7;  " /><path d=" M    39.66,   398.39  L    45.33,   398.39  " style="stroke-width: 0.85 ;&st7;  " /><path d=" M    99.72,   327.03  L    97.39,   330.08  L    95.92,   327.54  L    99.72,   327.03  L    98.44,   327.78  L    97.46,   329.06  L    96.84,   327.99  L    98.44,   327.78  L    97.80,   328.14  L    97.49,   328.55  L    97.29,   328.21  L    97.80,   328.14  " style="stroke-width: 0.85 ;&st7;  " /><path d=" M    97.72,   323.57  L    95.39,   326.61  L    93.92,   324.07  L    97.72,   323.57  L    96.44,   324.31  L    95.45,   325.59  L    94.83,   324.52  L    96.44,   324.31  L    95.80,   324.68  L    95.48,   325.08  L    95.29,   324.74  L    95.80,   324.68  " style="stroke-width: 0.85 ;&st7;  " /><path d=" M    84.99,   333.23  L    79.32,   324.73  L    90.65,   324.73  L    84.99,   333.23  " style="stroke-width: 0.28 ;&st9;  " /><path d=" M    84.99,   324.73  L    84.99,   316.23  L    82.15,   314.82  L    87.82,   311.98  L    82.15,   309.15  L    87.82,   306.32  L    82.15,   303.48  L    87.82,   300.65  L    84.99,   299.24  L    84.99,   171.76  " style="stroke-width: 0.85 ;&st7;  " /><path d=" M    84.99,   324.73  L    84.99,   367.22  L    42.49,   367.22  " style="stroke-width: 0.85 ;&st7;  " /><path d=" M    57.23,   327.03  L    54.90,   330.08  L    53.43,   327.54  L    57.23,   327.03  L    55.95,   327.78  L    54.96,   329.06  L    54.34,   327.99  L    55.95,   327.78  L    55.31,   328.14  L    54.99,   328.55  L    54.80,   328.21  L    55.31,   328.14  " style="stroke-width: 0.85 ;&st7;  " /><path d=" M    55.23,   323.57  L    52.89,   326.61  L    51.42,   324.07  L    55.23,   323.57  L    53.94,   324.31  L    52.96,   325.59  L    52.34,   324.52  L    53.94,   324.31  L    53.30,   324.68  L    52.99,   325.08  L    52.80,   324.74  L    53.30,   324.68  " style="stroke-width: 0.85 ;&st7;  " /><path d=" M    42.49,   333.23  L    36.83,   324.73  L    48.16,   324.73  L    42.49,   333.23  " style="stroke-width: 0.28 ;&st9;  " /><path d=" M    42.49,   324.73  L    42.49,   316.23  L    39.66,   314.82  L    45.33,   311.98  L    39.66,   309.15  L    45.33,   306.32  L    39.66,   303.48  L    45.33,   300.65  L    42.49,   299.24  L    42.49,   171.76  " style="stroke-width: 0.85 ;&st7;  " /><path d=" M    41.30,   366.22  L    41.03,   366.69  L    40.93,   367.22  L    41.03,   367.76  L    41.30,   368.23  L    41.71,   368.57  L    42.22,   368.76  L    42.76,   368.76  L    43.27,   368.57  L    43.69,   368.23  L    43.96,   367.76  L    44.05,   367.22  L    43.96,   366.69  L    43.69,   366.22  L    43.27,   365.88  L    42.76,   365.69  L    42.22,   365.69  L    41.71,   365.88  L    41.30,   366.22  L    41.69,   366.93  L    41.69,   367.52  L    42.07,   367.96  L    42.64,   368.06  L    43.14,   367.77  L    43.34,   367.22  L    43.14,   366.68  L    42.64,   366.39  L    42.07,   366.49  L    42.49,   367.22  " style="stroke-width: 0.85 ;&st7;  " /><path d=" M   406.74,   221.75  L   406.47,   222.22  L   406.37,   222.75  L   406.47,   223.28  L   406.74,   223.75  L   407.15,   224.10  L   407.66,   224.28  L   408.20,   224.28  L   408.71,   224.10  L   409.12,   223.75  L   409.40,   223.28  L   409.49,   222.75  L   409.40,   222.22  L   409.12,   221.75  L   408.71,   221.40  L   408.20,   221.21  L   407.66,   221.21  L   407.15,   221.40  L   406.74,   221.75  L   407.13,   222.46  L   407.13,   223.04  L   407.51,   223.48  L   408.08,   223.58  L   408.58,   223.30  L   408.78,   222.75  L   408.58,   222.20  L   408.08,   221.91  L   407.51,   222.01  L   407.93,   222.75  " style="stroke-width: 0.85 ;&st7;  " /><path d=" M   237.96,   384.22  L   237.96,   409.72  " style="stroke-width: 0.85 ;&st7;  " /><path d=" M   235.92,   332.98  L   235.92,   358.73  " style="stroke-width: 0.85 ;&st7;  " /><path d=" M   201.92,   332.98  L   201.92,   358.73  " style="stroke-width: 0.85 ;&st7;  " /><path d=" M   231.95,   330.74  L   231.95,   358.73  " style="stroke-width: 0.85 ;&st7;  " /><path d=" M   197.96,   330.74  L   197.96,   358.73  " style="stroke-width: 0.85 ;&st7;  " /><path d=" M   209.97,   330.74  L   209.97,   358.73  " style="stroke-width: 0.85 ;&st7;  " /><path d=" M   205.89,   333.01  L   205.89,   358.73  " style="stroke-width: 0.85 ;&st7;  " /><path d=" M   243.97,   330.74  L   243.97,   358.73  " style="stroke-width: 0.85 ;&st7;  " /><path d=" M   239.88,   333.01  L   239.88,   358.73  " style="stroke-width: 0.85 ;&st7;  " /><path d=" M   167.93,   332.98  L   167.93,   358.73  " style="stroke-width: 0.85 ;&st7;  " /><path d=" M   133.93,   332.98  L   133.93,   358.73  " style="stroke-width: 0.85 ;&st7;  " /><path d=" M   163.96,   330.74  L   163.96,   358.73  " style="stroke-width: 0.85 ;&st7;  " /><path d=" M   129.97,   330.74  L   129.97,   358.73  " style="stroke-width: 0.85 ;&st7;  " /><path d=" M   141.99,   330.74  L   141.99,   358.73  " style="stroke-width: 0.85 ;&st7;  " /><path d=" M   137.90,   333.01  L   137.90,   358.73  " style="stroke-width: 0.85 ;&st7;  " /><path d=" M   175.98,   330.74  L   175.98,   358.73  " style="stroke-width: 0.85 ;&st7;  " /><path d=" M   171.90,   333.01  L   171.90,   358.73  " style="stroke-width: 0.85 ;&st7;  " /><path d=" M   484.42,   435.21  L   484.42,   443.71  " style="stroke-width: 0.85 ;&st7;  " /><path d=" M   475.92,   443.71  L   492.92,   443.71  " style="stroke-width: 0.85 ;&st7;  " /><path d=" M   480.17,   446.54  L   488.67,   446.54  " style="stroke-width: 0.85 ;&st7;  " /><path d=" M   481.59,   449.38  L   487.25,   449.38  " style="stroke-width: 0.85 ;&st7;  " /><path d=" M   483.00,   452.21  L   485.84,   452.21  " style="stroke-width: 0.85 ;&st7;  " /><path d=" M   458.92,   460.71  L   458.92,   426.71  L   484.42,   426.71  L   484.42,   435.21  " style="stroke-width: 0.85 ;&st7;  " /><path d=" M   390.93,   630.68  L   390.93,   664.67  L   475.92,   664.67  L   475.92,   630.68  L   390.93,   630.68  " style="stroke-width: 1.42 ;&st7;  " /><path d=" M   441.93,   324.73  L   441.93,   333.23  " style="stroke-width: 0.85 ;&st7;  " /><path d=" M   441.93,   324.73  L   441.93,   316.23  L   439.09,   314.82  L   444.76,   311.98  L   439.09,   309.15  L   444.76,   306.32  L   439.09,   303.48  L   444.76,   300.65  L   441.93,   299.24  L   441.93,   282.24  " style="stroke-width: 0.85 ;&st7;  " /><path d=" M   441.93,   333.23  L   436.26,   324.73  L   447.59,   324.73  L   441.93,   333.23  " style="stroke-width: 0.28 ;&st9;  " /><path d=" M   454.66,   323.57  L   452.33,   326.61  L   450.86,   324.07  L   454.66,   323.57  L   453.38,   324.31  L   452.39,   325.59  L   451.77,   324.52  L   453.38,   324.31  L   452.74,   324.68  L   452.42,   325.08  L   452.23,   324.74  L   452.74,   324.68  " style="stroke-width: 0.85 ;&st7;  " /><path d=" M   456.66,   327.03  L   454.33,   330.08  L   452.86,   327.54  L   456.66,   327.03  L   455.38,   327.78  L   454.40,   329.06  L   453.78,   327.99  L   455.38,   327.78  L   454.74,   328.14  L   454.43,   328.55  L   454.23,   328.21  L   454.74,   328.14  " style="stroke-width: 0.85 ;&st7;  " /><path d=" M   433.43,   341.73  L   450.42,   341.73  " style="stroke-width: 0.85 ;&st7;  " /><path d=" M   441.93,   333.23  L   441.93,   341.73  " style="stroke-width: 0.85 ;&st7;  " /><path d=" M   439.09,   347.39  L   444.76,   347.39  " style="stroke-width: 0.85 ;&st7;  " /><path d=" M   437.68,   344.56  L   446.18,   344.56  " style="stroke-width: 0.85 ;&st7;  " /><path d=" M   440.51,   350.23  L   443.34,   350.23  " style="stroke-width: 0.85 ;&st7;  " /><path d=" M   127.48,   426.71  L   169.97,   426.71  L   169.97,   460.71  " style="stroke-width: 0.85 ;&st7;  " /><path d=" M   356.94,   239.75  L  2923.51,   239.75  " style="stroke-width: 0.85 ;&st7;  " /><path d=" M   407.93,   222.75  L   407.93,   265.24  " style="stroke-width: 0.85 ;&st7;  " /><path d=" M   390.93,   265.24  L   390.93,   282.24  L   458.92,   282.24  L   458.92,   265.24  L   390.93,   265.24  " style="stroke-width: 1.42 ;&st7;  " /><path d=" M   407.93,   282.24  L   407.93,   358.73  " style="stroke-width: 0.85 ;&st7;  " /><path d=" M   110.48,   358.73  L  2804.53,   358.73  L  2804.53,   384.22  L   110.48,   384.22  L   110.48,   358.73  " style="stroke-width: 1.42 ;&st7;  " /><path d=" M   356.94,   282.24  L   356.94,   358.73  " style="stroke-width: 0.85 ;&st7;  " /><path d=" M   254.96,   265.24  L   254.96,   290.74  L   322.95,   290.74  L   322.95,   265.24  L   254.96,   265.24  " style="stroke-width: 1.42 ;&st7;  " /><path d=" M   407.93,   384.22  L   407.93,   409.72  " style="stroke-width: 0.85 ;&st7;  " /><path d=" M   127.48,   384.22  L   127.48,   460.71  " style="stroke-width: 0.85 ;&st7;  " /><path d=" M   126.29,   425.71  L   126.01,   426.18  L   125.92,   426.71  L   126.01,   427.25  L   126.29,   427.72  L   126.70,   428.06  L   127.21,   428.25  L   127.75,   428.25  L   128.26,   428.06  L   128.67,   427.72  L   128.94,   427.25  L   129.04,   426.71  L   128.94,   426.18  L   128.67,   425.71  L   128.26,   425.37  L   127.75,   425.18  L   127.21,   425.18  L   126.70,   425.37  L   126.29,   425.71  L   126.68,   426.42  L   126.68,   427.01  L   127.05,   427.45  L   127.63,   427.55  L   128.13,   427.26  L   128.33,   426.71  L   128.13,   426.17  L   127.63,   425.88  L   127.05,   425.98  L   127.48,   426.71  " style="stroke-width: 0.85 ;&st7;  " /><path d=" M   339.94,   265.24  L   339.94,   282.24  L   373.94,   282.24  L   373.94,   265.24  L   339.94,   265.24  " style="stroke-width: 1.42 ;&st7;  " /><path d=" M   390.93,   409.72  L   390.93,   426.71  L   424.93,   426.71  L   424.93,   409.72  L   390.93,   409.72  " style="stroke-width: 1.42 ;&st7;  " /><path d=" M   356.94,   239.75  L   356.94,   265.24  " style="stroke-width: 0.85 ;&st7;  " /><path d=" M   288.95,   290.74  L   288.95,   358.73  " style="stroke-width: 0.85 ;&st7;  " /><path d=" M   203.97,   435.21  L   271.95,   435.21  L   271.95,   409.72  L   203.97,   409.72  L   203.97,   435.21  " style="stroke-width: 1.42 ;&st7;  " /><path d=" M   407.93,   426.71  L   407.93,   460.71  " style="stroke-width: 0.85 ;&st7;  " /><path d=" M  3067.99,   460.71  L  3067.99,   401.22  L  3065.15,   399.80  L  3070.82,   396.97  L  3065.15,   394.14  L  3070.82,   391.30  L  3065.15,   388.47  L  3070.82,   385.64  L  3067.99,   384.22  L  3067.99,   222.75  L   288.95,   222.75  L   288.95,   265.24  " style="stroke-width: 0.85 ;&st7;  " /><path d=" M   412.18,   523.03  L   407.93,   527.28  L   403.68,   523.03  " style="stroke-width: 1.42 ;&st7;  " /><path d=" M   403.68,   519.63  L   407.93,   523.88  L   412.18,   519.63  " style="stroke-width: 1.42 ;&st7;  " /><path d=" M   420.37,   541.44  L   437.99,   541.44  " style="stroke-width: 0.85 ;&st7; stroke-dasharray:3, 1.5;" /><path d=" M   420.37,   532.95  L   437.99,   532.95  " style="stroke-width: 0.85 ;&st7; stroke-dasharray:3, 1.5;" /><path d=" M   463.17,   523.03  L   458.92,   527.28  L   454.67,   523.03  " style="stroke-width: 1.42 ;&st7;  " /><path d=" M   454.67,   519.63  L   458.92,   523.88  L   463.17,   519.63  " style="stroke-width: 1.42 ;&st7;  " /><path d=" M   126.06,   710.00  L   128.90,   710.00  " style="stroke-width: 0.85 ;&st7;  " /><path d=" M   124.65,   707.17  L   130.31,   707.17  " style="stroke-width: 0.85 ;&st7;  " /><path d=" M   123.23,   704.33  L   131.73,   704.33  " style="stroke-width: 0.85 ;&st7;  " /><path d=" M   118.98,   701.50  L   135.98,   701.50  " style="stroke-width: 0.85 ;&st7;  " /><path d=" M   127.48,   697.25  L   127.48,   701.50  " style="stroke-width: 0.85 ;&st7;  " /><path d=" M    17.00,   171.76  L    17.00,   460.71  L  3093.48,   460.71  L  3093.48,   171.76  L    17.00,   171.76  " style="stroke-width: 1.42 ;&st7;  " /><path d=" M    42.49,   205.75  L    36.83,   197.25  L    48.16,   197.25  L    42.49,   205.75  " style="stroke-width: 0.28 ;&st9;  " /><path d=" M    84.99,   205.75  L    79.32,   197.25  L    90.65,   197.25  L    84.99,   205.75  " style="stroke-width: 0.28 ;&st9;  " /><path d=" M   163.74,   330.40  C   166.08    329.38    167.53    327.28    167.65    324.73  " style="stroke-width: 0.85 ;&st7;   " /><path d=" M   167.65,   324.73  C   167.52    322.18    166.08    320.09    163.74    319.07  " style="stroke-width: 0.85 ;&st7;   " /><path d=" M   178.47,   324.73  C   178.47    320.04    174.67    316.23    169.97    316.23  " style="stroke-width: 1.42 ;&st7;   " /><path d=" M   169.97,   316.23  C   165.28    316.23    161.47    320.04    161.47    324.73  " style="stroke-width: 1.42 ;&st7;   " /><path d=" M   161.47,   324.73  C   161.47    329.42    165.28    333.23    169.97    333.23  " style="stroke-width: 1.42 ;&st7;   " /><path d=" M   169.97,   333.23  C   174.67    333.23    178.47    329.42    178.47    324.73  " style="stroke-width: 1.42 ;&st7;   " /><path d=" M   129.74,   330.40  C   132.08    329.38    133.53    327.28    133.66    324.73  " style="stroke-width: 0.85 ;&st7;   " /><path d=" M   133.65,   324.73  C   133.53    322.18    132.08    320.09    129.74    319.07  " style="stroke-width: 0.85 ;&st7;   " /><path d=" M   144.48,   324.73  C   144.48    320.04    140.67    316.23    135.98    316.23  " style="stroke-width: 1.42 ;&st7;   " /><path d=" M   135.98,   316.23  C   131.28    316.23    127.48    320.04    127.48    324.73  " style="stroke-width: 1.42 ;&st7;   " /><path d=" M   127.48,   324.73  C   127.48    329.42    131.28    333.23    135.98    333.23  " style="stroke-width: 1.42 ;&st7;   " /><path d=" M   135.98,   333.23  C   140.67    333.23    144.48    329.42    144.48    324.73  " style="stroke-width: 1.42 ;&st7;   " /><path d=" M   231.73,   330.40  C   234.06    329.38    235.51    327.28    235.64    324.73  " style="stroke-width: 0.85 ;&st7;   " /><path d=" M   235.64,   324.73  C   235.51    322.18    234.06    320.09    231.73    319.07  " style="stroke-width: 0.85 ;&st7;   " /><path d=" M   246.46,   324.73  C   246.46    320.04    242.65    316.23    237.96    316.23  " style="stroke-width: 1.42 ;&st7;   " /><path d=" M   237.96,   316.23  C   233.27    316.23    229.46    320.04    229.46    324.73  " style="stroke-width: 1.42 ;&st7;   " /><path d=" M   229.46,   324.73  C   229.46    329.42    233.27    333.23    237.96    333.23  " style="stroke-width: 1.42 ;&st7;   " /><path d=" M   237.96,   333.23  C   242.65    333.23    246.46    329.42    246.46    324.73  " style="stroke-width: 1.42 ;&st7;   " /><path d=" M   197.73,   330.40  C   200.07    329.38    201.52    327.28    201.64    324.73  " style="stroke-width: 0.85 ;&st7;   " /><path d=" M   201.64,   324.73  C   201.52    322.18    200.07    320.09    197.73    319.07  " style="stroke-width: 0.85 ;&st7;   " /><path d=" M   212.46,   324.73  C   212.46    320.04    208.66    316.23    203.97    316.23  " style="stroke-width: 1.42 ;&st7;   " /><path d=" M   203.97,   316.23  C   199.27    316.23    195.47    320.04    195.47    324.73  " style="stroke-width: 1.42 ;&st7;   " /><path d=" M   195.47,   324.73  C   195.47    329.42    199.27    333.23    203.97    333.23  " style="stroke-width: 1.42 ;&st7;   " /><path d=" M   203.97,   333.23  C   208.66    333.23    212.46    329.42    212.46    324.73  " style="stroke-width: 1.42 ;&st7;   " /><text style="&st18;" transform="matrix(&st17;  123.78  499.88 )">B-Y</text><text style="&st18;" transform="matrix(&st16;  467.95  543.41 )">(RHD)</text><text style="&st18;" transform="matrix(&st16;  392.2  534.92 )">19</text><text style="&st18;" transform="matrix(&st16;  392.2  543.41 )">19</text><text style="&st18;" transform="matrix(&st17;  123.78  627.36 )">B-Y</text><text style="&st18;" transform="matrix(&st16;  160.69  468.9 )">20</text><text style="&st18;" transform="matrix(&st17;  166.28  499.88 )">B-Y</text><text style="&st18;" transform="matrix(&st16;  449.64  468.9 )">25</text><text ewd:textID="71" style="&st18;" transform="matrix(&st17;  158.06  340.96 )">Speedometer</text><text ewd:textID="76" style="&st18;" transform="matrix(&st17;  124.07  339.68 )">Tachometer</text><text ewd:textID="77" style="&st18;" transform="matrix(&st17;  226.05  346.74 )">Temperature (*9)</text><text ewd:textID="44" style="&st18;" transform="matrix(&st17;  192.06  336.0 )">Fuel (*9)</text><text ewd:textID="15" style="&st18;" transform="matrix(&st17;  490.64  667.58 )">Ambient Temperature Sensor <tspan dy="6.0" x="0 ">(Thermistor Assembly)</tspan></text><text style="&st18;" transform="matrix(&st16;  443.19  534.92 )">18</text><text style="&st18;" transform="matrix(&st16;  443.19  543.41 )">18</text><text style="&st18;" transform="matrix(&st16;  467.95  534.92 )">(LHD)</text><text ewd:textID="81" style="&st18;" transform="matrix(&st17;  34.55  339.94 )">Turn RH</text><text ewd:textID="80" style="&st18;" transform="matrix(&st17;  77.04  339.9 )">Turn LH</text><text style="&st18;" transform="matrix(&st16;  75.7  168.07 )">22</text><text style="&st18;" transform="matrix(&st16;  33.21  168.07 )">21</text><text ewd:textID="82" style="&st18;" transform="matrix(&st17;  62.88  96.76 )">Turn Signal <tspan dy="6.0" x="0 ">Flasher Assembly</tspan></text><text style="&st18;" transform="matrix(&st17;  38.8  150.08 )">GR</text><text style="&st18;" transform="matrix(&st17;  81.29  152.14 )">W-R</text><text style="&st18;" transform="matrix(&st16;  118.19  468.9 )">40</text><text style="&st18;" transform="matrix(&st16;  352.39  275.71 )">I/F</text><text ewd:textID="30" style="&st18;" transform="matrix(&st16;  222.51  424.43 )">Display (*9)</text><text style="&st18;" transform="matrix(&st16;  403.38  420.18 )">I/F</text><text ewd:textID="63" style="&st18;" transform="matrix(&st16;  271.18  279.96 )">Power Circuit</text><text style="&st18;" transform="matrix(&st17;  455.23  497.17 )">W</text><text style="&st18;" transform="matrix(&st16;  226.05  160.95 )">D7</text><text ewd:textID="26" style="&st18;" transform="matrix(&st16;  226.06  168.06 )">Combination Meter Assembly</text><text style="&st18;" transform="matrix(&st17;  455.23  602.29 )">B-O</text><text style="&st18;" transform="matrix(&st17;  404.24  601.75 )">B-L</text><text style="&st18;" transform="matrix(&st17;  404.24  496.28 )">L</text><text style="&st18;" transform="matrix(&st16;  398.65  468.9 )">24</text><text style="&st18;" transform="matrix(&st16;  452.74  626.99 )">2</text><text style="&st18;" transform="matrix(&st16;  401.75  626.99 )">1</text><text style="&st18;" transform="matrix(&st17;  483.53  667.57 )">A48</text><text ewd:textID="34" style="&st18;" transform="matrix(&st16;  406.84  275.71 )">Driver Circuit</text><text style="&st18;" transform="matrix(&st17;  415.57  500.97 )">(*13)</text><text style="&st18;" transform="matrix(&st17;  466.56  500.97 )">(*13)</text><text style="&st18;" transform="matrix(&st17;  415.57  602.95 )">(*13)</text><text style="&st18;" transform="matrix(&st17;  466.56  602.95 )">(*13)</text><text style="&st18;" transform="matrix(&st16;  299.65  373.44 )">CPU</text><text style="&st18;" transform="matrix(&st16;  45.08  179.95 )">LR</text><text style="&st18;" transform="matrix(&st16;  87.57  179.95 )">LL</text><text style="&st18;" transform="matrix(&st16;  130.06  457.02 )">ES2</text><text style="&st18;" transform="matrix(&st16;  172.55  457.02 )">ES1</text><text style="&st18;" transform="matrix(&st16;  410.51  457.02 )">TAM</text><text style="&st18;" transform="matrix(&st16;  461.51  457.02 )">SG-</text></svg>