﻿<?xml version="1.0" encoding="utf-8"?>
<!DOCTYPE svg PUBLIC "-//W3C//DTD SVG 1.0//EN" "http://www.w3.org/TR/2001/REC-SVG-20010904/DTD/svg10.dtd"[
	<!ENTITY ns_flows "http://ns.adobe.com/Flows/1.0/">
	<!ENTITY ns_svg "http://www.w3.org/2000/svg">
	<!ENTITY ns_xlink "http://www.w3.org/1999/xlink">
	<!ENTITY st0 "font-size:7px;font-family:'MS-PGothic';adobe-font-script:japanese;">
	<!ENTITY st1 "font-size:6px;font-family:'ArialMT';">
	<!-- White fill  -->
	<!ENTITY st2 "fill:#FFFFFF;stroke:#000000; stroke-width:1.41;stroke-linecap:round;stroke-linejoin:round;">
	<!-- Yellow fill  -->
	<!ENTITY st3 "fill:#FFFFCC;stroke:#FFFFCC; stroke-width:0.1;stroke-linecap:round;stroke-linejoin:round;">
	<!-- Gray fill  -->
	<!ENTITY st4 "fill:#CCCCCC;stroke:#CCCCCC; stroke-width:0.1;stroke-linecap:round;stroke-linejoin:round;">
	<!-- Light-blue fill -->
	<!ENTITY st5 "fill:#CCECF4;stroke:#000000; stroke-width:1.133;stroke-linecap:round;stroke-linejoin:round;">
	<!ENTITY st6 "fill:none;stroke-linecap:butt; stroke-linejoin:round;">
	<!ENTITY st7 "fill:none;stroke:#000000;stroke-linecap:round;stroke-linejoin:round;">
	<!ENTITY st8 "enable-background:new    ;">
	<!-- Black fill -->
	<!ENTITY st9 "fill:#000000;stroke:#000000; stroke-linecap:round;stroke-linejoin:round;">
	<!-- SRS note   -->
	<!ENTITY st10 "font-size:9px;font-family:'ArialMT';">
	<!ENTITY st11 "font-size:9px;font-family:'Svg Symbol';">
	<!ENTITY st12 "font-size:6px;font-family:'Svg Symbol';">
	<!ENTITY st13 "fill:none;stroke:#ff0000;stroke-linecap:round;stroke-linejoin:round;">
	<!-- Yellow fill  -->
	<!ENTITY st14 "fill:#FFFF00;stroke:#FFFF00; stroke-width:0.1;stroke-linecap:round;stroke-linejoin:round;">
	<!ENTITY st15 "font-size:6px;font-family:'MS-PGothic';adobe-font-script:japanese;">
	<!ENTITY st16 "1.00 0.00 0.00 1.00">
	<!ENTITY st17 "0.00 -1.00 1.00 0.00">
	<!ENTITY st18 "font-size:6px;font-family:'Arial';">
	<!ENTITY st19 "font-size:9px;font-family:'Arial';">
	<!ENTITY st20 "font-size:6px;font-family:'MS-PGothic','MS PGothic';adobe-font-script:japanese;">
	<!ENTITY st21 "font-size:7px;font-family:'MS-PGothic','MS PGothic';adobe-font-script:japanese;">
	<!ATTLIST svg
		xmlns:ewd CDATA #FIXED "http://shcl.co.jp/ewd"
		xmlns:a CDATA #FIXED "http://ns.adobe.com/AdobeSVGViewerExtensions/3.0/"
		ewd:ver CDATA #IMPLIED
	>
	<!ATTLIST a
		ewd:lineID CDATA #IMPLIED
		ewd:groupID CDATA #IMPLIED
		ewd:figtype CDATA #IMPLIED
		ewd:code CDATA #IMPLIED
		ewd:figID CDATA #IMPLIED
		ewd:pinNo CDATA #IMPLIED
		ewd:comment CDATA #IMPLIED >
	<!ATTLIST g
		ewd:lineID CDATA #IMPLIED
		ewd:groupID CDATA #IMPLIED
		ewd:figtype CDATA #IMPLIED
		ewd:code CDATA #IMPLIED
		ewd:figID CDATA #IMPLIED
		ewd:pinNo CDATA #IMPLIED
		ewd:comment CDATA #IMPLIED >
	<!ATTLIST text
		ewd:textID CDATA #IMPLIED >
	<!ATTLIST title
		ewd:textID CDATA #IMPLIED >
]>
<!-- Generator: Shintec Hozumi YS   -->
<svg onload="call_execInitLoadProc_svg('system')" style="overflow:visible;  enable-background:new 0 0 2575.778 710.000" viewBox="0 0 2575.778 710.000" height="710.000" width="2575.778" xml:space="preserve" ewd:ver="L2.1.2.9" xmlns="&ns_svg;" xmlns:a="http://ns.adobe.com/AdobeSVGViewerExtensions/3.0/" xmlns:ewd="http://shcl.co.jp/ewd" xmlns:xlink="&ns_xlink;">
<path d=" M  2551.70,   112.27  L  2547.45,   112.27  " style="stroke-width: 1.42 ;&st7;  " /><path d=" M  2551.70,   120.77  L  2547.45,   120.77  " style="stroke-width: 1.42 ;&st7;  " /><path d=" M  2504.82,   454.51  L  2502.49,   457.56  L  2501.02,   455.01  L  2504.82,   454.51  L  2503.54,   455.26  L  2502.55,   456.54  L  2501.93,   455.46  L  2503.54,   455.26  L  2502.90,   455.62  L  2502.58,   456.03  L  2502.39,   455.69  L  2502.90,   455.62  " style="stroke-width: 0.85 ;&st7;  " /><path d=" M  2549.57,   107.37  L  2546.74,   104.54  L  2546.74,   108.79  L  2549.57,   111.62  L  2552.41,   108.79  L  2552.41,   104.54  L  2549.57,   107.37  " style="stroke-width: 0.28 ;&st9;  " /><path d=" M  2549.57,   112.27  L  2549.57,    86.77  " style="stroke-width: 0.85 ;&st7;  " /><path d=" M  2547.45,   112.27  C  2545.10    112.27   2543.20    114.17   2543.20    116.52  " style="stroke-width: 1.42 ;&st7;   " /><path d=" M  2543.20,   116.52  C  2543.20    118.86   2545.10    120.77   2547.45    120.77  " style="stroke-width: 1.42 ;&st7;   " /><path d=" M  2551.70,   120.77  C  2554.05    120.77   2555.95    118.86   2555.95    116.52  " style="stroke-width: 1.42 ;&st7;   " /><path d=" M  2555.95,   116.52  C  2555.95    114.17   2554.05    112.27   2551.70    112.27  " style="stroke-width: 1.42 ;&st7;   " /><text style="&st18;" transform="matrix(&st17;  2545.88  156.56 )">V</text><text style="&st18;" transform="matrix(&st16;  2545.83  118.49 )">3B</text><text style="&st18;" transform="matrix(&st16;  2535.97  118.49 )">22</text><text style="&st18;" transform="matrix(&st16;  2540.29  261.55 )">18</text><text style="&st18;" transform="matrix(&st16;  2540.29  94.96 )">27</text><text style="&st18;" transform="matrix(&st16;  2552.16  273.43 )">IND</text><text style="&st18;" transform="matrix(&st16;  2544.25  83.07 )">IND</text></svg>