﻿<?xml version="1.0" encoding="utf-8"?>
<!DOCTYPE svg PUBLIC "-//W3C//DTD SVG 1.0//EN" "http://www.w3.org/TR/2001/REC-SVG-20010904/DTD/svg10.dtd"[
	<!ENTITY ns_flows "http://ns.adobe.com/Flows/1.0/">
	<!ENTITY ns_svg "http://www.w3.org/2000/svg">
	<!ENTITY ns_xlink "http://www.w3.org/1999/xlink">
	<!ENTITY st0 "font-size:7px;font-family:'MS-PGothic';adobe-font-script:japanese;">
	<!ENTITY st1 "font-size:6px;font-family:'ArialMT';">
	<!-- White fill  -->
	<!ENTITY st2 "fill:#FFFFFF;stroke:#000000; stroke-width:1.41;stroke-linecap:round;stroke-linejoin:round;">
	<!-- Yellow fill  -->
	<!ENTITY st3 "fill:#FFFFCC;stroke:#FFFFCC; stroke-width:0.1;stroke-linecap:round;stroke-linejoin:round;">
	<!-- Gray fill  -->
	<!ENTITY st4 "fill:#CCCCCC;stroke:#CCCCCC; stroke-width:0.1;stroke-linecap:round;stroke-linejoin:round;">
	<!-- Light-blue fill -->
	<!ENTITY st5 "fill:#CCECF4;stroke:#000000; stroke-width:1.133;stroke-linecap:round;stroke-linejoin:round;">
	<!ENTITY st6 "fill:none;stroke-linecap:butt; stroke-linejoin:round;">
	<!ENTITY st7 "fill:none;stroke:#000000;stroke-linecap:round;stroke-linejoin:round;">
	<!ENTITY st8 "enable-background:new    ;">
	<!-- Black fill -->
	<!ENTITY st9 "fill:#000000;stroke:#000000; stroke-linecap:round;stroke-linejoin:round;">
	<!-- SRS note   -->
	<!ENTITY st10 "font-size:9px;font-family:'ArialMT';">
	<!ENTITY st11 "font-size:9px;font-family:'Svg Symbol';">
	<!ENTITY st12 "font-size:6px;font-family:'Svg Symbol';">
	<!ENTITY st13 "fill:none;stroke:#ff0000;stroke-linecap:round;stroke-linejoin:round;">
	<!-- Yellow fill  -->
	<!ENTITY st14 "fill:#FFFF00;stroke:#FFFF00; stroke-width:0.1;stroke-linecap:round;stroke-linejoin:round;">
	<!ENTITY st15 "font-size:6px;font-family:'MS-PGothic';adobe-font-script:japanese;">
	<!ENTITY st16 "1.00 0.00 0.00 1.00">
	<!ENTITY st17 "0.00 -1.00 1.00 0.00">
	<!ENTITY st18 "font-size:6px;font-family:'Arial';">
	<!ENTITY st19 "font-size:9px;font-family:'Arial';">
	<!ENTITY st20 "font-size:6px;font-family:'MS-PGothic','MS PGothic';adobe-font-script:japanese;">
	<!ENTITY st21 "font-size:7px;font-family:'MS-PGothic','MS PGothic';adobe-font-script:japanese;">
	<!ATTLIST svg
		xmlns:ewd CDATA #FIXED "http://shcl.co.jp/ewd"
		xmlns:a CDATA #FIXED "http://ns.adobe.com/AdobeSVGViewerExtensions/3.0/"
		ewd:ver CDATA #IMPLIED
	>
	<!ATTLIST a
		ewd:lineID CDATA #IMPLIED
		ewd:groupID CDATA #IMPLIED
		ewd:figtype CDATA #IMPLIED
		ewd:code CDATA #IMPLIED
		ewd:figID CDATA #IMPLIED
		ewd:pinNo CDATA #IMPLIED
		ewd:comment CDATA #IMPLIED >
	<!ATTLIST g
		ewd:lineID CDATA #IMPLIED
		ewd:groupID CDATA #IMPLIED
		ewd:figtype CDATA #IMPLIED
		ewd:code CDATA #IMPLIED
		ewd:figID CDATA #IMPLIED
		ewd:pinNo CDATA #IMPLIED
		ewd:comment CDATA #IMPLIED >
	<!ATTLIST text
		ewd:textID CDATA #IMPLIED >
	<!ATTLIST title
		ewd:textID CDATA #IMPLIED >
]>
<!-- Generator: Shintec Hozumi YS   -->
<svg onload="call_execInitLoadProc_svg('system')" style="overflow:visible;  enable-background:new 0 0 4131.018 710.000" viewBox="0 0 4131.018 710.000" height="710.000" width="4131.018" xml:space="preserve" ewd:ver="L2.1.2.9" xmlns="&ns_svg;" xmlns:a="http://ns.adobe.com/AdobeSVGViewerExtensions/3.0/" xmlns:ewd="http://shcl.co.jp/ewd" xmlns:xlink="&ns_xlink;">
<path d=" M   826.49,   146.26  L   822.24,   146.26  " style="stroke-width: 1.42 ;&st7;  " /><path d=" M   767.00,   146.26  L   762.75,   146.26  " style="stroke-width: 1.42 ;&st7;  " /><path d=" M   648.02,   154.76  L   643.77,   154.76  " style="stroke-width: 1.42 ;&st7;  " /><path d=" M   648.02,   146.26  L   643.77,   146.26  " style="stroke-width: 1.42 ;&st7;  " /><path d=" M   832.86,   372.20  L   827.89,   367.22  " style="stroke-width: 1.42 ;&st7;  " /><path d=" M   815.86,   379.25  L   820.83,   384.22  " style="stroke-width: 1.42 ;&st7;  " /><path d=" M   827.89,   384.22  L   832.86,   379.25  " style="stroke-width: 1.42 ;&st7;  " /><path d=" M   820.83,   367.22  L   815.86,   372.20  " style="stroke-width: 1.42 ;&st7;  " /><path d=" M   707.51,   154.76  L   703.26,   154.76  " style="stroke-width: 1.42 ;&st7;  " /><path d=" M   767.00,   154.76  L   762.75,   154.76  " style="stroke-width: 1.42 ;&st7;  " /><path d=" M   707.51,   146.26  L   703.26,   146.26  " style="stroke-width: 1.42 ;&st7;  " /><path d=" M   826.49,   154.76  L   822.24,   154.76  " style="stroke-width: 1.42 ;&st7;  " /><path d=" M   705.38,   214.25  L   705.38,   239.75  " style="stroke-width: 0.85 ;&st7;  " /><path d=" M   696.88,   231.25  L   713.88,   231.25  " style="stroke-width: 1.13 ;&st7; stroke-dasharray:3, 3;" /><path d=" M   696.88,   214.25  L   696.88,   239.75  L   713.88,   239.75  L   713.88,   214.25  L   696.88,   214.25  " style="stroke-width: 1.42 ;&st7;  " /><path d=" M   696.88,   222.75  L   713.88,   222.75  " style="stroke-width: 1.13 ;&st7; stroke-dasharray:3, 3;" /><path d=" M   705.38,   146.26  L   705.38,    86.77  " style="stroke-width: 0.85 ;&st7;  " /><path d=" M   645.89,   146.26  L   645.89,    86.77  " style="stroke-width: 0.85 ;&st7;  " /><path d=" M   705.38,   141.37  L   702.55,   138.53  L   702.55,   142.78  L   705.38,   145.62  L   708.21,   142.78  L   708.21,   138.53  L   705.38,   141.37  " style="stroke-width: 0.28 ;&st9;  " /><path d=" M   645.89,   141.37  L   643.06,   138.53  L   643.06,   142.78  L   645.89,   145.62  L   648.72,   142.78  L   648.72,   138.53  L   645.89,   141.37  " style="stroke-width: 0.28 ;&st9;  " /><path d=" M   764.87,   141.37  L   762.04,   138.53  L   762.04,   142.78  L   764.87,   145.62  L   767.70,   142.78  L   767.70,   138.53  L   764.87,   141.37  " style="stroke-width: 0.28 ;&st9;  " /><path d=" M   764.87,    86.77  L   764.87,   146.26  " style="stroke-width: 0.85 ;&st7;  " /><path d=" M   968.84,   222.75  L   968.84,   239.75  L   985.83,   239.75  L   985.83,   222.75  L   968.84,   222.75  " style="stroke-width: 1.42 ;&st7;  " /><path d=" M   977.34,   222.75  L   977.34,   239.75  " style="stroke-width: 0.85 ;&st7;  " /><path d=" M   975.92,   710.00  L   978.75,   710.00  " style="stroke-width: 0.85 ;&st7;  " /><path d=" M   974.50,   707.17  L   980.17,   707.17  " style="stroke-width: 0.85 ;&st7;  " /><path d=" M   973.09,   704.33  L   981.59,   704.33  " style="stroke-width: 0.85 ;&st7;  " /><path d=" M   968.84,   701.50  L   985.83,   701.50  " style="stroke-width: 0.85 ;&st7;  " /><path d=" M   977.34,   697.25  L   977.34,   701.50  " style="stroke-width: 0.85 ;&st7;  " /><path d=" M   824.36,   141.37  L   821.53,   138.53  L   821.53,   142.78  L   824.36,   145.62  L   827.19,   142.78  L   827.19,   138.53  L   824.36,   141.37  " style="stroke-width: 0.28 ;&st9;  " /><path d=" M   824.36,   146.26  L   824.36,    86.77  " style="stroke-width: 0.85 ;&st7;  " /><path d=" M   892.35,   222.75  L   909.35,   222.75  " style="stroke-width: 1.13 ;&st7; stroke-dasharray:3, 3;" /><path d=" M   892.35,   214.25  L   892.35,   239.75  L   909.35,   239.75  L   909.35,   214.25  L   892.35,   214.25  " style="stroke-width: 1.42 ;&st7;  " /><path d=" M   892.35,   231.25  L   909.35,   231.25  " style="stroke-width: 1.13 ;&st7; stroke-dasharray:3, 3;" /><path d=" M   900.85,   214.25  L   900.85,   239.75  " style="stroke-width: 0.85 ;&st7;  " /><path d=" M   822.95,   710.00  L   825.78,   710.00  " style="stroke-width: 0.85 ;&st7;  " /><path d=" M   821.53,   707.17  L   827.19,   707.17  " style="stroke-width: 0.85 ;&st7;  " /><path d=" M   820.11,   704.33  L   828.61,   704.33  " style="stroke-width: 0.85 ;&st7;  " /><path d=" M   815.86,   701.50  L   832.86,   701.50  " style="stroke-width: 0.85 ;&st7;  " /><path d=" M   824.36,   697.25  L   824.36,   701.50  " style="stroke-width: 0.85 ;&st7;  " /><path d=" M   899.43,   710.00  L   902.27,   710.00  " style="stroke-width: 0.85 ;&st7;  " /><path d=" M   898.02,   707.17  L   903.68,   707.17  " style="stroke-width: 0.85 ;&st7;  " /><path d=" M   896.60,   704.33  L   905.10,   704.33  " style="stroke-width: 0.85 ;&st7;  " /><path d=" M   892.35,   701.50  L   909.35,   701.50  " style="stroke-width: 0.85 ;&st7;  " /><path d=" M   900.85,   697.25  L   900.85,   701.50  " style="stroke-width: 0.85 ;&st7;  " /><path d=" M   905.38,   209.72  C   905.38    207.21    903.35    205.18    900.85    205.18  " style="stroke-width: 1.42 ;&st7;   " /><path d=" M   900.85,   205.18  C   898.35    205.18    896.32    207.21    896.32    209.72  " style="stroke-width: 1.42 ;&st7;   " /><path d=" M   896.32,   209.72  C   896.32    212.22    898.35    214.25    900.85    214.25  " style="stroke-width: 1.42 ;&st7;   " /><path d=" M   900.85,   214.25  C   903.35    214.25    905.38    212.22    905.38    209.72  " style="stroke-width: 1.42 ;&st7;   " /><path d=" M   905.38,   244.28  C   905.38    241.77    903.35    239.75    900.85    239.75  " style="stroke-width: 1.42 ;&st7;   " /><path d=" M   900.85,   239.75  C   898.35    239.75    896.32    241.77    896.32    244.28  " style="stroke-width: 1.42 ;&st7;   " /><path d=" M   896.32,   244.28  C   896.32    246.78    898.35    248.81    900.85    248.81  " style="stroke-width: 1.42 ;&st7;   " /><path d=" M   900.85,   248.81  C   903.35    248.81    905.38    246.78    905.38    244.28  " style="stroke-width: 1.42 ;&st7;   " /><path d=" M   830.74,   150.51  C   830.74    148.16    828.83    146.26    826.49    146.26  " style="stroke-width: 1.42 ;&st7;   " /><path d=" M   826.49,   154.76  C   828.83    154.76    830.74    152.86    830.74    150.51  " style="stroke-width: 1.42 ;&st7;   " /><path d=" M   817.99,   150.51  C   817.99    152.86    819.89    154.76    822.24    154.76  " style="stroke-width: 1.42 ;&st7;   " /><path d=" M   822.24,   146.26  C   819.89    146.26    817.99    148.16    817.99    150.51  " style="stroke-width: 1.42 ;&st7;   " /><path d=" M   981.87,    91.30  C   981.87     88.80    979.84     86.77    977.34     86.77  " style="stroke-width: 1.42 ;&st7;   " /><path d=" M   977.34,    86.77  C   974.83     86.77    972.80     88.80    972.80     91.30  " style="stroke-width: 1.42 ;&st7;   " /><path d=" M   972.80,    91.30  C   972.80     93.81    974.83     95.84    977.34     95.84  " style="stroke-width: 1.42 ;&st7;   " /><path d=" M   977.34,    95.84  C   979.84     95.84    981.87     93.81    981.87     91.30  " style="stroke-width: 1.42 ;&st7;   " /><path d=" M   981.87,   218.22  C   981.87    215.71    979.84    213.68    977.34    213.68  " style="stroke-width: 1.42 ;&st7;   " /><path d=" M   977.34,   213.68  C   974.83    213.68    972.80    215.71    972.80    218.22  " style="stroke-width: 1.42 ;&st7;   " /><path d=" M   972.80,   218.22  C   972.80    220.72    974.83    222.75    977.34    222.75  " style="stroke-width: 1.42 ;&st7;   " /><path d=" M   977.34,   222.75  C   979.84    222.75    981.87    220.72    981.87    218.22  " style="stroke-width: 1.42 ;&st7;   " /><path d=" M   981.87,   244.28  C   981.87    241.77    979.84    239.75    977.34    239.75  " style="stroke-width: 1.42 ;&st7;   " /><path d=" M   977.34,   239.75  C   974.83    239.75    972.80    241.77    972.80    244.28  " style="stroke-width: 1.42 ;&st7;   " /><path d=" M   972.80,   244.28  C   972.80    246.78    974.83    248.81    977.34    248.81  " style="stroke-width: 1.42 ;&st7;   " /><path d=" M   977.34,   248.81  C   979.84    248.81    981.87    246.78    981.87    244.28  " style="stroke-width: 1.42 ;&st7;   " /><path d=" M   590.93,    91.30  C   590.93     88.80    588.91     86.77    586.40     86.77  " style="stroke-width: 1.42 ;&st7;   " /><path d=" M   586.40,    86.77  C   583.90     86.77    581.87     88.80    581.87     91.30  " style="stroke-width: 1.42 ;&st7;   " /><path d=" M   581.87,    91.30  C   581.87     93.81    583.90     95.84    586.40     95.84  " style="stroke-width: 1.42 ;&st7;   " /><path d=" M   586.40,    95.84  C   588.91     95.84    590.93     93.81    590.93     91.30  " style="stroke-width: 1.42 ;&st7;   " /><path d=" M   643.77,   146.26  C   641.42    146.26    639.52    148.16    639.52    150.51  " style="stroke-width: 1.42 ;&st7;   " /><path d=" M   639.52,   150.51  C   639.52    152.86    641.42    154.76    643.77    154.76  " style="stroke-width: 1.42 ;&st7;   " /><path d=" M   648.02,   154.76  C   650.36    154.76    652.27    152.86    652.27    150.51  " style="stroke-width: 1.42 ;&st7;   " /><path d=" M   652.27,   150.51  C   652.27    148.16    650.36    146.26    648.02    146.26  " style="stroke-width: 1.42 ;&st7;   " /><path d=" M   709.91,   209.72  C   709.91    207.21    707.89    205.18    705.38    205.18  " style="stroke-width: 1.42 ;&st7;   " /><path d=" M   705.38,   205.18  C   702.88    205.18    700.85    207.21    700.85    209.72  " style="stroke-width: 1.42 ;&st7;   " /><path d=" M   700.85,   209.72  C   700.85    212.22    702.88    214.25    705.38    214.25  " style="stroke-width: 1.42 ;&st7;   " /><path d=" M   705.38,   214.25  C   707.89    214.25    709.91    212.22    709.91    209.72  " style="stroke-width: 1.42 ;&st7;   " /><path d=" M   709.91,   244.28  C   709.91    241.77    707.89    239.75    705.38    239.75  " style="stroke-width: 1.42 ;&st7;   " /><path d=" M   705.38,   239.75  C   702.88    239.75    700.85    241.77    700.85    244.28  " style="stroke-width: 1.42 ;&st7;   " /><path d=" M   700.85,   244.28  C   700.85    246.78    702.88    248.81    705.38    248.81  " style="stroke-width: 1.42 ;&st7;   " /><path d=" M   705.38,   248.81  C   707.89    248.81    709.91    246.78    709.91    244.28  " style="stroke-width: 1.42 ;&st7;   " /><path d=" M   711.76,   150.51  C   711.76    148.16    709.85    146.26    707.51    146.26  " style="stroke-width: 1.42 ;&st7;   " /><path d=" M   707.51,   154.76  C   709.85    154.76    711.76    152.86    711.76    150.51  " style="stroke-width: 1.42 ;&st7;   " /><path d=" M   699.01,   150.51  C   699.01    152.86    700.91    154.76    703.26    154.76  " style="stroke-width: 1.42 ;&st7;   " /><path d=" M   703.26,   146.26  C   700.91    146.26    699.01    148.16    699.01    150.51  " style="stroke-width: 1.42 ;&st7;   " /><path d=" M   762.75,   146.26  C   760.40    146.26    758.50    148.16    758.50    150.51  " style="stroke-width: 1.42 ;&st7;   " /><path d=" M   758.50,   150.51  C   758.50    152.86    760.40    154.76    762.75    154.76  " style="stroke-width: 1.42 ;&st7;   " /><path d=" M   767.00,   154.76  C   769.34    154.76    771.25    152.86    771.25    150.51  " style="stroke-width: 1.42 ;&st7;   " /><path d=" M   771.25,   150.51  C   771.25    148.16    769.34    146.26    767.00    146.26  " style="stroke-width: 1.42 ;&st7;   " /><path d=" M   905.38,    91.30  C   905.38     88.80    903.35     86.77    900.85     86.77  " style="stroke-width: 1.42 ;&st7;   " /><path d=" M   900.85,    86.77  C   898.35     86.77    896.32     88.80    896.32     91.30  " style="stroke-width: 1.42 ;&st7;   " /><path d=" M   896.32,    91.30  C   896.32     93.81    898.35     95.84    900.85     95.84  " style="stroke-width: 1.42 ;&st7;   " /><path d=" M   900.85,    95.84  C   903.35     95.84    905.38     93.81    905.38     91.30  " style="stroke-width: 1.42 ;&st7;   " /><text style="&st18;" transform="matrix(&st16;  761.46  24.98 )">A73(A),D5(B),D6(C)</text><text ewd:textID="13" style="&st18;" transform="matrix(&st16;  761.47  32.08 )">Main Body ECU</text><text style="&st18;" transform="matrix(&st16;  754.37  152.48 )">7</text><text style="&st18;" transform="matrix(&st16;  703.19  246.25 )">B</text><text style="&st18;" transform="matrix(&st16;  758.69  94.96 )">2</text><text style="&st18;" transform="matrix(&st16;  538.04  312.54 )">G-R</text><text style="&st18;" transform="matrix(&st17;  594.04  184.97 )">(*2)</text><text style="&st18;" transform="matrix(&st16;  691.77  152.48 )">27</text><text style="&st18;" transform="matrix(&st16;  701.53  152.48 )">3A</text><text style="&st18;" transform="matrix(&st16;  632.28  152.48 )">19</text><text style="&st18;" transform="matrix(&st16;  641.92  152.48 )">3C</text><text style="&st18;" transform="matrix(&st16;  538.43  287.04 )">L-R</text><text style="&st18;" transform="matrix(&st16;  538.7  264.38 )">(*2)</text><text style="&st18;" transform="matrix(&st16;  699.2  94.96 )">1</text><text style="&st18;" transform="matrix(&st16;  540.95  253.05 )">W</text><text style="&st18;" transform="matrix(&st16;  541.45  338.03 )">G</text><text style="&st18;" transform="matrix(&st17;  761.18  182.22 )">G</text><text style="&st18;" transform="matrix(&st16;  703.08  211.69 )">A</text><text style="&st18;" transform="matrix(&st16;  760.9  152.48 )">3C</text><text style="&st18;" transform="matrix(&st16;  574.61  93.27 )">22</text><text style="&st18;" transform="matrix(&st16;  693.59  211.69 )">21</text><text ewd:textID="9" style="&st18;" transform="matrix(&st17;  728.6  242.65 )">Junction Connector</text><text style="&st18;" transform="matrix(&st17;  701.69  185.63 )">G-R</text><text style="&st18;" transform="matrix(&st17;  701.69  287.61 )">G-R</text><text style="&st18;" transform="matrix(&st16;  693.59  246.25 )">12</text><text style="&st18;" transform="matrix(&st17;  642.2  185.24 )">L-R</text><text style="&st18;" transform="matrix(&st17;  721.49  242.64 )">D16(A),D17(B)</text><text style="&st18;" transform="matrix(&st16;  975.03  220.18 )">A</text><text style="&st18;" transform="matrix(&st17;  993.45  242.64 )">A9(A)</text><text style="&st18;" transform="matrix(&st16;  968.64  220.18 )">9</text><text style="&st18;" transform="matrix(&st16;  975.03  246.25 )">A</text><text style="&st18;" transform="matrix(&st16;  968.64  246.25 )">7</text><text style="&st18;" transform="matrix(&st17;  973.64  436.14 )">B-Y</text><text style="&st18;" transform="matrix(&st17;  973.64  151.44 )">B-Y</text><text style="&st18;" transform="matrix(&st16;  975.03  93.27 )">A</text><text style="&st18;" transform="matrix(&st16;  968.64  93.27 )">4</text><text style="&st18;" transform="matrix(&st16;  820.62  152.48 )">3B</text><text style="&st18;" transform="matrix(&st16;  810.75  152.48 )">18</text><text style="&st18;" transform="matrix(&st16;  815.08  94.96 )">11</text><text style="&st18;" transform="matrix(&st16;  898.54  211.69 )">A</text><text style="&st18;" transform="matrix(&st17;  916.96  242.64 )">D8(A),D9(B)</text><text style="&st18;" transform="matrix(&st17;  820.67  436.14 )">B-Y</text><text style="&st18;" transform="matrix(&st17;  820.67  185.43 )">B-Y</text><text style="&st18;" transform="matrix(&st16;  892.16  211.69 )">4</text><text style="&st18;" transform="matrix(&st16;  898.66  246.25 )">B</text><text style="&st18;" transform="matrix(&st16;  892.16  246.25 )">6</text><text style="&st18;" transform="matrix(&st17;  897.15  436.14 )">B-Y</text><text ewd:textID="9" style="&st18;" transform="matrix(&st17;  924.07  242.65 )">Junction Connector</text><text style="&st18;" transform="matrix(&st17;  897.15  147.95 )">B</text><text style="&st18;" transform="matrix(&st16;  898.43  93.27 )">C</text><text style="&st18;" transform="matrix(&st16;  892.16  93.27 )">1</text><text style="&st18;" transform="matrix(&st16;  584.21  93.27 )">B</text><text style="&st18;" transform="matrix(&st17;  582.71  182.72 )">W</text><text style="&st18;" transform="matrix(&st16;  636.61  94.96 )">32</text><text style="&st18;" transform="matrix(&st16;  817.71  83.07 )">GND</text><text style="&st18;" transform="matrix(&st16;  970.69  83.07 )">GND</text><text style="&st18;" transform="matrix(&st16;  574.79  83.07 )">ACC(*2)</text><text style="&st18;" transform="matrix(&st16;  637.42  83.07 )">BMPX</text><text style="&st18;" transform="matrix(&st16;  697.03  83.07 )">BECU</text><text style="&st18;" transform="matrix(&st16;  756.36  83.07 )">KSWB</text><text style="&st18;" transform="matrix(&st16;  894.2  83.07 )">GND</text></svg>