﻿<?xml version="1.0" encoding="utf-8"?>
<!DOCTYPE svg PUBLIC "-//W3C//DTD SVG 1.0//EN" "http://www.w3.org/TR/2001/REC-SVG-20010904/DTD/svg10.dtd"[
	<!ENTITY ns_flows "http://ns.adobe.com/Flows/1.0/">
	<!ENTITY ns_svg "http://www.w3.org/2000/svg">
	<!ENTITY ns_xlink "http://www.w3.org/1999/xlink">
	<!ENTITY st0 "font-size:7px;font-family:'MS-PGothic';adobe-font-script:japanese;">
	<!ENTITY st1 "font-size:6px;font-family:'ArialMT';">
	<!-- White fill  -->
	<!ENTITY st2 "fill:#FFFFFF;stroke:#000000; stroke-width:1.41;stroke-linecap:round;stroke-linejoin:round;">
	<!-- Yellow fill  -->
	<!ENTITY st3 "fill:#FFFFCC;stroke:#FFFFCC; stroke-width:0.1;stroke-linecap:round;stroke-linejoin:round;">
	<!-- Gray fill  -->
	<!ENTITY st4 "fill:#CCCCCC;stroke:#CCCCCC; stroke-width:0.1;stroke-linecap:round;stroke-linejoin:round;">
	<!-- Light-blue fill -->
	<!ENTITY st5 "fill:#CCECF4;stroke:#000000; stroke-width:1.133;stroke-linecap:round;stroke-linejoin:round;">
	<!ENTITY st6 "fill:none;stroke-linecap:butt; stroke-linejoin:round;">
	<!ENTITY st7 "fill:none;stroke:#000000;stroke-linecap:round;stroke-linejoin:round;">
	<!ENTITY st8 "enable-background:new    ;">
	<!-- Black fill -->
	<!ENTITY st9 "fill:#000000;stroke:#000000; stroke-linecap:round;stroke-linejoin:round;">
	<!-- SRS note   -->
	<!ENTITY st10 "font-size:9px;font-family:'ArialMT';">
	<!ENTITY st11 "font-size:9px;font-family:'Svg Symbol';">
	<!ENTITY st12 "font-size:6px;font-family:'Svg Symbol';">
	<!ENTITY st13 "fill:none;stroke:#ff0000;stroke-linecap:round;stroke-linejoin:round;">
	<!-- Yellow fill  -->
	<!ENTITY st14 "fill:#FFFF00;stroke:#FFFF00; stroke-width:0.1;stroke-linecap:round;stroke-linejoin:round;">
	<!ENTITY st15 "font-size:6px;font-family:'MS-PGothic';adobe-font-script:japanese;">
	<!ENTITY st16 "1.00 0.00 0.00 1.00">
	<!ENTITY st17 "0.00 -1.00 1.00 0.00">
	<!ENTITY st18 "font-size:6px;font-family:'Arial';">
	<!ENTITY st19 "font-size:9px;font-family:'Arial';">
	<!ENTITY st20 "font-size:6px;font-family:'MS-PGothic','MS PGothic';adobe-font-script:japanese;">
	<!ENTITY st21 "font-size:7px;font-family:'MS-PGothic','MS PGothic';adobe-font-script:japanese;">
	<!ATTLIST svg
		xmlns:ewd CDATA #FIXED "http://shcl.co.jp/ewd"
		xmlns:a CDATA #FIXED "http://ns.adobe.com/AdobeSVGViewerExtensions/3.0/"
		ewd:ver CDATA #IMPLIED
	>
	<!ATTLIST a
		ewd:lineID CDATA #IMPLIED
		ewd:groupID CDATA #IMPLIED
		ewd:figtype CDATA #IMPLIED
		ewd:code CDATA #IMPLIED
		ewd:figID CDATA #IMPLIED
		ewd:pinNo CDATA #IMPLIED
		ewd:comment CDATA #IMPLIED >
	<!ATTLIST g
		ewd:lineID CDATA #IMPLIED
		ewd:groupID CDATA #IMPLIED
		ewd:figtype CDATA #IMPLIED
		ewd:code CDATA #IMPLIED
		ewd:figID CDATA #IMPLIED
		ewd:pinNo CDATA #IMPLIED
		ewd:comment CDATA #IMPLIED >
	<!ATTLIST text
		ewd:textID CDATA #IMPLIED >
	<!ATTLIST title
		ewd:textID CDATA #IMPLIED >
]>
<!-- Generator: Shintec Hozumi YS   -->
<svg onload="call_execInitLoadProc_svg('system')" style="overflow:visible;  enable-background:new 0 0 3601.981 710.000" viewBox="0 0 3601.981 710.000" height="710.000" width="3601.981" xml:space="preserve" ewd:ver="L2.1.2.9" xmlns="&ns_svg;" xmlns:a="http://ns.adobe.com/AdobeSVGViewerExtensions/3.0/" xmlns:ewd="http://shcl.co.jp/ewd" xmlns:xlink="&ns_xlink;">
<path d=" M  2134.56,   129.26  L  2111.90,   134.93  " style="stroke-width: 1.42 ;&st7;  " /><path d=" M  2141.64,   129.26  L  2137.39,   129.26  " style="stroke-width: 0.85 ;&st7;  " /><path d=" M  2111.90,   129.26  L  2107.65,   129.26  " style="stroke-width: 0.85 ;&st7;  " /><path d=" M  2107.65,   103.77  L  2116.15,   103.77  " style="stroke-width: 0.85 ;&st7;  " /><path d=" M  2133.14,   103.77  L  2141.64,   103.77  " style="stroke-width: 0.85 ;&st7;  " /><path d=" M  2209.63,    86.77  L  2201.13,    86.77  " style="stroke-width: 0.85 ;&st7;  " /><path d=" M  2026.91,    40.03  L  2022.66,    40.03  " style="stroke-width: 1.42 ;&st7;  " /><path d=" M  2026.91,    48.53  L  2022.66,    48.53  " style="stroke-width: 1.42 ;&st7;  " /><path d=" M  2209.63,   129.26  L  2201.13,   129.26  " style="stroke-width: 0.85 ;&st7;  " /><path d=" M  2209.63,   350.23  L  2201.13,   350.23  " style="stroke-width: 0.85 ;&st7;  " /><path d=" M  2209.63,   282.24  L  2201.13,   282.24  " style="stroke-width: 0.85 ;&st7;  " /><path d=" M  2133.14,   256.74  L  2141.64,   256.74  " style="stroke-width: 0.85 ;&st7;  " /><path d=" M  2107.65,   256.74  L  2116.15,   256.74  " style="stroke-width: 0.85 ;&st7;  " /><path d=" M  2111.90,   282.24  L  2107.65,   282.24  " style="stroke-width: 0.85 ;&st7;  " /><path d=" M  2141.64,   282.24  L  2137.39,   282.24  " style="stroke-width: 0.85 ;&st7;  " /><path d=" M  2134.56,   282.24  L  2111.90,   287.90  " style="stroke-width: 1.42 ;&st7;  " /><path d=" M  2133.14,   324.73  L  2141.64,   324.73  " style="stroke-width: 0.85 ;&st7;  " /><path d=" M  2107.65,   324.73  L  2116.15,   324.73  " style="stroke-width: 0.85 ;&st7;  " /><path d=" M  2111.90,   350.23  L  2107.65,   350.23  " style="stroke-width: 0.85 ;&st7;  " /><path d=" M  2141.64,   350.23  L  2137.39,   350.23  " style="stroke-width: 0.85 ;&st7;  " /><path d=" M  2134.56,   350.23  L  2111.90,   355.89  " style="stroke-width: 1.42 ;&st7;  " /><path d=" M  2026.91,   184.50  L  2022.66,   184.50  " style="stroke-width: 1.42 ;&st7;  " /><path d=" M  2026.91,   193.00  L  2022.66,   193.00  " style="stroke-width: 1.42 ;&st7;  " /><path d=" M  2120.40,   184.50  L  2124.65,   184.50  " style="stroke-width: 1.42 ;&st7;  " /><path d=" M  2124.65,   193.00  L  2120.40,   193.00  " style="stroke-width: 1.42 ;&st7;  " /><path d=" M  2247.87,   193.00  L  2243.63,   193.00  " style="stroke-width: 1.42 ;&st7;  " /><path d=" M  2247.87,   184.50  L  2243.63,   184.50  " style="stroke-width: 1.42 ;&st7;  " /><path d=" M  2294.62,   188.75  L  2294.62,   193.00  " style="stroke-width: 1.42 ;&st7;  " /><path d=" M  2371.10,   193.00  L  2366.85,   193.00  " style="stroke-width: 1.42 ;&st7;  " /><path d=" M  2366.85,   184.50  L  2371.10,   184.50  " style="stroke-width: 1.42 ;&st7;  " /><path d=" M  2201.13,   188.75  L  2196.88,   188.75  " style="stroke-width: 0.85 ;&st7;  " /><path d=" M  2184.14,   180.26  L  2184.14,   183.09  " style="stroke-width: 0.85 ;&st7;  " /><path d=" M  2171.39,   188.75  L  2167.14,   188.75  " style="stroke-width: 0.85 ;&st7;  " /><path d=" M  2194.05,   188.75  L  2171.39,   183.09  " style="stroke-width: 1.42 ;&st7;  " /><path d=" M  2175.64,   214.25  L  2167.14,   214.25  " style="stroke-width: 0.85 ;&st7;  " /><path d=" M  2201.13,   214.25  L  2192.63,   214.25  " style="stroke-width: 0.85 ;&st7;  " /><path d=" M  2413.60,   188.75  L  2375.35,   188.75  " style="stroke-width: 0.85 ;&st7;  " /><path d=" M  2013.52,    44.28  L  2010.68,    41.45  L  2014.93,    41.45  L  2017.77,    44.28  L  2014.93,    47.11  L  2010.68,    47.11  L  2013.52,    44.28  " style="stroke-width: 0.28 ;&st9;  " /><path d=" M  2107.65,    95.27  L  2107.65,   137.76  L  2141.64,   137.76  L  2141.64,    95.27  L  2107.65,    95.27  " style="stroke-width: 1.42 ;&st7;  " /><path d=" M  2090.65,   103.77  L  2107.65,   103.77  " style="stroke-width: 0.85 ;&st7;  " /><path d=" M  2158.64,   103.77  L  2141.64,   103.77  " style="stroke-width: 0.85 ;&st7;  " /><path d=" M  2269.12,   350.23  L  2243.62,   350.23  " style="stroke-width: 0.85 ;&st7;  " /><path d=" M  2243.62,    86.77  L  2235.13,    86.77  " style="stroke-width: 0.85 ;&st7;  " /><path d=" M  2201.13,    74.02  L  2201.13,    99.52  L  2243.62,    99.52  L  2243.62,    74.02  L  2201.13,    74.02  " style="stroke-width: 1.42 ;&st7;  " /><path d=" M  2201.13,   129.26  L  2141.64,   129.26  " style="stroke-width: 0.85 ;&st7;  " /><path d=" M  2107.65,   316.23  L  2107.65,   358.73  L  2141.64,   358.73  L  2141.64,   316.23  L  2107.65,   316.23  " style="stroke-width: 1.42 ;&st7;  " /><path d=" M  2269.12,    86.77  L  2243.62,    86.77  " style="stroke-width: 0.85 ;&st7;  " /><path d=" M  2243.62,   129.26  L  2235.13,   129.26  " style="stroke-width: 0.85 ;&st7;  " /><path d=" M  2201.13,   116.52  L  2201.13,   142.01  L  2243.62,   142.01  L  2243.62,   116.52  L  2201.13,   116.52  " style="stroke-width: 1.42 ;&st7;  " /><path d=" M  2269.12,   129.26  L  2243.62,   129.26  " style="stroke-width: 0.85 ;&st7;  " /><path d=" M  2174.44,   128.26  L  2174.17,   128.73  L  2174.08,   129.26  L  2174.17,   129.80  L  2174.44,   130.27  L  2174.86,   130.61  L  2175.36,   130.80  L  2175.91,   130.80  L  2176.41,   130.61  L  2176.83,   130.27  L  2177.10,   129.80  L  2177.19,   129.26  L  2177.10,   128.73  L  2176.83,   128.26  L  2176.41,   127.92  L  2175.91,   127.73  L  2175.36,   127.73  L  2174.86,   127.92  L  2174.44,   128.26  L  2174.84,   128.97  L  2174.84,   129.56  L  2175.21,   130.00  L  2175.78,   130.10  L  2176.29,   129.81  L  2176.49,   129.26  L  2176.29,   128.72  L  2175.78,   128.43  L  2175.21,   128.53  L  2175.64,   129.26  " style="stroke-width: 0.85 ;&st7;  " /><path d=" M  2175.64,   129.26  L  2175.64,    86.77  L  2201.13,    86.77  " style="stroke-width: 0.85 ;&st7;  " /><path d=" M  2090.65,   324.73  L  2107.65,   324.73  " style="stroke-width: 0.85 ;&st7;  " /><path d=" M  2158.64,   324.73  L  2141.64,   324.73  " style="stroke-width: 0.85 ;&st7;  " /><path d=" M  2243.62,   350.23  L  2235.13,   350.23  " style="stroke-width: 0.85 ;&st7;  " /><path d=" M  2201.13,   337.48  L  2201.13,   362.97  L  2243.62,   362.97  L  2243.62,   337.48  L  2201.13,   337.48  " style="stroke-width: 1.42 ;&st7;  " /><path d=" M  2201.13,   350.23  L  2141.64,   350.23  " style="stroke-width: 0.85 ;&st7;  " /><path d=" M  2269.12,   282.24  L  2243.62,   282.24  " style="stroke-width: 0.85 ;&st7;  " /><path d=" M  2201.13,   282.24  L  2141.64,   282.24  " style="stroke-width: 0.85 ;&st7;  " /><path d=" M  2201.13,   269.49  L  2201.13,   294.99  L  2243.62,   294.99  L  2243.62,   269.49  L  2201.13,   269.49  " style="stroke-width: 1.42 ;&st7;  " /><path d=" M  2243.62,   282.24  L  2235.13,   282.24  " style="stroke-width: 0.85 ;&st7;  " /><path d=" M  2158.64,   256.74  L  2141.64,   256.74  " style="stroke-width: 0.85 ;&st7;  " /><path d=" M  2090.65,   256.74  L  2107.65,   256.74  " style="stroke-width: 0.85 ;&st7;  " /><path d=" M  2107.65,   248.24  L  2107.65,   290.74  L  2141.64,   290.74  L  2141.64,   248.24  L  2107.65,   248.24  " style="stroke-width: 1.42 ;&st7;  " /><path d=" M  2013.52,   188.75  L  2010.68,   185.92  L  2014.93,   185.92  L  2017.77,   188.75  L  2014.93,   191.59  L  2010.68,   191.59  L  2013.52,   188.75  " style="stroke-width: 0.28 ;&st9;  " /><path d=" M  2133.79,   188.75  L  2136.62,   185.92  L  2132.37,   185.92  L  2129.54,   188.75  L  2132.37,   191.59  L  2136.62,   191.59  L  2133.79,   188.75  " style="stroke-width: 0.28 ;&st9;  " /><path d=" M  2184.13,   180.26  L  2184.13,   163.26  L  2235.13,   163.26  " style="stroke-width: 0.85 ;&st7;  " /><path d=" M  2201.13,   188.75  L  2239.37,   188.75  " style="stroke-width: 0.85 ;&st7;  " /><path d=" M  2234.48,   188.75  L  2231.65,   185.92  L  2235.90,   185.92  L  2238.73,   188.75  L  2235.90,   191.59  L  2231.65,   191.59  L  2234.48,   188.75  " style="stroke-width: 0.28 ;&st9;  " /><path d=" M  2288.95,   184.50  L  2293.20,   188.75  L  2288.95,   193.00  " style="stroke-width: 1.42 ;&st7;  " /><path d=" M  2285.55,   184.50  L  2289.80,   188.75  L  2285.55,   193.00  " style="stroke-width: 1.42 ;&st7;  " /><path d=" M  2201.13,   222.75  L  2201.13,   180.26  L  2167.14,   180.26  L  2167.14,   222.75  L  2201.13,   222.75  " style="stroke-width: 1.42 ;&st7;  " /><path d=" M  2128.89,   188.75  L  2167.14,   188.75  " style="stroke-width: 0.85 ;&st7;  " /><path d=" M  2473.09,   188.75  L  2447.59,   188.75  " style="stroke-width: 0.85 ;&st7;  " /><path d=" M  2405.10,   176.01  L  2405.10,   201.50  L  2447.59,   201.50  L  2447.59,   176.01  L  2405.10,   176.01  " style="stroke-width: 1.42 ;&st7;  " /><path d=" M  2447.59,   188.75  L  2439.09,   188.75  " style="stroke-width: 0.85 ;&st7;  " /><path d=" M  2133.14,   214.25  L  2167.14,   214.25  " style="stroke-width: 0.85 ;&st7;  " /><path d=" M  2201.13,   214.25  L  2235.13,   214.25  " style="stroke-width: 0.85 ;&st7;  " /><path d=" M  2380.25,   188.75  L  2383.08,   185.92  L  2378.83,   185.92  L  2376.00,   188.75  L  2378.83,   191.59  L  2383.08,   191.59  L  2380.25,   188.75  " style="stroke-width: 0.28 ;&st9;  " /><path d=" M  2022.66,    40.03  C  2020.32     40.03   2018.41     41.93   2018.41     44.28  " style="stroke-width: 1.42 ;&st7;   " /><path d=" M  2018.41,    44.28  C  2018.41     46.62   2020.32     48.53   2022.66     48.53  " style="stroke-width: 1.42 ;&st7;   " /><path d=" M  2026.91,    48.53  C  2029.26     48.53   2031.16     46.62   2031.16     44.28  " style="stroke-width: 1.42 ;&st7;   " /><path d=" M  2031.16,    44.28  C  2031.16     41.93   2029.26     40.03   2026.91     40.03  " style="stroke-width: 1.42 ;&st7;   " /><path d=" M  2137.39,   129.26  C  2137.39    128.48   2136.76    127.85   2135.98    127.85  " style="stroke-width: 0.85 ;&st7;   " /><path d=" M  2135.98,   127.85  C  2135.19    127.85   2134.56    128.48   2134.56    129.26  " style="stroke-width: 0.85 ;&st7;   " /><path d=" M  2134.56,   129.26  C  2134.56    130.05   2135.19    130.68   2135.98    130.68  " style="stroke-width: 0.85 ;&st7;   " /><path d=" M  2135.98,   130.68  C  2136.76    130.68   2137.39    130.05   2137.39    129.26  " style="stroke-width: 0.85 ;&st7;   " /><path d=" M  2114.73,   129.26  C  2114.73    128.48   2114.10    127.85   2113.31    127.85  " style="stroke-width: 0.85 ;&st7;   " /><path d=" M  2113.31,   127.85  C  2112.53    127.85   2111.90    128.48   2111.90    129.26  " style="stroke-width: 0.85 ;&st7;   " /><path d=" M  2111.90,   129.26  C  2111.90    130.05   2112.53    130.68   2113.31    130.68  " style="stroke-width: 0.85 ;&st7;   " /><path d=" M  2113.31,   130.68  C  2114.10    130.68   2114.73    130.05   2114.73    129.26  " style="stroke-width: 0.85 ;&st7;   " /><path d=" M  2122.17,   106.30  C  2123.56    104.93   2123.59    102.69   2122.22    101.29  " style="stroke-width: 0.85 ;&st7;   " /><path d=" M  2122.22,   101.29  C  2120.85     99.89   2118.61     99.87   2117.21    101.24  " style="stroke-width: 0.85 ;&st7;   " /><path d=" M  2117.21,   101.24  C  2116.50    101.93   2116.15    102.78   2116.15    103.77  " style="stroke-width: 0.85 ;&st7;   " /><path d=" M  2127.12,   106.30  C  2128.52    104.93   2128.54    102.69   2127.17    101.29  " style="stroke-width: 0.85 ;&st7;   " /><path d=" M  2127.17,   101.29  C  2125.81     99.89   2123.56     99.87   2122.17    101.24  " style="stroke-width: 0.85 ;&st7;   " /><path d=" M  2122.17,   101.24  C  2120.77    102.61   2120.75    104.85   2122.12    106.25  " style="stroke-width: 0.85 ;&st7;   " /><path d=" M  2122.12,   106.25  C  2122.13    106.26   2122.15    106.28   2122.17    106.30  " style="stroke-width: 0.85 ;&st7;   " /><path d=" M  2133.14,   103.77  C  2133.14    101.81   2131.56    100.23   2129.60    100.23  " style="stroke-width: 0.85 ;&st7;   " /><path d=" M  2129.60,   100.23  C  2127.65    100.23   2126.06    101.81   2126.06    103.77  " style="stroke-width: 0.85 ;&st7;   " /><path d=" M  2126.06,   103.77  C  2126.06    104.76   2126.42    105.60   2127.12    106.30  " style="stroke-width: 0.85 ;&st7;   " /><path d=" M  2232.29,   129.26  C  2230.68    126.53   2227.15    125.61   2224.42    127.23  " style="stroke-width: 1.42 ;&st7;   " /><path d=" M  2224.42,   127.23  C  2223.53    127.75   2222.90    128.38   2222.38    129.26  " style="stroke-width: 1.42 ;&st7;   " /><path d=" M  2212.46,   129.26  C  2214.08    132.00   2217.60    132.91   2220.34    131.30  " style="stroke-width: 1.42 ;&st7;   " /><path d=" M  2220.34,   131.30  C  2221.22    130.78   2221.86    130.15   2222.38    129.26  " style="stroke-width: 1.42 ;&st7;   " /><path d=" M  2235.13,   129.26  C  2235.13    128.48   2234.49    127.85   2233.71    127.85  " style="stroke-width: 0.85 ;&st7;   " /><path d=" M  2233.71,   127.85  C  2232.93    127.85   2232.29    128.48   2232.29    129.26  " style="stroke-width: 0.85 ;&st7;   " /><path d=" M  2232.29,   129.26  C  2232.29    130.05   2232.93    130.68   2233.71    130.68  " style="stroke-width: 0.85 ;&st7;   " /><path d=" M  2233.71,   130.68  C  2234.49    130.68   2235.13    130.05   2235.13    129.26  " style="stroke-width: 0.85 ;&st7;   " /><path d=" M  2212.46,   129.26  C  2212.46    128.48   2211.83    127.85   2211.05    127.85  " style="stroke-width: 0.85 ;&st7;   " /><path d=" M  2211.05,   127.85  C  2210.26    127.85   2209.63    128.48   2209.63    129.26  " style="stroke-width: 0.85 ;&st7;   " /><path d=" M  2209.63,   129.26  C  2209.63    130.05   2210.26    130.68   2211.05    130.68  " style="stroke-width: 0.85 ;&st7;   " /><path d=" M  2211.05,   130.68  C  2211.83    130.68   2212.46    130.05   2212.46    129.26  " style="stroke-width: 0.85 ;&st7;   " /><path d=" M  2158.50,   332.22  C  2160.40    330.07   2160.46    326.94   2158.64    324.73  " style="stroke-width: 1.42 ;&st7;   " /><path d=" M  2158.78,   317.25  C  2156.88    319.39   2156.82    322.52   2158.64    324.73  " style="stroke-width: 1.42 ;&st7;   " /><path d=" M  2090.51,   332.22  C  2092.41    330.07   2092.47    326.94   2090.65    324.73  " style="stroke-width: 1.42 ;&st7;   " /><path d=" M  2232.29,   350.23  C  2230.68    347.49   2227.15    346.58   2224.42    348.19  " style="stroke-width: 1.42 ;&st7;   " /><path d=" M  2224.42,   348.19  C  2223.53    348.71   2222.90    349.34   2222.38    350.23  " style="stroke-width: 1.42 ;&st7;   " /><path d=" M  2212.46,   350.23  C  2214.08    352.96   2217.60    353.88   2220.34    352.26  " style="stroke-width: 1.42 ;&st7;   " /><path d=" M  2220.34,   352.26  C  2221.22    351.74   2221.86    351.11   2222.38    350.23  " style="stroke-width: 1.42 ;&st7;   " /><path d=" M  2235.13,   350.23  C  2235.13    349.44   2234.49    348.81   2233.71    348.81  " style="stroke-width: 0.85 ;&st7;   " /><path d=" M  2233.71,   348.81  C  2232.93    348.81   2232.29    349.44   2232.29    350.23  " style="stroke-width: 0.85 ;&st7;   " /><path d=" M  2232.29,   350.23  C  2232.29    351.01   2232.93    351.64   2233.71    351.64  " style="stroke-width: 0.85 ;&st7;   " /><path d=" M  2233.71,   351.64  C  2234.49    351.64   2235.13    351.01   2235.13    350.23  " style="stroke-width: 0.85 ;&st7;   " /><path d=" M  2212.46,   350.23  C  2212.46    349.44   2211.83    348.81   2211.05    348.81  " style="stroke-width: 0.85 ;&st7;   " /><path d=" M  2211.05,   348.81  C  2210.26    348.81   2209.63    349.44   2209.63    350.23  " style="stroke-width: 0.85 ;&st7;   " /><path d=" M  2209.63,   350.23  C  2209.63    351.01   2210.26    351.64   2211.05    351.64  " style="stroke-width: 0.85 ;&st7;   " /><path d=" M  2211.05,   351.64  C  2211.83    351.64   2212.46    351.01   2212.46    350.23  " style="stroke-width: 0.85 ;&st7;   " /><path d=" M  2212.46,   282.24  C  2212.46    281.46   2211.83    280.82   2211.05    280.82  " style="stroke-width: 0.85 ;&st7;   " /><path d=" M  2211.05,   280.82  C  2210.26    280.82   2209.63    281.46   2209.63    282.24  " style="stroke-width: 0.85 ;&st7;   " /><path d=" M  2209.63,   282.24  C  2209.63    283.02   2210.26    283.65   2211.05    283.65  " style="stroke-width: 0.85 ;&st7;   " /><path d=" M  2211.05,   283.65  C  2211.83    283.65   2212.46    283.02   2212.46    282.24  " style="stroke-width: 0.85 ;&st7;   " /><path d=" M  2235.13,   282.24  C  2235.13    281.46   2234.49    280.82   2233.71    280.82  " style="stroke-width: 0.85 ;&st7;   " /><path d=" M  2233.71,   280.82  C  2232.93    280.82   2232.29    281.46   2232.29    282.24  " style="stroke-width: 0.85 ;&st7;   " /><path d=" M  2232.29,   282.24  C  2232.29    283.02   2232.93    283.65   2233.71    283.65  " style="stroke-width: 0.85 ;&st7;   " /><path d=" M  2233.71,   283.65  C  2234.49    283.65   2235.13    283.02   2235.13    282.24  " style="stroke-width: 0.85 ;&st7;   " /><path d=" M  2212.46,   282.24  C  2214.08    284.98   2217.60    285.89   2220.34    284.27  " style="stroke-width: 1.42 ;&st7;   " /><path d=" M  2220.34,   284.27  C  2221.22    283.76   2221.86    283.12   2222.38    282.24  " style="stroke-width: 1.42 ;&st7;   " /><path d=" M  2232.29,   282.24  C  2230.68    279.50   2227.15    278.59   2224.42    280.20  " style="stroke-width: 1.42 ;&st7;   " /><path d=" M  2224.42,   280.20  C  2223.53    280.72   2222.90    281.36   2222.38    282.24  " style="stroke-width: 1.42 ;&st7;   " /><path d=" M  2090.79,   249.26  C  2088.89    251.40   2088.83    254.53   2090.65    256.74  " style="stroke-width: 1.42 ;&st7;   " /><path d=" M  2090.51,   264.23  C  2092.41    262.09   2092.47    258.95   2090.65    256.74  " style="stroke-width: 1.42 ;&st7;   " /><path d=" M  2158.78,   249.26  C  2156.88    251.40   2156.82    254.53   2158.64    256.74  " style="stroke-width: 1.42 ;&st7;   " /><path d=" M  2158.50,   264.23  C  2160.40    262.09   2160.46    258.95   2158.64    256.74  " style="stroke-width: 1.42 ;&st7;   " /><path d=" M  2133.14,   256.74  C  2133.14    254.79   2131.56    253.20   2129.60    253.20  " style="stroke-width: 0.85 ;&st7;   " /><path d=" M  2129.60,   253.20  C  2127.65    253.20   2126.06    254.79   2126.06    256.74  " style="stroke-width: 0.85 ;&st7;   " /><path d=" M  2126.06,   256.74  C  2126.06    257.73   2126.42    258.58   2127.12    259.27  " style="stroke-width: 0.85 ;&st7;   " /><path d=" M  2127.12,   259.27  C  2128.52    257.90   2128.54    255.66   2127.17    254.26  " style="stroke-width: 0.85 ;&st7;   " /><path d=" M  2127.17,   254.26  C  2125.81    252.87   2123.56    252.84   2122.17    254.21  " style="stroke-width: 0.85 ;&st7;   " /><path d=" M  2122.17,   254.21  C  2120.77    255.58   2120.75    257.82   2122.12    259.22  " style="stroke-width: 0.85 ;&st7;   " /><path d=" M  2122.12,   259.22  C  2122.13    259.24   2122.15    259.25   2122.17    259.27  " style="stroke-width: 0.85 ;&st7;   " /><path d=" M  2122.17,   259.27  C  2123.56    257.90   2123.59    255.66   2122.22    254.26  " style="stroke-width: 0.85 ;&st7;   " /><path d=" M  2122.22,   254.26  C  2120.85    252.87   2118.61    252.84   2117.21    254.21  " style="stroke-width: 0.85 ;&st7;   " /><path d=" M  2117.21,   254.21  C  2116.50    254.91   2116.15    255.75   2116.15    256.74  " style="stroke-width: 0.85 ;&st7;   " /><path d=" M  2114.73,   282.24  C  2114.73    281.46   2114.10    280.82   2113.31    280.82  " style="stroke-width: 0.85 ;&st7;   " /><path d=" M  2113.31,   280.82  C  2112.53    280.82   2111.90    281.46   2111.90    282.24  " style="stroke-width: 0.85 ;&st7;   " /><path d=" M  2111.90,   282.24  C  2111.90    283.02   2112.53    283.65   2113.31    283.65  " style="stroke-width: 0.85 ;&st7;   " /><path d=" M  2113.31,   283.65  C  2114.10    283.65   2114.73    283.02   2114.73    282.24  " style="stroke-width: 0.85 ;&st7;   " /><path d=" M  2137.39,   282.24  C  2137.39    281.46   2136.76    280.82   2135.98    280.82  " style="stroke-width: 0.85 ;&st7;   " /><path d=" M  2135.98,   280.82  C  2135.19    280.82   2134.56    281.46   2134.56    282.24  " style="stroke-width: 0.85 ;&st7;   " /><path d=" M  2134.56,   282.24  C  2134.56    283.02   2135.19    283.65   2135.98    283.65  " style="stroke-width: 0.85 ;&st7;   " /><path d=" M  2135.98,   283.65  C  2136.76    283.65   2137.39    283.02   2137.39    282.24  " style="stroke-width: 0.85 ;&st7;   " /><path d=" M  2090.79,   317.25  C  2088.89    319.39   2088.83    322.52   2090.65    324.73  " style="stroke-width: 1.42 ;&st7;   " /><path d=" M  2133.14,   324.73  C  2133.14    322.78   2131.56    321.19   2129.60    321.19  " style="stroke-width: 0.85 ;&st7;   " /><path d=" M  2129.60,   321.19  C  2127.65    321.19   2126.06    322.78   2126.06    324.73  " style="stroke-width: 0.85 ;&st7;   " /><path d=" M  2126.06,   324.73  C  2126.06    325.72   2126.42    326.57   2127.12    327.26  " style="stroke-width: 0.85 ;&st7;   " /><path d=" M  2127.12,   327.26  C  2128.52    325.89   2128.54    323.65   2127.17    322.25  " style="stroke-width: 0.85 ;&st7;   " /><path d=" M  2127.17,   322.25  C  2125.81    320.86   2123.56    320.83   2122.17    322.20  " style="stroke-width: 0.85 ;&st7;   " /><path d=" M  2122.17,   322.20  C  2120.77    323.57   2120.75    325.81   2122.12    327.21  " style="stroke-width: 0.85 ;&st7;   " /><path d=" M  2122.12,   327.21  C  2122.13    327.23   2122.15    327.24   2122.17    327.26  " style="stroke-width: 0.85 ;&st7;   " /><path d=" M  2122.17,   327.26  C  2123.56    325.89   2123.59    323.65   2122.22    322.25  " style="stroke-width: 0.85 ;&st7;   " /><path d=" M  2122.22,   322.25  C  2120.85    320.86   2118.61    320.83   2117.21    322.20  " style="stroke-width: 0.85 ;&st7;   " /><path d=" M  2117.21,   322.20  C  2116.50    322.89   2116.15    323.74   2116.15    324.73  " style="stroke-width: 0.85 ;&st7;   " /><path d=" M  2114.73,   350.23  C  2114.73    349.44   2114.10    348.81   2113.31    348.81  " style="stroke-width: 0.85 ;&st7;   " /><path d=" M  2113.31,   348.81  C  2112.53    348.81   2111.90    349.44   2111.90    350.23  " style="stroke-width: 0.85 ;&st7;   " /><path d=" M  2111.90,   350.23  C  2111.90    351.01   2112.53    351.64   2113.31    351.64  " style="stroke-width: 0.85 ;&st7;   " /><path d=" M  2113.31,   351.64  C  2114.10    351.64   2114.73    351.01   2114.73    350.23  " style="stroke-width: 0.85 ;&st7;   " /><path d=" M  2137.39,   350.23  C  2137.39    349.44   2136.76    348.81   2135.98    348.81  " style="stroke-width: 0.85 ;&st7;   " /><path d=" M  2135.98,   348.81  C  2135.19    348.81   2134.56    349.44   2134.56    350.23  " style="stroke-width: 0.85 ;&st7;   " /><path d=" M  2134.56,   350.23  C  2134.56    351.01   2135.19    351.64   2135.98    351.64  " style="stroke-width: 0.85 ;&st7;   " /><path d=" M  2135.98,   351.64  C  2136.76    351.64   2137.39    351.01   2137.39    350.23  " style="stroke-width: 0.85 ;&st7;   " /><path d=" M  2158.50,   111.25  C  2160.40    109.11   2160.46    105.98   2158.64    103.77  " style="stroke-width: 1.42 ;&st7;   " /><path d=" M  2158.78,    96.28  C  2156.88     98.42   2156.82    101.56   2158.64    103.77  " style="stroke-width: 1.42 ;&st7;   " /><path d=" M  2090.51,   111.25  C  2092.41    109.11   2092.47    105.98   2090.65    103.77  " style="stroke-width: 1.42 ;&st7;   " /><path d=" M  2090.79,    96.28  C  2088.89     98.42   2088.83    101.56   2090.65    103.77  " style="stroke-width: 1.42 ;&st7;   " /><path d=" M  2232.29,    86.77  C  2230.68     84.03   2227.15     83.12   2224.42     84.73  " style="stroke-width: 1.42 ;&st7;   " /><path d=" M  2224.42,    84.73  C  2223.53     85.25   2222.90     85.89   2222.38     86.77  " style="stroke-width: 1.42 ;&st7;   " /><path d=" M  2212.46,    86.77  C  2214.08     89.51   2217.60     90.42   2220.34     88.81  " style="stroke-width: 1.42 ;&st7;   " /><path d=" M  2220.34,    88.81  C  2221.22     88.29   2221.86     87.65   2222.38     86.77  " style="stroke-width: 1.42 ;&st7;   " /><path d=" M  2235.13,    86.77  C  2235.13     85.99   2234.49     85.35   2233.71     85.35  " style="stroke-width: 0.85 ;&st7;   " /><path d=" M  2233.71,    85.35  C  2232.93     85.35   2232.29     85.99   2232.29     86.77  " style="stroke-width: 0.85 ;&st7;   " /><path d=" M  2232.29,    86.77  C  2232.29     87.55   2232.93     88.19   2233.71     88.19  " style="stroke-width: 0.85 ;&st7;   " /><path d=" M  2233.71,    88.19  C  2234.49     88.19   2235.13     87.55   2235.13     86.77  " style="stroke-width: 0.85 ;&st7;   " /><path d=" M  2212.46,    86.77  C  2212.46     85.99   2211.83     85.35   2211.05     85.35  " style="stroke-width: 0.85 ;&st7;   " /><path d=" M  2211.05,    85.35  C  2210.26     85.35   2209.63     85.99   2209.63     86.77  " style="stroke-width: 0.85 ;&st7;   " /><path d=" M  2209.63,    86.77  C  2209.63     87.55   2210.26     88.19   2211.05     88.19  " style="stroke-width: 0.85 ;&st7;   " /><path d=" M  2211.05,    88.19  C  2211.83     88.19   2212.46     87.55   2212.46     86.77  " style="stroke-width: 0.85 ;&st7;   " /><path d=" M  2022.66,   184.50  C  2020.32    184.50   2018.41    186.41   2018.41    188.75  " style="stroke-width: 1.42 ;&st7;   " /><path d=" M  2018.41,   188.75  C  2018.41    191.10   2020.32    193.00   2022.66    193.00  " style="stroke-width: 1.42 ;&st7;   " /><path d=" M  2026.91,   193.00  C  2029.26    193.00   2031.16    191.10   2031.16    188.75  " style="stroke-width: 1.42 ;&st7;   " /><path d=" M  2031.16,   188.75  C  2031.16    186.41   2029.26    184.50   2026.91    184.50  " style="stroke-width: 1.42 ;&st7;   " /><path d=" M  2120.40,   184.50  C  2118.05    184.50   2116.15    186.41   2116.15    188.75  " style="stroke-width: 1.42 ;&st7;   " /><path d=" M  2116.15,   188.75  C  2116.15    191.10   2118.05    193.00   2120.40    193.00  " style="stroke-width: 1.42 ;&st7;   " /><path d=" M  2124.65,   193.00  C  2126.99    193.00   2128.89    191.10   2128.89    188.75  " style="stroke-width: 1.42 ;&st7;   " /><path d=" M  2128.89,   188.75  C  2128.89    186.41   2126.99    184.50   2124.65    184.50  " style="stroke-width: 1.42 ;&st7;   " /><path d=" M  2252.12,   188.75  C  2252.12    186.41   2250.22    184.50   2247.87    184.50  " style="stroke-width: 1.42 ;&st7;   " /><path d=" M  2247.87,   193.00  C  2250.22    193.00   2252.12    191.10   2252.12    188.75  " style="stroke-width: 1.42 ;&st7;   " /><path d=" M  2239.38,   188.75  C  2239.38    191.10   2241.28    193.00   2243.63    193.00  " style="stroke-width: 1.42 ;&st7;   " /><path d=" M  2243.63,   184.50  C  2241.28    184.50   2239.38    186.41   2239.38    188.75  " style="stroke-width: 1.42 ;&st7;   " /><path d=" M  2375.35,   188.75  C  2375.35    186.41   2373.45    184.50   2371.10    184.50  " style="stroke-width: 1.42 ;&st7;   " /><path d=" M  2371.10,   193.00  C  2373.45    193.00   2375.35    191.10   2375.35    188.75  " style="stroke-width: 1.42 ;&st7;   " /><path d=" M  2196.88,   188.75  C  2196.88    187.97   2196.25    187.34   2195.47    187.34  " style="stroke-width: 0.85 ;&st7;   " /><path d=" M  2195.47,   187.34  C  2194.68    187.34   2194.05    187.97   2194.05    188.75  " style="stroke-width: 0.85 ;&st7;   " /><path d=" M  2194.05,   188.75  C  2194.05    189.54   2194.68    190.17   2195.47    190.17  " style="stroke-width: 0.85 ;&st7;   " /><path d=" M  2195.47,   190.17  C  2196.25    190.17   2196.88    189.54   2196.88    188.75  " style="stroke-width: 0.85 ;&st7;   " /><path d=" M  2174.22,   188.75  C  2174.22    187.97   2173.59    187.34   2172.80    187.34  " style="stroke-width: 0.85 ;&st7;   " /><path d=" M  2172.80,   187.34  C  2172.02    187.34   2171.39    187.97   2171.39    188.75  " style="stroke-width: 0.85 ;&st7;   " /><path d=" M  2171.39,   188.75  C  2171.39    189.54   2172.02    190.17   2172.80    190.17  " style="stroke-width: 0.85 ;&st7;   " /><path d=" M  2172.80,   190.17  C  2173.59    190.17   2174.22    189.54   2174.22    188.75  " style="stroke-width: 0.85 ;&st7;   " /><path d=" M  2185.55,   184.50  C  2185.55    183.72   2184.92    183.09   2184.14    183.09  " style="stroke-width: 0.85 ;&st7;   " /><path d=" M  2184.14,   183.09  C  2183.35    183.09   2182.72    183.72   2182.72    184.50  " style="stroke-width: 0.85 ;&st7;   " /><path d=" M  2182.72,   184.50  C  2182.72    185.29   2183.35    185.92   2184.14    185.92  " style="stroke-width: 0.85 ;&st7;   " /><path d=" M  2184.14,   185.92  C  2184.92    185.92   2185.55    185.29   2185.55    184.50  " style="stroke-width: 0.85 ;&st7;   " /><path d=" M  2181.66,   216.78  C  2183.05    215.41   2183.08    213.17   2181.71    211.77  " style="stroke-width: 0.85 ;&st7;   " /><path d=" M  2181.71,   211.77  C  2180.34    210.37   2178.10    210.35   2176.70    211.72  " style="stroke-width: 0.85 ;&st7;   " /><path d=" M  2176.70,   211.72  C  2175.99    212.41   2175.64    213.26   2175.64    214.25  " style="stroke-width: 0.85 ;&st7;   " /><path d=" M  2186.61,   216.78  C  2188.01    215.41   2188.03    213.17   2186.66    211.77  " style="stroke-width: 0.85 ;&st7;   " /><path d=" M  2186.66,   211.77  C  2185.30    210.37   2183.05    210.35   2181.66    211.72  " style="stroke-width: 0.85 ;&st7;   " /><path d=" M  2181.66,   211.72  C  2180.26    213.09   2180.24    215.33   2181.61    216.73  " style="stroke-width: 0.85 ;&st7;   " /><path d=" M  2181.61,   216.73  C  2181.62    216.75   2181.64    216.76   2181.66    216.78  " style="stroke-width: 0.85 ;&st7;   " /><path d=" M  2192.63,   214.25  C  2192.63    212.29   2191.05    210.71   2189.09    210.71  " style="stroke-width: 0.85 ;&st7;   " /><path d=" M  2189.09,   210.71  C  2187.14    210.71   2185.55    212.29   2185.55    214.25  " style="stroke-width: 0.85 ;&st7;   " /><path d=" M  2185.55,   214.25  C  2185.55    215.24   2185.91    216.09   2186.61    216.78  " style="stroke-width: 0.85 ;&st7;   " /><path d=" M  2416.43,   188.75  C  2416.43    187.97   2415.80    187.34   2415.01    187.34  " style="stroke-width: 0.85 ;&st7;   " /><path d=" M  2415.01,   187.34  C  2414.23    187.34   2413.60    187.97   2413.60    188.75  " style="stroke-width: 0.85 ;&st7;   " /><path d=" M  2413.60,   188.75  C  2413.60    189.54   2414.23    190.17   2415.01    190.17  " style="stroke-width: 0.85 ;&st7;   " /><path d=" M  2415.01,   190.17  C  2415.80    190.17   2416.43    189.54   2416.43    188.75  " style="stroke-width: 0.85 ;&st7;   " /><path d=" M  2439.09,   188.75  C  2439.09    187.97   2438.46    187.34   2437.68    187.34  " style="stroke-width: 0.85 ;&st7;   " /><path d=" M  2437.68,   187.34  C  2436.89    187.34   2436.26    187.97   2436.26    188.75  " style="stroke-width: 0.85 ;&st7;   " /><path d=" M  2436.26,   188.75  C  2436.26    189.54   2436.89    190.17   2437.68    190.17  " style="stroke-width: 0.85 ;&st7;   " /><path d=" M  2437.68,   190.17  C  2438.46    190.17   2439.09    189.54   2439.09    188.75  " style="stroke-width: 0.85 ;&st7;   " /><path d=" M  2416.43,   188.75  C  2418.04    191.49   2421.57    192.40   2424.31    190.79  " style="stroke-width: 1.42 ;&st7;   " /><path d=" M  2424.31,   190.79  C  2425.19    190.27   2425.82    189.64   2426.34    188.75  " style="stroke-width: 1.42 ;&st7;   " /><path d=" M  2436.26,   188.75  C  2434.65    186.02   2431.12    185.10   2428.38    186.72  " style="stroke-width: 1.42 ;&st7;   " /><path d=" M  2428.38,   186.72  C  2427.50    187.24   2426.86    187.87   2426.34    188.75  " style="stroke-width: 1.42 ;&st7;   " /><path d=" M  2362.61,   188.75  C  2362.61    191.10   2364.51    193.00   2366.85    193.00  " style="stroke-width: 1.42 ;&st7;   " /><path d=" M  2366.85,   184.50  C  2364.51    184.50   2362.61    186.41   2362.61    188.75  " style="stroke-width: 1.42 ;&st7;   " /><path d=" M  2234.98,   170.74  C  2236.89    168.60   2236.95    165.47   2235.13    163.26  " style="stroke-width: 1.42 ;&st7;   " /><path d=" M  2235.27,   155.77  C  2233.36    157.91   2233.31    161.05   2235.13    163.26  " style="stroke-width: 1.42 ;&st7;   " /><path d=" M  2235.27,   206.77  C  2233.36    208.91   2233.31    212.04   2235.13    214.25  " style="stroke-width: 1.42 ;&st7;   " /><path d=" M  2234.98,   221.73  C  2236.89    219.59   2236.95    216.46   2235.13    214.25  " style="stroke-width: 1.42 ;&st7;   " /><path d=" M  2133.29,   206.77  C  2131.38    208.91   2131.32    212.04   2133.14    214.25  " style="stroke-width: 1.42 ;&st7;   " /><path d=" M  2133.00,   221.73  C  2134.91    219.59   2134.97    216.46   2133.14    214.25  " style="stroke-width: 1.42 ;&st7;   " /><text style="&st18;" transform="matrix(&st16;  2022.99  37.04 )">1</text><text style="&st18;" transform="matrix(&st16;  2021.05  46.25 )">1B</text><text style="&st18;" transform="matrix(&st16;  2101.46  100.08 )">1</text><text style="&st18;" transform="matrix(&st16;  2101.46  125.57 )">5</text><text style="&st18;" transform="matrix(&st16;  2144.23  100.08 )">2</text><text style="&st18;" transform="matrix(&st16;  2144.23  125.57 )">3</text><text ewd:textID="29" style="&st18;" transform="matrix(&st16;  2107.45  145.4 )">WIPER Relay</text><text style="&st18;" transform="matrix(&st16;  2194.95  83.08 )">1</text><text style="&st18;" transform="matrix(&st16;  2246.21  83.08 )">2</text><text style="&st18;" transform="matrix(&st16;  2203.75  68.91 )">10A WASHER</text><text style="&st18;" transform="matrix(&st16;  2101.46  321.04 )">1</text><text style="&st18;" transform="matrix(&st16;  2194.95  125.57 )">1</text><text style="&st18;" transform="matrix(&st16;  2246.21  125.57 )">2</text><text ewd:textID="1" style="&st18;" transform="matrix(&st16;  2350.7  97.24 )">* 1 :Manual A/C</text><text style="&st18;" transform="matrix(&st16;  2206.97  111.4 )">30A WIPER</text><text style="&st18;" transform="matrix(&st16;  2101.46  346.54 )">5</text><text style="&st18;" transform="matrix(&st16;  2144.23  321.04 )">2</text><text style="&st18;" transform="matrix(&st16;  2144.23  346.54 )">3</text><text ewd:textID="11" style="&st18;" transform="matrix(&st16;  2102.72  366.36 )">FAN NO.1 Relay</text><text style="&st18;" transform="matrix(&st16;  2194.95  346.54 )">1</text><text style="&st18;" transform="matrix(&st16;  2246.21  346.54 )">2</text><text style="&st18;" transform="matrix(&st16;  2211.16  332.37 )">25A RDI</text><text style="&st18;" transform="matrix(&st16;  2202.9  264.38 )">7.5A MIR HTR</text><text style="&st18;" transform="matrix(&st16;  2246.21  278.55 )">2</text><text style="&st18;" transform="matrix(&st16;  2194.95  278.55 )">1</text><text ewd:textID="25" style="&st18;" transform="matrix(&st16;  2104.31  298.37 )">MIR HTR Relay</text><text style="&st18;" transform="matrix(&st16;  2144.23  278.55 )">3</text><text style="&st18;" transform="matrix(&st16;  2144.23  253.05 )">2</text><text style="&st18;" transform="matrix(&st16;  2101.46  278.55 )">5</text><text style="&st18;" transform="matrix(&st16;  2101.46  253.05 )">1</text><text style="&st18;" transform="matrix(&st16;  2042.56  40.58 )">B-R</text><text style="&st18;" transform="matrix(&st16;  2093.55  40.58 )">B-R</text><text ewd:textID="3" style="&st18;" transform="matrix(&st16;  2350.7  114.24 )">* 3 :w/o Entry &amp; Start System</text><text ewd:textID="2" style="&st18;" transform="matrix(&st16;  2350.7  105.74 )">* 2 :w/ Entry &amp; Start System</text><text style="&st18;" transform="matrix(&st16;  2097.04  185.06 )">R</text><text style="&st18;" transform="matrix(&st16;  2022.99  190.72 )">1</text><text style="&st18;" transform="matrix(&st16;  2093.94  196.39 )">(*1)</text><text style="&st18;" transform="matrix(&st16;  2042.95  196.39 )">(*1)</text><text style="&st18;" transform="matrix(&st16;  2046.05  185.06 )">R</text><text ewd:textID="7" style="&st18;" transform="matrix(&st16;  2166.48  230.38 )">Blower Motor <tspan dy="6.0" x="0 ">Relay</tspan></text><text style="&st18;" transform="matrix(&st16;  2120.72  190.72 )">2</text><text style="&st18;" transform="matrix(&st16;  2243.95  190.72 )">2</text><text style="&st18;" transform="matrix(&st16;  2144.93  221.88 )">(*1)</text><text style="&st18;" transform="matrix(&st16;  2212.92  221.88 )">(*1)</text><text style="&st18;" transform="matrix(&st16;  2177.95  176.56 )">4</text><text style="&st18;" transform="matrix(&st16;  2404.15  171.18 )">7.5A HEATER-S</text><text style="&st18;" transform="matrix(&st16;  2450.17  185.06 )">2</text><text style="&st18;" transform="matrix(&st16;  2398.91  185.06 )">1</text><text style="&st18;" transform="matrix(&st16;  2160.95  185.06 )">5</text><text style="&st18;" transform="matrix(&st16;  2160.95  210.56 )">1</text><text style="&st18;" transform="matrix(&st16;  2203.72  185.06 )">3</text><text style="&st18;" transform="matrix(&st16;  2203.72  210.56 )">2</text><text style="&st18;" transform="matrix(&st16;  2301.31  181.52 )">1</text><text style="&st18;" transform="matrix(&st16;  2331.51  185.06 )">B-R</text><text style="&st18;" transform="matrix(&st16;  2331.9  196.39 )">(*1)</text><text style="&st18;" transform="matrix(&st16;  2263.91  196.39 )">(*1)</text><text style="&st18;" transform="matrix(&st16;  2263.52  185.06 )">B-R</text><text style="&st18;" transform="matrix(&st16;  2365.24  190.72 )">3B</text><text style="&st18;" transform="matrix(&st16;  2367.18  181.52 )">7</text><text style="&st18;" transform="matrix(&st16;  2212.92  170.89 )">(*1)</text><text style="&st18;" transform="matrix(&st16;  2045.19  567.49 )">W</text><text style="&st18;" transform="matrix(&st16;  2042.95  578.82 )">(*2)</text><text style="&st18;" transform="matrix(&st16;  2096.19  567.49 )">W</text><text style="&st18;" transform="matrix(&st16;  2093.94  578.82 )">(*2)</text><text style="&st18;" transform="matrix(&st16;  2041.43  414.52 )">W-G</text><text style="&st18;" transform="matrix(&st16;  2042.95  425.85 )">(*3)</text><text style="&st18;" transform="matrix(&st16;  2044.42  440.01 )">SB</text><text style="&st18;" transform="matrix(&st16;  2042.95  451.35 )">(*3)</text><text style="&st18;" transform="matrix(&st16;  2044.42  465.51 )">SB</text><text style="&st18;" transform="matrix(&st16;  2042.95  476.84 )">(*2)</text><text style="&st18;" transform="matrix(&st16;  2045.19  542.0 )">W</text><text style="&st18;" transform="matrix(&st16;  2042.95  553.33 )">(*3)</text><text style="&st18;" transform="matrix(&st16;  2096.19  542.0 )">W</text><text style="&st18;" transform="matrix(&st16;  2093.94  553.33 )">(*3)</text><text style="&st18;" transform="matrix(&st16;  2095.41  465.51 )">SB</text><text style="&st18;" transform="matrix(&st16;  2093.94  476.84 )">(*2)</text><text style="&st18;" transform="matrix(&st16;  2095.41  440.01 )">SB</text><text style="&st18;" transform="matrix(&st16;  2093.94  451.35 )">(*3)</text><text style="&st18;" transform="matrix(&st16;  2092.42  414.52 )">W-G</text><text style="&st18;" transform="matrix(&st16;  2093.94  425.85 )">(*3)</text></svg>