﻿<?xml version="1.0" encoding="utf-8"?>
<!DOCTYPE svg PUBLIC "-//W3C//DTD SVG 1.0//EN" "http://www.w3.org/TR/2001/REC-SVG-20010904/DTD/svg10.dtd"[
	<!ENTITY ns_flows "http://ns.adobe.com/Flows/1.0/">
	<!ENTITY ns_svg "http://www.w3.org/2000/svg">
	<!ENTITY ns_xlink "http://www.w3.org/1999/xlink">
	<!ENTITY st0 "font-size:7px;font-family:'MS-PGothic';adobe-font-script:japanese;">
	<!ENTITY st1 "font-size:6px;font-family:'ArialMT';">
	<!-- White fill  -->
	<!ENTITY st2 "fill:#FFFFFF;stroke:#000000; stroke-width:1.41;stroke-linecap:round;stroke-linejoin:round;">
	<!-- Yellow fill  -->
	<!ENTITY st3 "fill:#FFFFCC;stroke:#FFFFCC; stroke-width:0.1;stroke-linecap:round;stroke-linejoin:round;">
	<!-- Gray fill  -->
	<!ENTITY st4 "fill:#CCCCCC;stroke:#CCCCCC; stroke-width:0.1;stroke-linecap:round;stroke-linejoin:round;">
	<!-- Light-blue fill -->
	<!ENTITY st5 "fill:#CCECF4;stroke:#000000; stroke-width:1.133;stroke-linecap:round;stroke-linejoin:round;">
	<!ENTITY st6 "fill:none;stroke-linecap:butt; stroke-linejoin:round;">
	<!ENTITY st7 "fill:none;stroke:#000000;stroke-linecap:round;stroke-linejoin:round;">
	<!ENTITY st8 "enable-background:new    ;">
	<!-- Black fill -->
	<!ENTITY st9 "fill:#000000;stroke:#000000; stroke-linecap:round;stroke-linejoin:round;">
	<!-- SRS note   -->
	<!ENTITY st10 "font-size:9px;font-family:'ArialMT';">
	<!ENTITY st11 "font-size:9px;font-family:'Svg Symbol';">
	<!ENTITY st12 "font-size:6px;font-family:'Svg Symbol';">
	<!ENTITY st13 "fill:none;stroke:#ff0000;stroke-linecap:round;stroke-linejoin:round;">
	<!-- Yellow fill  -->
	<!ENTITY st14 "fill:#FFFF00;stroke:#FFFF00; stroke-width:0.1;stroke-linecap:round;stroke-linejoin:round;">
	<!ENTITY st15 "font-size:6px;font-family:'MS-PGothic';adobe-font-script:japanese;">
	<!ENTITY st16 "1.00 0.00 0.00 1.00">
	<!ENTITY st17 "0.00 -1.00 1.00 0.00">
	<!ENTITY st18 "font-size:6px;font-family:'Arial';">
	<!ENTITY st19 "font-size:9px;font-family:'Arial';">
	<!ENTITY st20 "font-size:6px;font-family:'MS-PGothic','MS PGothic';adobe-font-script:japanese;">
	<!ENTITY st21 "font-size:7px;font-family:'MS-PGothic','MS PGothic';adobe-font-script:japanese;">
	<!ATTLIST svg
		xmlns:ewd CDATA #FIXED "http://shcl.co.jp/ewd"
		xmlns:a CDATA #FIXED "http://ns.adobe.com/AdobeSVGViewerExtensions/3.0/"
		ewd:ver CDATA #IMPLIED
	>
	<!ATTLIST a
		ewd:lineID CDATA #IMPLIED
		ewd:groupID CDATA #IMPLIED
		ewd:figtype CDATA #IMPLIED
		ewd:code CDATA #IMPLIED
		ewd:figID CDATA #IMPLIED
		ewd:pinNo CDATA #IMPLIED
		ewd:comment CDATA #IMPLIED >
	<!ATTLIST g
		ewd:lineID CDATA #IMPLIED
		ewd:groupID CDATA #IMPLIED
		ewd:figtype CDATA #IMPLIED
		ewd:code CDATA #IMPLIED
		ewd:figID CDATA #IMPLIED
		ewd:pinNo CDATA #IMPLIED
		ewd:comment CDATA #IMPLIED >
	<!ATTLIST text
		ewd:textID CDATA #IMPLIED >
	<!ATTLIST title
		ewd:textID CDATA #IMPLIED >
]>
<!-- Generator: Shintec Hozumi YS   -->
<svg onload="call_execInitLoadProc_svg('system')" style="overflow:visible;  enable-background:new 0 0 4015.750 710.000" viewBox="0 0 4015.750 710.000" height="710.000" width="4015.750" xml:space="preserve" ewd:ver="L2.1.2.9" xmlns="&ns_svg;" xmlns:a="http://ns.adobe.com/AdobeSVGViewerExtensions/3.0/" xmlns:ewd="http://shcl.co.jp/ewd" xmlns:xlink="&ns_xlink;"><script type="text/javascript" xlink:href="../../../../../system/js/ewd/fig/svgfig.js" xmlns:xlink="http://www.w3.org/1999/xlink" />
<g id="ewd_top"><a ewd:code="FUSE10" ewd:figID="1" ewd:figtype="rb" style="cursor:pointer;"><path d=" M  1211.05,    61.28  L  1211.05,   103.77  L  1236.54,   103.77  L  1236.54,    61.28  L  1211.05,    61.28 " style="fill:#CCECF4;stroke:#000000; stroke-width:0; stroke-linecap:round;stroke-linejoin:round; " /></a><a ewd:code="FUSE23" ewd:figID="2" ewd:figtype="rb" style="cursor:pointer;"><path d=" M  1075.07,    61.28  L  1075.07,   103.77  L  1100.57,   103.77  L  1100.57,    61.28  L  1075.07,    61.28 " style="fill:#CCECF4;stroke:#000000; stroke-width:0; stroke-linecap:round;stroke-linejoin:round; " /></a><a ewd:code="A10,A9" ewd:figID="3" ewd:figtype="conn" style="cursor:pointer;"><path d=" M  2915.01,   503.20  L  2915.01,   537.20  L  3195.47,   537.20  L  3195.47,   503.20  L  2915.01,   503.20 " style="fill:#CCECF4;stroke:#000000; stroke-width:1.133; stroke-linecap:round;stroke-linejoin:round; " /><title ewd:textID="22">Junction Connector</title></a><a ewd:code="A9" ewd:figID="4" ewd:figtype="conn" style="cursor:pointer;"><path d=" M  2422.10,   248.24  L  2422.10,   265.24  L  2439.09,   265.24  L  2439.09,   248.24  L  2422.10,   248.24 " style="fill:#CCECF4;stroke:#000000; stroke-width:1.133; stroke-linecap:round;stroke-linejoin:round; " /><title ewd:textID="22">Junction Connector</title></a><a ewd:code="A41" ewd:figID="5" ewd:figtype="conn" style="cursor:pointer;"><path d=" M  3271.95,   307.73  L  3271.95,   358.73  L  3314.45,   358.73  L  3314.45,   307.73  L  3271.95,   307.73 " style="fill:#CCECF4;stroke:#000000; stroke-width:1.133; stroke-linecap:round;stroke-linejoin:round; " /><title ewd:textID="30">Socket Plug Assembly RH</title></a><a ewd:code="H1" ewd:figID="6" ewd:figtype="conn" style="cursor:pointer;"><path d=" M  2660.06,   316.23  L  2660.06,   350.23  L  2694.05,   350.23  L  2694.05,   316.23  L  2660.06,   316.23 " style="fill:#CCECF4;stroke:#000000; stroke-width:1.133; stroke-linecap:round;stroke-linejoin:round; " /><title ewd:textID="26">Rear Combination Light Socket and Wire Sub-Assembly RH</title></a><a ewd:code="A38" ewd:figID="7" ewd:figtype="conn" style="cursor:pointer;"><path d=" M  3169.97,   307.73  L  3169.97,   341.73  L  3203.96,   341.73  L  3203.96,   307.73  L  3169.97,   307.73 " style="fill:#CCECF4;stroke:#000000; stroke-width:1.133; stroke-linecap:round;stroke-linejoin:round; " /><title ewd:textID="20">Headlight Assembly RH</title></a><a ewd:code="FUSE4" ewd:figID="8" ewd:figtype="rb" style="cursor:pointer;"><path d=" M  1143.06,    61.28  L  1143.06,   103.77  L  1168.55,   103.77  L  1168.55,    61.28  L  1143.06,    61.28 " style="fill:#CCECF4;stroke:#000000; stroke-width:0; stroke-linecap:round;stroke-linejoin:round; " /></a><a ewd:code="D43" ewd:figID="9" ewd:figtype="conn" style="cursor:pointer;"><path d=" M  2498.58,   248.24  L  2498.58,   265.24  L  2549.57,   265.24  L  2549.57,   248.24  L  2498.58,   248.24 " style="fill:#CCECF4;stroke:#000000; stroke-width:1.133; stroke-linecap:round;stroke-linejoin:round; " /><title ewd:textID="22">Junction Connector</title></a><a ewd:code="FUSE10" ewd:figID="10" ewd:figtype="rb" style="cursor:pointer;"><path d=" M  3956.09,    35.78  L  3956.09,    78.27  L  3981.58,    78.27  L  3981.58,    35.78  L  3956.09,    35.78 " style="fill:#CCECF4;stroke:#000000; stroke-width:0; stroke-linecap:round;stroke-linejoin:round; " /></a><a ewd:code="A60" ewd:figID="11" ewd:figtype="conn" style="cursor:pointer;"><path d=" M  3042.49,   307.73  L  3042.49,   341.73  L  3076.49,   341.73  L  3076.49,   307.73  L  3042.49,   307.73 " style="fill:#CCECF4;stroke:#000000; stroke-width:1.133; stroke-linecap:round;stroke-linejoin:round; " /><title ewd:textID="19">Headlight Assembly LH</title></a><a ewd:code="A4" ewd:figID="12" ewd:figtype="conn" style="cursor:pointer;"><path d=" M  2949.01,   307.73  L  2949.01,   358.73  L  2991.50,   358.73  L  2991.50,   307.73  L  2949.01,   307.73 " style="fill:#CCECF4;stroke:#000000; stroke-width:1.133; stroke-linecap:round;stroke-linejoin:round; " /><title ewd:textID="29">Socket Plug Assembly LH</title></a><a ewd:code="A3" ewd:figID="13" ewd:figtype="conn" style="cursor:pointer;"><path d=" M  2847.02,   307.73  L  2847.02,   358.73  L  2889.52,   358.73  L  2889.52,   307.73  L  2847.02,   307.73 " style="fill:#CCECF4;stroke:#000000; stroke-width:1.133; stroke-linecap:round;stroke-linejoin:round; " /><title ewd:textID="27">Side Turn Signal Light Assembly LH</title></a><a ewd:code="D50" ewd:figID="14" ewd:figtype="conn" style="cursor:pointer;"><path d=" M   713.88,   367.22  L   713.88,   469.21  L   900.85,   469.21  L   900.85,   367.22  L   713.88,   367.22 " style="fill:#CCECF4;stroke:#000000; stroke-width:1.133; stroke-linecap:round;stroke-linejoin:round; " /><title ewd:textID="21">Headlight Dimmer Switch Assembly</title></a><a ewd:code="D18" ewd:figID="15" ewd:figtype="conn" style="cursor:pointer;"><path d=" M  2158.64,   282.24  L  2158.64,   333.23  L  2243.63,   333.23  L  2243.63,   282.24  L  2158.64,   282.24 " style="fill:#CCECF4;stroke:#000000; stroke-width:1.133; stroke-linecap:round;stroke-linejoin:round; " /><title ewd:textID="15">Clock Assembly</title></a><a ewd:code="D46,D47" ewd:figID="16" ewd:figtype="conn" style="cursor:pointer;"><path d=" M   169.97,   171.76  L   169.97,   197.25  L   186.97,   197.25  L   186.97,   171.76  L   169.97,   171.76 " style="fill:#CCECF4;stroke:#000000; stroke-width:1.133; stroke-linecap:round;stroke-linejoin:round; " /><title ewd:textID="22">Junction Connector</title></a><a ewd:code="H6" ewd:figID="17" ewd:figtype="conn" style="cursor:pointer;"><path d=" M  2762.04,   316.23  L  2762.04,   350.23  L  2796.03,   350.23  L  2796.03,   316.23  L  2762.04,   316.23 " style="fill:#CCECF4;stroke:#000000; stroke-width:1.133; stroke-linecap:round;stroke-linejoin:round; " /><title ewd:textID="25">Rear Combination Light Socket and Wire Sub-Assembly LH</title></a><a ewd:code="A73,D5,D6" ewd:figID="18" ewd:figtype="conn" style="cursor:pointer;"><path d=" M  1444.76,    69.77  L  1444.76,   112.27  L  2566.57,   112.27  L  2566.57,    69.77  L  1444.76,    69.77 " style="fill:#CCECF4;stroke:#000000; stroke-width:1.133; stroke-linecap:round;stroke-linejoin:round; " /><title ewd:textID="23">Main Body ECU</title></a><a ewd:code="A44" ewd:figID="19" ewd:figtype="conn" style="cursor:pointer;"><path d=" M  3348.44,   307.73  L  3348.44,   358.73  L  3390.93,   358.73  L  3390.93,   307.73  L  3348.44,   307.73 " style="fill:#CCECF4;stroke:#000000; stroke-width:1.133; stroke-linecap:round;stroke-linejoin:round; " /><title ewd:textID="28">Side Turn Signal Light Assembly RH</title></a><a ewd:code="D16,D17" ewd:figID="20" ewd:figtype="conn" style="cursor:pointer;"><path d=" M  1733.71,   239.75  L  1733.71,   265.24  L  1750.71,   265.24  L  1750.71,   239.75  L  1733.71,   239.75 " style="fill:#CCECF4;stroke:#000000; stroke-width:1.133; stroke-linecap:round;stroke-linejoin:round; " /><title ewd:textID="22">Junction Connector</title></a><a ewd:code="D8,D9" ewd:figID="21" ewd:figtype="conn" style="cursor:pointer;"><path d=" M  2354.11,   239.75  L  2354.11,   265.24  L  2371.10,   265.24  L  2371.10,   239.75  L  2354.11,   239.75 " style="fill:#CCECF4;stroke:#000000; stroke-width:1.133; stroke-linecap:round;stroke-linejoin:round; " /><title ewd:textID="22">Junction Connector</title></a><a ewd:code="FUSE23" ewd:figID="22" ewd:figtype="rb" style="cursor:pointer;"><path d=" M    12.75,    35.78  L    12.75,    78.27  L    38.24,    78.27  L    38.24,    35.78  L    12.75,    35.78 " style="fill:#CCECF4;stroke:#000000; stroke-width:0; stroke-linecap:round;stroke-linejoin:round; " /></a><a ewd:code="D61" ewd:figID="23" ewd:figtype="conn" style="cursor:pointer;"><path d=" M   118.98,   282.24  L   118.98,   409.72  L   467.42,   409.72  L   467.42,   282.24  L   118.98,   282.24 " style="fill:#CCECF4;stroke:#000000; stroke-width:1.133; stroke-linecap:round;stroke-linejoin:round; " /><title ewd:textID="34">Turn Signal Flasher Assembly</title></a><a ewd:code="D7" ewd:figID="24" ewd:figtype="conn" style="cursor:pointer;"><path d=" M  3688.38,   290.74  L  3688.38,   511.70  L  3994.33,   511.70  L  3994.33,   290.74  L  3688.38,   290.74 " style="fill:#CCECF4;stroke:#000000; stroke-width:1.133; stroke-linecap:round;stroke-linejoin:round; " /><title ewd:textID="16">Combination Meter Assembly</title></a><a ewd:code="3" ewd:figID="25" ewd:figtype="jb" style="cursor:pointer;"><path d=" M   220.96,    35.78  L   220.96,   103.77  L   280.45,   103.77  L   280.45,    35.78  L   220.96,    35.78  " style="&st4; " /></a><a ewd:code="3" ewd:figID="26" ewd:figtype="jb" style="cursor:pointer;"><path d=" M  1283.29,    61.28  L  1427.76,    61.28  L  1427.76,   112.27  L  1512.75,   112.27  L  1512.75,   180.26  L  1283.29,   180.26  L  1283.29,    61.28  " style="&st4; " /></a><a ewd:code="3" ewd:figID="27" ewd:figtype="jb" style="cursor:pointer;"><path d=" M  2855.52,   120.77  L  2855.52,   205.75  L  3467.42,   205.75  L  3467.42,   120.77  L  2855.52,   120.77  " style="&st4; " /></a><a ewd:code="3" ewd:figID="28" ewd:figtype="jb" style="cursor:pointer;"><path d=" M  1665.72,   112.27  L  1665.72,   154.76  L  1810.20,   154.76  L  1810.20,   112.27  L  1665.72,   112.27  " style="&st4; " /></a><a ewd:code="3" ewd:figID="29" ewd:figtype="jb" style="cursor:pointer;"><path d=" M  3866.85,    35.78  L  3866.85,   103.77  L  3926.34,   103.77  L  3926.34,    35.78  L  3866.85,    35.78  " style="&st4; " /></a><a ewd:code="3" ewd:figID="30" ewd:figtype="jb" style="cursor:pointer;"><path d=" M  3951.84,   205.75  L  3977.34,   205.75  L  3977.34,   256.74  L  3951.84,   256.74  L  3951.84,   205.75  " style="&st4; " /></a><a ewd:code="3" ewd:figID="31" ewd:figtype="jb" style="cursor:pointer;"><path d=" M  1963.17,   112.27  L  1963.17,   154.76  L  2031.16,   154.76  L  2031.16,   112.27  L  1963.17,   112.27  " style="&st4; " /></a><a ewd:code="3" ewd:figID="32" ewd:figtype="jb" style="cursor:pointer;"><path d=" M  2277.62,   112.27  L  2277.62,   154.76  L  2303.12,   154.76  L  2303.12,   112.27  L  2277.62,   112.27  " style="&st4; " /></a><a ewd:code="3" ewd:figID="33" ewd:figtype="jb" style="cursor:pointer;"><path d=" M  2116.15,   112.27  L  2116.15,   154.76  L  2184.14,   154.76  L  2184.14,   112.27  L  2116.15,   112.27  " style="&st4; " /></a><a ewd:code="3" ewd:figID="34" ewd:figtype="jb" style="cursor:pointer;"><path d=" M   118.98,    44.28  L   144.48,    44.28  L   144.48,    95.27  L   118.98,    95.27  L   118.98,    44.28  " style="&st4; " /></a><a ewd:code="FUSE51" ewd:figID="35" ewd:figtype="fuse" style="cursor:pointer;"><path d=" M  1287.53,    61.28  L  1287.53,   103.77  L  1313.03,   103.77  L  1313.03,    61.28  L  1287.53,    61.28 " style="&st7; stroke-width:0;" /></a><a ewd:code="FUSE52" ewd:figID="36" ewd:figtype="fuse" style="cursor:pointer;"><path d=" M  1364.02,    61.28  L  1364.02,   103.77  L  1389.52,   103.77  L  1389.52,    61.28  L  1364.02,    61.28 " style="&st7; stroke-width:0;" /></a><a ewd:code="FUSE10" ewd:figID="37" ewd:figtype="fuse" style="cursor:pointer;"><path d=" M  1211.05,    61.28  L  1211.05,   103.77  L  1236.54,   103.77  L  1236.54,    61.28  L  1211.05,    61.28 " style="&st7; stroke-width:0;" /></a><a ewd:code="FUSE4" ewd:figID="38" ewd:figtype="fuse" style="cursor:pointer;"><path d=" M  1143.06,    61.28  L  1143.06,   103.77  L  1168.55,   103.77  L  1168.55,    61.28  L  1143.06,    61.28 " style="&st7; stroke-width:0;" /></a><a ewd:code="FUSE23" ewd:figID="39" ewd:figtype="fuse" style="cursor:pointer;"><path d=" M  1075.07,    61.28  L  1075.07,   103.77  L  1100.57,   103.77  L  1100.57,    61.28  L  1075.07,    61.28 " style="&st7; stroke-width:0;" /></a><a ewd:code="FUSE23" ewd:figID="40" ewd:figtype="fuse" style="cursor:pointer;"><path d=" M    12.75,    35.78  L    12.75,    78.27  L    38.24,    78.27  L    38.24,    35.78  L    12.75,    35.78 " style="&st7; stroke-width:0;" /></a><a ewd:code="FUSE45" ewd:figID="41" ewd:figtype="fuse" style="cursor:pointer;"><path d=" M   225.21,    35.78  L   225.21,    78.27  L   250.71,    78.27  L   250.71,    35.78  L   225.21,    35.78 " style="&st7; stroke-width:0;" /></a><a ewd:code="FUSE10" ewd:figID="42" ewd:figtype="fuse" style="cursor:pointer;"><path d=" M  3956.09,    35.78  L  3956.09,    78.27  L  3981.58,    78.27  L  3981.58,    35.78  L  3956.09,    35.78 " style="&st7; stroke-width:0;" /></a><a ewd:code="FUSE45" ewd:figID="43" ewd:figtype="fuse" style="cursor:pointer;"><path d=" M  3871.10,    35.78  L  3871.10,    78.27  L  3896.60,    78.27  L  3896.60,    35.78  L  3871.10,    35.78 " style="&st7; stroke-width:0;" /></a><a ewd:lineID="1" style="cursor:pointer;"><path d=" M    25.50,   103.77  L    25.50,   146.26  L    84.99,   146.26  L    84.99,    27.28  L   135.98,    27.28  L   135.98,    44.28  " style="stroke:#008837;stroke-width: 5.10 ;&st6;" /></a><a ewd:lineID="2" style="cursor:pointer;"><path d=" M   135.98,   554.19  L   135.98,   681.67  " style="stroke:#000000;stroke-width: 5.10 ;&st6;" /></a><a ewd:lineID="3" style="cursor:pointer;"><path d=" M   135.98,   409.72  L   135.98,   537.20  " style="stroke:#000000;stroke-width: 5.10 ;&st6;" /></a><a ewd:lineID="4" style="cursor:pointer;"><path d=" M   135.98,   282.24  L   135.98,    95.27  " style="stroke:#FF0000;stroke-width: 5.10 ;&st6;" /></a><a ewd:lineID="5" style="cursor:pointer;"><path d=" M   178.47,   206.32  L   178.47,   265.24  L   144.48,   265.24  L   135.98,   273.74  L   135.98,   282.24  " style="stroke:#FF0000;stroke-width: 5.10 ;&st6;" /></a><a ewd:lineID="6" style="cursor:pointer;"><path d=" M   178.47,   162.69  L   178.47,   112.27  L   144.48,   112.27  L   135.98,   103.77  L   135.98,    95.27  " style="stroke:#FF0000;stroke-width: 5.10 ;&st6;" /></a><a ewd:lineID="7" style="cursor:pointer;"><path d=" M   186.97,   681.67  L   186.97,   545.69  L   144.48,   545.69  " style="stroke:#000000;stroke-width: 5.10 ;&st6;" /></a><a ewd:lineID="8" style="cursor:pointer;"><path d=" M   237.96,   180.26  L   237.96,   282.24  " style="stroke:#000000;stroke-width: 5.10 ;&st6;" /><path d=" M   237.96,   180.26  L   237.96,   282.24  " style="stroke:#FFFFFF;stroke-width: 4.53 ;&st6;" /><path d=" M   237.96,   180.26  L   237.96,   282.24  " style="stroke:#008837;stroke-width: 1.13 ;&st6;" /></a><a ewd:lineID="9" style="cursor:pointer;"><path d=" M   237.96,   103.77  L   237.96,   163.26  " style="stroke:#000000;stroke-width: 5.10 ;&st6;" /><path d=" M   237.96,   103.77  L   237.96,   163.26  " style="stroke:#FFFFFF;stroke-width: 4.53 ;&st6;" /><path d=" M   237.96,   103.77  L   237.96,   163.26  " style="stroke:#008837;stroke-width: 1.13 ;&st6;" /></a><a ewd:lineID="10" style="cursor:pointer;"><path d=" M  3373.94,   120.77  L  3373.94,    18.78  L   305.95,    18.78  L   305.95,   282.24  " style="stroke:#FF0000;stroke-width: 5.10 ;&st6;" /><path d=" M  3373.94,   120.77  L  3373.94,    18.78  L   305.95,    18.78  L   305.95,   282.24  " style="stroke:#FFFFFF;stroke-width: 2.27 ;&st6;" /><path d=" M  3373.94,   120.77  L  3373.94,    18.78  L   305.95,    18.78  L   305.95,   282.24  " style="stroke:#00A0C6;stroke-width: 1.13 ;&st6;" /></a><a ewd:lineID="11" style="cursor:pointer;"><path d=" M  2974.50,   120.77  L  2974.50,    35.78  L   331.44,    35.78  L   331.44,   282.24  " style="stroke:#008837;stroke-width: 5.10 ;&st6;" /></a><a ewd:lineID="12" style="cursor:pointer;"><path d=" M   382.44,   282.24  L   382.44,   273.74  L   390.93,   265.24  L   407.93,   265.24  L   407.93,   239.75  L   620.40,   239.75  L   620.40,   276.01  " style="stroke:#00A0C6;stroke-width: 5.10 ;&st6;" /></a><a ewd:lineID="13" style="cursor:pointer;"><path d=" M   866.86,   349.09  L   866.86,   188.75  L   382.44,   188.75  L   382.44,   282.24  " style="stroke:#00A0C6;stroke-width: 5.10 ;&st6;" /></a><a ewd:lineID="14" style="cursor:pointer;"><path d=" M   382.44,   282.24  L   382.44,   273.74  L   373.94,   265.24  L   356.94,   265.24  L   356.94,   171.76  L   883.85,   171.76  " style="stroke:#00A0C6;stroke-width: 5.10 ;&st6;" /></a><a ewd:lineID="15" style="cursor:pointer;"> d=" M   450.42,   409.72  L   450.42,   673.17  L  2133.14,   673.17  L  2133.14,   154.76 
	
		<path d=" M   450.42,   409.72  L   450.42,   673.17  L  2133.14,   673.17  L  2133.14,   154.76  " style="stroke:#000000;stroke-width: 5.10 ;&st6;" /><path d=" M   450.42,   409.72  L   450.42,   673.17  L  2133.14,   673.17  L  2133.14,   154.76  " style="stroke:#FFFFFF;stroke-width: 4.53 ;&st6;" /></a><a ewd:lineID="16" style="cursor:pointer;"><path d=" M   798.87,   349.09  L   798.87,   222.75  L   450.42,   222.75  L   450.42,   282.24  " style="stroke:#992903;stroke-width: 5.10 ;&st6;" /></a><a ewd:lineID="17" style="cursor:pointer;"><path d=" M   450.42,   282.24  L   450.42,   273.74  L   441.93,   265.24  L   424.93,   265.24  L   424.93,   205.75  L   815.86,   205.75  " style="stroke:#992903;stroke-width: 5.10 ;&st6;" /></a><a ewd:lineID="18" style="cursor:pointer;"><path d=" M   450.42,   282.24  L   450.42,   273.74  L   458.92,   265.24  L   586.40,   265.24  L   586.40,   656.18  L  2022.66,   656.18  L  2022.66,   154.76  " style="stroke:#992903;stroke-width: 5.10 ;&st6;" /></a><a ewd:lineID="19" style="cursor:pointer;"><path d=" M   620.40,   299.24  L   620.40,   639.18  L  1980.17,   639.18  L  1980.17,   154.76  " style="stroke:#00A0C6;stroke-width: 5.10 ;&st6;" /></a><a ewd:lineID="20" style="cursor:pointer;"><path d=" M   824.36,   214.25  L   824.36,   333.23  L   807.37,   333.23  L   798.87,   341.73  L   798.87,   349.09  " style="stroke:#992903;stroke-width: 5.10 ;&st6;" /></a><a ewd:lineID="21" style="cursor:pointer;"><path d=" M   798.87,   349.09  L   798.87,   341.73  L   790.37,   333.23  L   688.38,   333.23  L   688.38,   605.18  L  1920.68,   605.18  L  1920.68,   137.76  L  1903.68,   137.76  L  1895.18,   129.26  L  1895.18,   121.33  " style="stroke:#992903;stroke-width: 5.10 ;&st6;" /></a><a ewd:lineID="22" style="cursor:pointer;"><path d=" M   832.86,   681.67  L   832.86,   537.20  " style="stroke:#000000;stroke-width: 5.10 ;&st6;" /></a><a ewd:lineID="23" style="cursor:pointer;"><path d=" M   832.86,   520.20  L   832.86,   487.34  " style="stroke:#000000;stroke-width: 5.10 ;&st6;" /></a><a ewd:lineID="24" style="cursor:pointer;"><path d=" M   832.86,   205.75  L   943.34,   205.75  L   943.34,   588.19  L  1895.18,   588.19  L  1895.18,   121.33  " style="stroke:#992903;stroke-width: 5.10 ;&st6;" /></a><a ewd:lineID="25" style="cursor:pointer;"><path d=" M   892.35,   180.26  L   892.35,   333.23  L   875.35,   333.23  L   866.86,   341.73  L   866.86,   349.09  " style="stroke:#00A0C6;stroke-width: 5.10 ;&st6;" /></a><a ewd:lineID="26" style="cursor:pointer;"><path d=" M   866.86,   349.09  L   866.86,   341.73  L   858.36,   333.23  L   841.36,   333.23  L   841.36,   307.73  L   654.39,   307.73  L   654.39,   622.18  L  1869.69,   622.18  L  1869.69,   137.76  L  1852.69,   137.76  L  1844.19,   129.26  L  1844.19,   121.33  " style="stroke:#00A0C6;stroke-width: 5.10 ;&st6;" /></a><a ewd:lineID="27" style="cursor:pointer;"><path d=" M   900.85,   171.76  L   968.84,   171.76  L   968.84,   571.19  L  1844.19,   571.19  L  1844.19,   121.33  " style="stroke:#00A0C6;stroke-width: 5.10 ;&st6;" /></a><a ewd:lineID="28" style="cursor:pointer;"><path d=" M  1801.70,   154.76  L  1801.70,   367.22  L  1087.82,   367.22  L  1087.82,   137.76  " style="stroke:#008837;stroke-width: 5.10 ;&st6;" /></a><a ewd:lineID="29" style="cursor:pointer;"><path d=" M  1155.81,   237.76  L  1155.81,   341.73  L  1742.21,   341.73  L  1742.21,   274.31  " style="stroke:#008837;stroke-width: 5.10 ;&st6;" /><path d=" M  1155.81,   237.76  L  1155.81,   341.73  L  1742.21,   341.73  L  1742.21,   274.31  " style="stroke:#FFFFFF;stroke-width: 2.27 ;&st6;" /><path d=" M  1155.81,   237.76  L  1155.81,   341.73  L  1742.21,   341.73  L  1742.21,   274.31  " style="stroke:#FF0000;stroke-width: 1.13 ;&st6;" /></a><a ewd:lineID="30" style="cursor:pointer;"><path d=" M  1155.81,   137.76  L  1155.81,   214.25  " style="stroke:#008837;stroke-width: 5.10 ;&st6;" /><path d=" M  1155.81,   137.76  L  1155.81,   214.25  " style="stroke:#FFFFFF;stroke-width: 2.27 ;&st6;" /><path d=" M  1155.81,   137.76  L  1155.81,   214.25  " style="stroke:#FF0000;stroke-width: 1.13 ;&st6;" /></a><a ewd:lineID="31" style="cursor:pointer;"><path d=" M  1223.80,   137.76  L  1223.80,   307.73  " style="stroke:#00A0C6;stroke-width: 5.10 ;&st6;" /><path d=" M  1223.80,   137.76  L  1223.80,   307.73  " style="stroke:#FFFFFF;stroke-width: 2.27 ;&st6;" /><path d=" M  1223.80,   137.76  L  1223.80,   307.73  " style="stroke:#FF0000;stroke-width: 1.13 ;&st6;" /></a><a ewd:lineID="32" style="cursor:pointer;"><path d=" M  1232.29,   316.23  L  1682.72,   316.23  L  1682.72,   154.76  " style="stroke:#00A0C6;stroke-width: 5.10 ;&st6;" /><path d=" M  1232.29,   316.23  L  1682.72,   316.23  L  1682.72,   154.76  " style="stroke:#FFFFFF;stroke-width: 2.27 ;&st6;" /><path d=" M  1232.29,   316.23  L  1682.72,   316.23  L  1682.72,   154.76  " style="stroke:#FF0000;stroke-width: 1.13 ;&st6;" /></a><a ewd:lineID="33" style="cursor:pointer;"> d=" M  1300.28,   180.26  L  1300.28,   282.24  L  1623.23,   282.24  L  1623.23,   121.33 
	
		<path d=" M  1300.28,   180.26  L  1300.28,   282.24  L  1623.23,   282.24  L  1623.23,   121.33  " style="stroke:#000000;stroke-width: 5.10 ;&st6;" /><path d=" M  1300.28,   180.26  L  1300.28,   282.24  L  1623.23,   282.24  L  1623.23,   121.33  " style="stroke:#FFFFFF;stroke-width: 4.53 ;&st6;" /></a><a ewd:lineID="34" style="cursor:pointer;"><path d=" M  1742.21,   230.68  L  1742.21,   154.76  " style="stroke:#008837;stroke-width: 5.10 ;&st6;" /><path d=" M  1742.21,   230.68  L  1742.21,   154.76  " style="stroke:#FFFFFF;stroke-width: 2.27 ;&st6;" /><path d=" M  1742.21,   230.68  L  1742.21,   154.76  " style="stroke:#FF0000;stroke-width: 1.13 ;&st6;" /></a><a ewd:lineID="35" style="cursor:pointer;"><path d=" M  2175.64,   460.71  L  2175.64,   681.67  " style="stroke:#000000;stroke-width: 5.10 ;&st6;" /><path d=" M  2175.64,   460.71  L  2175.64,   681.67  " style="stroke:#FFFFFF;stroke-width: 2.27 ;&st6;" /><path d=" M  2175.64,   460.71  L  2175.64,   681.67  " style="stroke:#FFE600;stroke-width: 1.13 ;&st6;" /></a><a ewd:lineID="36" style="cursor:pointer;"><path d=" M  2175.64,   333.23  L  2175.64,   443.71  " style="stroke:#000000;stroke-width: 5.10 ;&st6;" /><path d=" M  2175.64,   333.23  L  2175.64,   443.71  " style="stroke:#FFFFFF;stroke-width: 2.27 ;&st6;" /><path d=" M  2175.64,   333.23  L  2175.64,   443.71  " style="stroke:#FFE600;stroke-width: 1.13 ;&st6;" /></a><a ewd:lineID="37" style="cursor:pointer;"><path d=" M  2175.64,   154.76  L  2175.64,   282.24  " style="stroke:#FF0000;stroke-width: 5.10 ;&st6;" /></a><a ewd:lineID="38" style="cursor:pointer;"><path d=" M  2184.14,   452.21  L  2226.63,   452.21  L  2226.63,   333.23  " style="stroke:#000000;stroke-width: 5.10 ;&st6;" /><path d=" M  2184.14,   452.21  L  2226.63,   452.21  L  2226.63,   333.23  " style="stroke:#FFFFFF;stroke-width: 2.27 ;&st6;" /><path d=" M  2184.14,   452.21  L  2226.63,   452.21  L  2226.63,   333.23  " style="stroke:#FFE600;stroke-width: 1.13 ;&st6;" /></a><a ewd:lineID="39" style="cursor:pointer;"><path d=" M  2294.62,   409.72  L  2294.62,   681.67  " style="stroke:#000000;stroke-width: 5.10 ;&st6;" /><path d=" M  2294.62,   409.72  L  2294.62,   681.67  " style="stroke:#FFFFFF;stroke-width: 2.27 ;&st6;" /><path d=" M  2294.62,   409.72  L  2294.62,   681.67  " style="stroke:#FFE600;stroke-width: 1.13 ;&st6;" /></a><a ewd:lineID="40" style="cursor:pointer;"><path d=" M  2294.62,   154.76  L  2294.62,   392.72  " style="stroke:#000000;stroke-width: 5.10 ;&st6;" /><path d=" M  2294.62,   154.76  L  2294.62,   392.72  " style="stroke:#FFFFFF;stroke-width: 2.27 ;&st6;" /><path d=" M  2294.62,   154.76  L  2294.62,   392.72  " style="stroke:#FFE600;stroke-width: 1.13 ;&st6;" /></a><a ewd:lineID="41" style="cursor:pointer;"><path d=" M  2362.61,   274.31  L  2362.61,   681.67  " style="stroke:#000000;stroke-width: 5.10 ;&st6;" /><path d=" M  2362.61,   274.31  L  2362.61,   681.67  " style="stroke:#FFFFFF;stroke-width: 2.27 ;&st6;" /><path d=" M  2362.61,   274.31  L  2362.61,   681.67  " style="stroke:#FFE600;stroke-width: 1.13 ;&st6;" /></a><a ewd:lineID="42" style="cursor:pointer;"><path d=" M  2362.61,   230.68  L  2362.61,   121.33  " style="stroke:#000000;stroke-width: 5.10 ;&st6;" /></a><a ewd:lineID="43" style="cursor:pointer;"><path d=" M  2430.59,   274.31  L  2430.59,   681.67  " style="stroke:#000000;stroke-width: 5.10 ;&st6;" /><path d=" M  2430.59,   274.31  L  2430.59,   681.67  " style="stroke:#FFFFFF;stroke-width: 2.27 ;&st6;" /><path d=" M  2430.59,   274.31  L  2430.59,   681.67  " style="stroke:#FFE600;stroke-width: 1.13 ;&st6;" /></a><a ewd:lineID="44" style="cursor:pointer;"><path d=" M  2430.59,   239.18  L  2430.59,   121.33  " style="stroke:#000000;stroke-width: 5.10 ;&st6;" /><path d=" M  2430.59,   239.18  L  2430.59,   121.33  " style="stroke:#FFFFFF;stroke-width: 2.27 ;&st6;" /><path d=" M  2430.59,   239.18  L  2430.59,   121.33  " style="stroke:#FFE600;stroke-width: 1.13 ;&st6;" /></a><a ewd:lineID="45" style="cursor:pointer;"><path d=" M  3824.36,   511.70  L  3824.36,   647.68  L  2507.08,   647.68  L  2507.08,   265.24  " style="stroke:#992903;stroke-width: 5.10 ;&st6;" /></a><a ewd:lineID="46" style="cursor:pointer;"><path d=" M  2507.08,   248.24  L  2507.08,   121.33  " style="stroke:#F668B2;stroke-width: 5.10 ;&st6;" /></a><a ewd:lineID="47" style="cursor:pointer;"><path d=" M  3790.37,   511.70  L  3790.37,   630.68  L  2541.08,   630.68  L  2541.08,   265.24  " style="stroke:#992903;stroke-width: 5.10 ;&st6;" /><path d=" M  3790.37,   511.70  L  3790.37,   630.68  L  2541.08,   630.68  L  2541.08,   265.24  " style="stroke:#FFFFFF;stroke-width: 1.13 ;&st6;" /></a><a ewd:lineID="48" style="cursor:pointer;"><path d=" M  2541.08,   248.24  L  2541.08,   121.33  " style="stroke:#7FC97F;stroke-width: 5.10 ;&st6;" /></a><a ewd:lineID="49" style="cursor:pointer;"><path d=" M  2677.05,   681.67  L  2677.05,   503.20  " style="stroke:#000000;stroke-width: 5.10 ;&st6;" /></a><a ewd:lineID="50" style="cursor:pointer;"><path d=" M  2719.55,   681.67  L  2719.55,   664.67  L  2685.55,   664.67  L  2677.05,   673.17  L  2677.05,   681.67  " style="stroke:#000000;stroke-width: 5.10 ;&st6;" /></a><a ewd:lineID="51" style="cursor:pointer;"><path d=" M  2677.05,   486.20  L  2677.05,   359.29  " style="stroke:#000000;stroke-width: 5.10 ;&st6;" /></a><a ewd:lineID="52" style="cursor:pointer;"> d=" M  2677.05,   298.10  L  2677.05,   222.75 
	
		<path d=" M  2677.05,   298.10  L  2677.05,   222.75  " style="stroke:#000000;stroke-width: 5.10 ;&st6;" /><path d=" M  2677.05,   298.10  L  2677.05,   222.75  " style="stroke:#FFFFFF;stroke-width: 4.53 ;&st6;" /></a><a ewd:lineID="53" style="cursor:pointer;"><path d=" M  3297.45,   120.77  L  3297.45,    78.27  L  2677.05,    78.27  L  2677.05,   208.02  " style="stroke:#000000;stroke-width: 5.10 ;&st6;" /><path d=" M  3297.45,   120.77  L  3297.45,    78.27  L  2677.05,    78.27  L  2677.05,   208.02  " style="stroke:#FFFFFF;stroke-width: 4.53 ;&st6;" /><path d=" M  3297.45,   120.77  L  3297.45,    78.27  L  2677.05,    78.27  L  2677.05,   208.02  " style="stroke:#00A0C6;stroke-width: 1.13 ;&st6;" /></a><a ewd:lineID="54" style="cursor:pointer;"><path d=" M  2779.04,   359.29  L  2779.04,   494.70  L  2685.55,   494.70  " style="stroke:#000000;stroke-width: 5.10 ;&st6;" /></a><a ewd:lineID="55" style="cursor:pointer;"><path d=" M  2779.04,   222.75  L  2779.04,   298.10  " style="stroke:#FFE600;stroke-width: 5.10 ;&st6;" /><path d=" M  2779.04,   222.75  L  2779.04,   298.10  " style="stroke:#FFFFFF;stroke-width: 2.27 ;&st6;" /><path d=" M  2779.04,   222.75  L  2779.04,   298.10  " style="stroke:#008837;stroke-width: 1.13 ;&st6;" /></a><a ewd:lineID="56" style="cursor:pointer;"><path d=" M  2872.52,   120.77  L  2872.52,    95.27  L  2779.04,    95.27  L  2779.04,   207.73  " style="stroke:#FF0000;stroke-width: 5.10 ;&st6;" /><path d=" M  2872.52,   120.77  L  2872.52,    95.27  L  2779.04,    95.27  L  2779.04,   207.73  " style="stroke:#FFFFFF;stroke-width: 1.13 ;&st6;" /></a><a ewd:lineID="57" style="cursor:pointer;"><path d=" M  2923.51,   546.26  L  2923.51,   562.69  L  2872.52,   562.69  L  2872.52,   452.21  " style="stroke:#000000;stroke-width: 5.10 ;&st6;" /></a><a ewd:lineID="58" style="cursor:pointer;"><path d=" M  2872.52,   358.73  L  2872.52,   435.21  " style="stroke:#000000;stroke-width: 5.10 ;&st6;" /></a><a ewd:lineID="59" style="cursor:pointer;"><path d=" M  2872.52,   205.75  L  2872.52,   307.73  " style="stroke:#000000;stroke-width: 5.10 ;&st6;" /><path d=" M  2872.52,   205.75  L  2872.52,   307.73  " style="stroke:#FFFFFF;stroke-width: 4.53 ;&st6;" /><path d=" M  2872.52,   205.75  L  2872.52,   307.73  " style="stroke:#000000;stroke-width: 1.13 ;&st6;" /></a><a ewd:lineID="60" style="cursor:pointer;"><path d=" M  2974.50,   367.79  L  2974.50,   443.71  L  2881.02,   443.71  " style="stroke:#000000;stroke-width: 5.10 ;&st6;" /></a><a ewd:lineID="61" style="cursor:pointer;"><path d=" M  2957.51,   681.67  L  2957.51,   596.69  " style="stroke:#000000;stroke-width: 5.10 ;&st6;" /></a><a ewd:lineID="62" style="cursor:pointer;"><path d=" M  2957.51,   579.69  L  2957.51,   546.26  " style="stroke:#000000;stroke-width: 5.10 ;&st6;" /></a><a ewd:lineID="63" style="cursor:pointer;"><path d=" M  2966.00,   588.19  L  3288.95,   588.19  " style="stroke:#000000;stroke-width: 5.10 ;&st6;" /></a><a ewd:lineID="64" style="cursor:pointer;"><path d=" M  2974.50,   205.75  L  2974.50,   289.60  " style="stroke:#000000;stroke-width: 5.10 ;&st6;" /><path d=" M  2974.50,   205.75  L  2974.50,   289.60  " style="stroke:#FFFFFF;stroke-width: 4.53 ;&st6;" /><path d=" M  2974.50,   205.75  L  2974.50,   289.60  " style="stroke:#FF0000;stroke-width: 1.13 ;&st6;" /></a><a ewd:lineID="65" style="cursor:pointer;"><path d=" M  2974.50,   205.75  L  2974.50,   214.25  L  2983.00,   222.75  L  3059.49,   222.75  L  3059.49,   289.60  " style="stroke:#000000;stroke-width: 5.10 ;&st6;" /><path d=" M  2974.50,   205.75  L  2974.50,   214.25  L  2983.00,   222.75  L  3059.49,   222.75  L  3059.49,   289.60  " style="stroke:#FFFFFF;stroke-width: 4.53 ;&st6;" /><path d=" M  2974.50,   205.75  L  2974.50,   214.25  L  2983.00,   222.75  L  3059.49,   222.75  L  3059.49,   289.60  " style="stroke:#FF0000;stroke-width: 1.13 ;&st6;" /></a><a ewd:lineID="66" style="cursor:pointer;"><path d=" M  3059.49,   546.26  L  3059.49,   562.69  L  2991.50,   562.69  L  2991.50,   546.26  " style="stroke:#000000;stroke-width: 5.10 ;&st6;" /></a><a ewd:lineID="67" style="cursor:pointer;"><path d=" M  3059.49,   494.14  L  3059.49,   350.79  " style="stroke:#000000;stroke-width: 5.10 ;&st6;" /></a><a ewd:lineID="68" style="cursor:pointer;"><path d=" M  3186.97,   494.14  L  3186.97,   350.79  " style="stroke:#000000;stroke-width: 5.10 ;&st6;" /></a><a ewd:lineID="69" style="cursor:pointer;"><path d=" M  3297.45,   205.75  L  3297.45,   214.25  L  3288.95,   222.75  L  3186.97,   222.75  L  3186.97,   289.60  " style="stroke:#999999;stroke-width: 5.10 ;&st6;" /></a><a ewd:lineID="70" style="cursor:pointer;"><path d=" M  3297.45,   579.69  L  3297.45,   367.79  " style="stroke:#000000;stroke-width: 5.10 ;&st6;" /></a><a ewd:lineID="71" style="cursor:pointer;"><path d=" M  3297.45,   205.75  L  3297.45,   289.60  " style="stroke:#999999;stroke-width: 5.10 ;&st6;" /></a><a ewd:lineID="72" style="cursor:pointer;"><path d=" M  3373.94,   358.73  L  3373.94,   588.19  L  3305.95,   588.19  " style="stroke:#000000;stroke-width: 5.10 ;&st6;" /></a><a ewd:lineID="73" style="cursor:pointer;"><path d=" M  3373.94,   307.73  L  3373.94,   205.75  " style="stroke:#992903;stroke-width: 5.10 ;&st6;" /><path d=" M  3373.94,   307.73  L  3373.94,   205.75  " style="stroke:#FFFFFF;stroke-width: 2.27 ;&st6;" /><path d=" M  3373.94,   307.73  L  3373.94,   205.75  " style="stroke:#FF0000;stroke-width: 1.13 ;&st6;" /></a><a ewd:lineID="74" style="cursor:pointer;"><path d=" M  3756.37,   290.74  L  3756.37,    69.77  L  3416.43,    69.77  L  3416.43,   120.77  " style="stroke:#000000;stroke-width: 5.10 ;&st6;" /><path d=" M  3756.37,   290.74  L  3756.37,    69.77  L  3416.43,    69.77  L  3416.43,   120.77  " style="stroke:#FFFFFF;stroke-width: 4.53 ;&st6;" /><path d=" M  3756.37,   290.74  L  3756.37,    69.77  L  3416.43,    69.77  L  3416.43,   120.77  " style="stroke:#FF0000;stroke-width: 1.13 ;&st6;" /></a><a ewd:lineID="75" style="cursor:pointer;"><path d=" M  3713.88,   290.74  L  3713.88,    95.27  L  3458.92,    95.27  L  3458.92,   120.77  " style="stroke:#999999;stroke-width: 5.10 ;&st6;" /></a><a ewd:lineID="76" style="cursor:pointer;"><path d=" M  3883.85,   596.69  L  3883.85,   681.67  " style="stroke:#000000;stroke-width: 5.10 ;&st6;" /><path d=" M  3883.85,   596.69  L  3883.85,   681.67  " style="stroke:#FFFFFF;stroke-width: 2.27 ;&st6;" /><path d=" M  3883.85,   596.69  L  3883.85,   681.67  " style="stroke:#FFE600;stroke-width: 1.13 ;&st6;" /></a><a ewd:lineID="77" style="cursor:pointer;"><path d=" M  3883.85,   511.70  L  3883.85,   579.69  " style="stroke:#000000;stroke-width: 5.10 ;&st6;" /><path d=" M  3883.85,   511.70  L  3883.85,   579.69  " style="stroke:#FFFFFF;stroke-width: 2.27 ;&st6;" /><path d=" M  3883.85,   511.70  L  3883.85,   579.69  " style="stroke:#FFE600;stroke-width: 1.13 ;&st6;" /></a><a ewd:lineID="78" style="cursor:pointer;"><path d=" M  3883.85,   222.75  L  3883.85,   290.74  " style="stroke:#000000;stroke-width: 5.10 ;&st6;" /><path d=" M  3883.85,   222.75  L  3883.85,   290.74  " style="stroke:#FFFFFF;stroke-width: 4.53 ;&st6;" /><path d=" M  3883.85,   222.75  L  3883.85,   290.74  " style="stroke:#008837;stroke-width: 1.13 ;&st6;" /></a><a ewd:lineID="79" style="cursor:pointer;"><path d=" M  3883.85,   205.75  L  3883.85,   103.77  " style="stroke:#000000;stroke-width: 5.10 ;&st6;" /><path d=" M  3883.85,   205.75  L  3883.85,   103.77  " style="stroke:#FFFFFF;stroke-width: 4.53 ;&st6;" /><path d=" M  3883.85,   205.75  L  3883.85,   103.77  " style="stroke:#008837;stroke-width: 1.13 ;&st6;" /></a><a ewd:lineID="80" style="cursor:pointer;"><path d=" M  3926.34,   511.70  L  3926.34,   588.19  L  3892.35,   588.19  " style="stroke:#000000;stroke-width: 5.10 ;&st6;" /><path d=" M  3926.34,   511.70  L  3926.34,   588.19  L  3892.35,   588.19  " style="stroke:#FFFFFF;stroke-width: 2.27 ;&st6;" /><path d=" M  3926.34,   511.70  L  3926.34,   588.19  L  3892.35,   588.19  " style="stroke:#FFE600;stroke-width: 1.13 ;&st6;" /></a><a ewd:lineID="81" style="cursor:pointer;"><path d=" M  3968.84,   256.74  L  3968.84,   290.74  " style="stroke:#FF0000;stroke-width: 5.10 ;&st6;" /><path d=" M  3968.84,   256.74  L  3968.84,   290.74  " style="stroke:#FFFFFF;stroke-width: 1.13 ;&st6;" /></a><a ewd:lineID="82" style="cursor:pointer;"><path d=" M  3968.84,   205.75  L  3968.84,   163.26  " style="stroke:#00A0C6;stroke-width: 5.10 ;&st6;" /><path d=" M  3968.84,   205.75  L  3968.84,   163.26  " style="stroke:#FFFFFF;stroke-width: 2.27 ;&st6;" /><path d=" M  3968.84,   205.75  L  3968.84,   163.26  " style="stroke:#FF0000;stroke-width: 1.13 ;&st6;" /></a><a ewd:lineID="83" style="cursor:pointer;"><path d=" M  3968.84,   103.77  L  3968.84,   146.26  " style="stroke:#00A0C6;stroke-width: 5.10 ;&st6;" /><path d=" M  3968.84,   103.77  L  3968.84,   146.26  " style="stroke:#FFFFFF;stroke-width: 2.27 ;&st6;" /><path d=" M  3968.84,   103.77  L  3968.84,   146.26  " style="stroke:#FF0000;stroke-width: 1.13 ;&st6;" /></a><a ewd:code="AD1" ewd:figID="44" ewd:figtype="w2w" ewd:pinNo="27" style="cursor:pointer;"><path d=" M   628.89,   282.24  L   611.90,   282.24  L   611.90,   290.74  L   628.89,   290.74  L   628.89,   282.24 " style="&st2;" /><text style="&st8;" transform="matrix(&st16;  614.83  288.61 )"><tspan style="&st18;" x="0" y="0">AD1</tspan></text></a><a ewd:code="AD2" ewd:figID="45" ewd:figtype="w2w" ewd:pinNo="15" style="cursor:pointer;"><path d=" M   628.89,   290.74  L   611.90,   290.74  L   611.90,   299.24  L   628.89,   299.24  L   628.89,   290.74 " style="&st2;" /><text style="&st8;" transform="matrix(&st16;  614.83  297.11 )"><tspan style="&st18;" x="0" y="0">AD2</tspan></text></a><a ewd:code="HD1" ewd:figID="46" ewd:figtype="w2w" ewd:pinNo="22" style="cursor:pointer;"><path d=" M  2685.55,   214.25  L  2668.55,   214.25  L  2668.55,   222.75  L  2685.55,   222.75  L  2685.55,   214.25 " style="&st2;" /><text style="&st8;" transform="matrix(&st16;  2671.3  220.62 )"><tspan style="&st18;" x="0" y="0">HD1</tspan></text></a><a ewd:code="HD1" ewd:figID="47" ewd:figtype="w2w" ewd:pinNo="23" style="cursor:pointer;"><path d=" M  2787.53,   214.25  L  2770.54,   214.25  L  2770.54,   222.75  L  2787.53,   222.75  L  2787.53,   214.25 " style="&st2;" /><text style="&st8;" transform="matrix(&st16;  2773.28  220.62 )"><tspan style="&st18;" x="0" y="0">HD1</tspan></text></a><a ewd:code="AD1" ewd:figID="48" ewd:figtype="w2w" ewd:pinNo="31" style="cursor:pointer;"><path d=" M  1164.31,   222.75  L  1147.31,   222.75  L  1147.31,   231.25  L  1164.31,   231.25  L  1164.31,   222.75 " style="&st2;" /><text style="&st8;" transform="matrix(&st16;  1150.24  229.12 )"><tspan style="&st18;" x="0" y="0">AD1</tspan></text></a><a ewd:code="AD2" ewd:figID="49" ewd:figtype="w2w" ewd:pinNo="25" style="cursor:pointer;"><path d=" M  1164.31,   214.25  L  1147.31,   214.25  L  1147.31,   222.75  L  1164.31,   222.75  L  1164.31,   214.25 " style="&st2;" /><text style="&st8;" transform="matrix(&st16;  1150.24  220.62 )"><tspan style="&st18;" x="0" y="0">AD2</tspan></text></a><a ewd:code="D3" ewd:figID="50" ewd:figtype="gp" style="cursor:pointer;"><path d=" M  2165.01,   681.67  L  2186.26,   681.67  L  2175.64,   697.25  L  2165.01,   681.67 " style="&st2;" /><text style="&st8;" transform="matrix(&st16;  2172.06  689.46 )"><tspan style="&st18;" x="0" y="0">D3</tspan></text></a><a ewd:code="D1" ewd:figID="51" ewd:figtype="gp" style="cursor:pointer;"><path d=" M   125.35,   681.67  L   146.60,   681.67  L   135.98,   697.25  L   125.35,   681.67 " style="&st2;" /><text style="&st8;" transform="matrix(&st16;  132.4  689.46 )"><tspan style="&st18;" x="0" y="0">D1</tspan></text></a><a ewd:code="D3" ewd:figID="52" ewd:figtype="gp" style="cursor:pointer;"><path d=" M  3873.23,   681.67  L  3894.47,   681.67  L  3883.85,   697.25  L  3873.23,   681.67 " style="&st2;" /><text style="&st8;" transform="matrix(&st16;  3880.28  689.46 )"><tspan style="&st18;" x="0" y="0">D3</tspan></text></a><a ewd:code="D3" ewd:figID="53" ewd:figtype="gp" style="cursor:pointer;"><path d=" M  2283.99,   681.67  L  2305.24,   681.67  L  2294.62,   697.25  L  2283.99,   681.67 " style="&st2;" /><text style="&st8;" transform="matrix(&st16;  2291.04  689.46 )"><tspan style="&st18;" x="0" y="0">D3</tspan></text></a><a ewd:code="A3" ewd:figID="54" ewd:figtype="gp" style="cursor:pointer;"><path d=" M  2419.97,   681.67  L  2441.22,   681.67  L  2430.59,   697.25  L  2419.97,   681.67 " style="&st2;" /><text style="&st8;" transform="matrix(&st16;  2427.09  689.46 )"><tspan style="&st18;" x="0" y="0">A3</tspan></text></a><a ewd:code="D1" ewd:figID="55" ewd:figtype="gp" style="cursor:pointer;"><path d=" M  2351.98,   681.67  L  2373.23,   681.67  L  2362.61,   697.25  L  2351.98,   681.67 " style="&st2;" /><text style="&st8;" transform="matrix(&st16;  2359.03  689.46 )"><tspan style="&st18;" x="0" y="0">D1</tspan></text></a><a ewd:code="H1" ewd:figID="56" ewd:figtype="gp" style="cursor:pointer;"><path d=" M  2666.43,   681.67  L  2687.68,   681.67  L  2677.05,   697.25  L  2666.43,   681.67 " style="&st2;" /><text style="&st8;" transform="matrix(&st16;  2673.37  689.46 )"><tspan style="&st18;" x="0" y="0">H1</tspan></text></a><a ewd:code="D4" ewd:figID="57" ewd:figtype="gp" style="cursor:pointer;"><path d=" M   176.35,   681.67  L   197.59,   681.67  L   186.97,   697.25  L   176.35,   681.67 " style="&st2;" /><text style="&st8;" transform="matrix(&st16;  183.39  689.46 )"><tspan style="&st18;" x="0" y="0">D4</tspan></text></a><a ewd:code="A7" ewd:figID="58" ewd:figtype="gp" style="cursor:pointer;"><path d=" M  2946.88,   681.67  L  2968.13,   681.67  L  2957.51,   697.25  L  2946.88,   681.67 " style="&st2;" /><text style="&st8;" transform="matrix(&st16;  2954.01  689.46 )"><tspan style="&st18;" x="0" y="0">A7</tspan></text></a><a ewd:code="H3" ewd:figID="59" ewd:figtype="gp" style="cursor:pointer;"><path d=" M  2708.92,   681.67  L  2730.17,   681.67  L  2719.55,   697.25  L  2708.92,   681.67 " style="&st2;" /><text style="&st8;" transform="matrix(&st16;  2715.86  689.46 )"><tspan style="&st18;" x="0" y="0">H3</tspan></text></a><a ewd:code="D1" ewd:figID="60" ewd:figtype="gp" style="cursor:pointer;"><path d=" M   822.24,   681.67  L   843.48,   681.67  L   832.86,   697.25  L   822.24,   681.67 " style="&st2;" /><text style="&st8;" transform="matrix(&st16;  829.29  689.46 )"><tspan style="&st18;" x="0" y="0">D1</tspan></text></a><a ewd:code="11485" ewd:figID="61" ewd:figtype="sp" style="cursor:pointer;"><path d=" M  2290.37,   392.72  L  2298.87,   392.72  L  2303.12,   396.97  L  2303.12,   405.47  L  2298.87,   409.72  L  2290.37,   409.72  L  2286.12,   405.47  L  2286.12,   396.97  L  2290.37,   392.72 " style="&st2;" /></a><a ewd:code="13969" ewd:figID="62" ewd:figtype="sp" style="cursor:pointer;"><path d=" M   828.61,   520.20  L   837.11,   520.20  L   841.36,   524.45  L   841.36,   532.95  L   837.11,   537.20  L   828.61,   537.20  L   824.36,   532.95  L   824.36,   524.45  L   828.61,   520.20 " style="&st2;" /></a><a ewd:code="14821" ewd:figID="63" ewd:figtype="sp" style="cursor:pointer;"><path d=" M  2868.27,   435.21  L  2876.77,   435.21  L  2881.02,   439.46  L  2881.02,   447.96  L  2876.77,   452.21  L  2868.27,   452.21  L  2864.02,   447.96  L  2864.02,   439.46  L  2868.27,   435.21 " style="&st2;" /></a><a ewd:code="13621" ewd:figID="64" ewd:figtype="sp" style="cursor:pointer;"><path d=" M  1219.55,   307.73  L  1228.04,   307.73  L  1232.29,   311.98  L  1232.29,   320.48  L  1228.04,   324.73  L  1219.55,   324.73  L  1215.30,   320.48  L  1215.30,   311.98  L  1219.55,   307.73 " style="&st2;" /></a><a ewd:code="13765" ewd:figID="65" ewd:figtype="sp" style="cursor:pointer;"><path d=" M   131.73,   537.20  L   140.23,   537.20  L   144.48,   541.44  L   144.48,   549.94  L   140.23,   554.19  L   131.73,   554.19  L   127.48,   549.94  L   127.48,   541.44  L   131.73,   537.20 " style="&st2;" /></a><a ewd:code="14881" ewd:figID="66" ewd:figtype="sp" style="cursor:pointer;"><path d=" M  2672.80,   486.20  L  2681.30,   486.20  L  2685.55,   490.45  L  2685.55,   498.95  L  2681.30,   503.20  L  2672.80,   503.20  L  2668.55,   498.95  L  2668.55,   490.45  L  2672.80,   486.20 " style="&st2;" /></a><a ewd:code="13705" ewd:figID="67" ewd:figtype="sp" style="cursor:pointer;"><path d=" M   233.71,   163.26  L   242.21,   163.26  L   246.46,   167.51  L   246.46,   176.01  L   242.21,   180.26  L   233.71,   180.26  L   229.46,   176.01  L   229.46,   167.51  L   233.71,   163.26 " style="&st2;" /></a><a ewd:code="13849" ewd:figID="68" ewd:figtype="sp" style="cursor:pointer;"><path d=" M   820.11,   197.25  L   828.61,   197.25  L   832.86,   201.50  L   832.86,   210.00  L   828.61,   214.25  L   820.11,   214.25  L   815.86,   210.00  L   815.86,   201.50  L   820.11,   197.25 " style="&st2;" /></a><a ewd:code="13909" ewd:figID="69" ewd:figtype="sp" style="cursor:pointer;"><path d=" M   888.10,   163.26  L   896.60,   163.26  L   900.85,   167.51  L   900.85,   176.01  L   896.60,   180.26  L   888.10,   180.26  L   883.85,   176.01  L   883.85,   167.51  L   888.10,   163.26 " style="&st2;" /></a><a ewd:code="15865" ewd:figID="70" ewd:figtype="sp" style="cursor:pointer;"><path d=" M  2171.39,   443.71  L  2179.89,   443.71  L  2184.14,   447.96  L  2184.14,   456.46  L  2179.89,   460.71  L  2171.39,   460.71  L  2167.14,   456.46  L  2167.14,   447.96  L  2171.39,   443.71 " style="&st2;" /></a><a ewd:code="14485" ewd:figID="71" ewd:figtype="sp" style="cursor:pointer;"><path d=" M  3964.59,   146.26  L  3973.09,   146.26  L  3977.34,   150.51  L  3977.34,   159.01  L  3973.09,   163.26  L  3964.59,   163.26  L  3960.34,   159.01  L  3960.34,   150.51  L  3964.59,   146.26 " style="&st2;" /></a><a ewd:code="14617" ewd:figID="72" ewd:figtype="sp" style="cursor:pointer;"><path d=" M  3879.60,   579.69  L  3888.10,   579.69  L  3892.35,   583.94  L  3892.35,   592.44  L  3888.10,   596.69  L  3879.60,   596.69  L  3875.35,   592.44  L  3875.35,   583.94  L  3879.60,   579.69 " style="&st2;" /></a><a ewd:code="14701" ewd:figID="73" ewd:figtype="sp" style="cursor:pointer;"><path d=" M  3293.20,   579.69  L  3301.70,   579.69  L  3305.95,   583.94  L  3305.95,   592.44  L  3301.70,   596.69  L  3293.20,   596.69  L  3288.95,   592.44  L  3288.95,   583.94  L  3293.20,   579.69 " style="&st2;" /></a><a ewd:code="14761" ewd:figID="74" ewd:figtype="sp" style="cursor:pointer;"><path d=" M  2953.26,   579.69  L  2961.76,   579.69  L  2966.00,   583.94  L  2966.00,   592.44  L  2961.76,   596.69  L  2953.26,   596.69  L  2949.01,   592.44  L  2949.01,   583.94  L  2953.26,   579.69 " style="&st2;" /></a><a ewd:code="14557" ewd:figID="75" ewd:figtype="sp" style="cursor:pointer;"><path d=" M  3879.60,   205.75  L  3888.10,   205.75  L  3892.35,   210.00  L  3892.35,   218.50  L  3888.10,   222.75  L  3879.60,   222.75  L  3875.35,   218.50  L  3875.35,   210.00  L  3879.60,   205.75 " style="&st2;" /></a></g></svg>